<?xml version="1.0"?>
<VTKFile type="PolyData" version="0.1" byte_order="LittleEndian">
  <PolyData>
    <Piece NumberOfPoints="     22" NumberOfVerts="  0" NumberOfLines="     21"
           NumberOfStrips="  0" NumberOfPolys="      0">
      <Points>
        <DataArray type="Float32" NumberOfComponents="3" format="ascii">
                       0.00013                       0.00002                       2.19000
                       0.00129                       0.00020                       6.57000
                       0.00388                       0.00051                      10.95000
                       0.00801                       0.00092                      15.33000
                       0.01372                       0.00140                      19.70999
                       0.02097                       0.00190                      24.08999
                       0.02972                       0.00240                      28.46998
                       0.03992                       0.00285                      32.84997
                       0.05155                       0.00321                      37.22995
                       0.06464                       0.00343                      41.60993
                       0.07922                       0.00346                      45.98991
                       0.09536                       0.00324                      50.36988
                       0.11317                       0.00274                      54.74984
                       0.13270                       0.00190                      59.12980
                       0.15400                       0.00069                      63.50974
                       0.17703                      -0.00092                      67.88968
                       0.20160                      -0.00294                      72.26961
                       0.22736                      -0.00535                      76.64954
                       0.25371                      -0.00812                      81.02946
                       0.27971                      -0.01117                      85.40938
                       0.29219                      -0.01276                      87.59934
                       0.00000                       0.00000                       0.00000
        </DataArray>
      </Points>
      <PointData>
        <DataArray type="Float32" Name="TranslationalVelocity" NumberOfComponents="3" format="ascii">
                       0.00008                       0.00053                      -0.00000
                       0.00077                       0.00446                      -0.00000
                       0.00219                       0.01162                      -0.00000
                       0.00429                       0.02143                      -0.00000
                       0.00700                       0.03340                      -0.00001
                       0.01019                       0.04713                      -0.00002
                       0.01370                       0.06220                      -0.00003
                       0.01738                       0.07823                      -0.00004
                       0.02104                       0.09478                      -0.00005
                       0.02451                       0.11139                      -0.00006
                       0.02762                       0.12755                      -0.00007
                       0.03022                       0.14274                      -0.00008
                       0.03217                       0.15641                      -0.00008
                       0.03338                       0.16804                      -0.00009
                       0.03377                       0.17714                      -0.00009
                       0.03329                       0.18333                      -0.00008
                       0.03194                       0.18638                      -0.00007
                       0.02972                       0.18625                      -0.00006
                       0.02671                       0.18320                      -0.00004
                       0.02298                       0.17783                      -0.00002
                       0.02088                       0.17461                      -0.00001
                       0.00000                      -0.00000                       0.00000
        </DataArray>
        <DataArray type="Float32" Name="RotationalVelocity" NumberOfComponents="3" format="ascii">
                      -0.00048                       0.00008                       0.00000
                      -0.00129                       0.00024                       0.00000
                      -0.00196                       0.00040                       0.00000
                      -0.00250                       0.00055                       0.00000
                      -0.00295                       0.00068                       0.00000
                      -0.00330                       0.00077                       0.00000
                      -0.00357                       0.00083                       0.00000
                      -0.00374                       0.00084                       0.00000
                      -0.00380                       0.00082                       0.00000
                      -0.00376                       0.00076                       0.00000
                      -0.00360                       0.00066                       0.00000
                      -0.00331                       0.00052                       0.00000
                      -0.00291                       0.00036                       0.00000
                      -0.00238                       0.00018                       0.00000
                      -0.00176                      -0.00001                       0.00000
                      -0.00106                      -0.00021                       0.00000
                      -0.00033                      -0.00041                       0.00000
                       0.00038                      -0.00060                       0.00000
                       0.00099                      -0.00077                       0.00000
                       0.00142                      -0.00092                       0.00000
                       0.00153                      -0.00099                       0.00000
                       0.00000                      -0.00000                       0.00000
        </DataArray>
        <DataArray type="Float32" Name="TranslationalAcceleration" NumberOfComponents="3" format="ascii">
                      -0.00129                      -0.00350                      -0.00000
                      -0.01216                      -0.02928                       0.00000
                      -0.03459                      -0.07566                       0.00001
                      -0.06828                      -0.13804                       0.00002
                      -0.11209                      -0.21231                       0.00005
                      -0.16427                      -0.29449                       0.00010
                      -0.22265                      -0.38050                       0.00017
                      -0.28484                      -0.46602                       0.00027
                      -0.34837                      -0.54634                       0.00038
                      -0.41080                      -0.61643                       0.00050
                      -0.46987                      -0.67093                       0.00063
                      -0.52357                      -0.70434                       0.00078
                      -0.57018                      -0.71122                       0.00092
                      -0.60832                      -0.68649                       0.00106
                      -0.63699                      -0.62579                       0.00120
                      -0.65551                      -0.52598                       0.00133
                      -0.66354                      -0.38560                       0.00143
                      -0.66099                      -0.20553                       0.00151
                      -0.64796                       0.01034                       0.00157
                      -0.62464                       0.25438                       0.00159
                      -0.60918                       0.38342                       0.00159
                       0.00000                      -0.00000                       0.00000
        </DataArray>
        <DataArray type="Float32" Name="RotationalAcceleration" NumberOfComponents="3" format="ascii">
                       0.00314                      -0.00120                       0.00000
                       0.00842                      -0.00379                       0.00000
                       0.01258                      -0.00644                       0.00000
                       0.01575                      -0.00890                       0.00000
                       0.01801                      -0.01103                       0.00000
                       0.01936                      -0.01271                       0.00000
                       0.01975                      -0.01386                       0.00000
                       0.01912                      -0.01445                       0.00000
                       0.01737                      -0.01447                       0.00000
                       0.01443                      -0.01395                       0.00000
                       0.01025                      -0.01295                       0.00000
                       0.00480                      -0.01151                       0.00000
                      -0.00186                      -0.00972                       0.00000
                      -0.00961                      -0.00766                       0.00000
                      -0.01823                      -0.00541                       0.00000
                      -0.02740                      -0.00304                       0.00000
                      -0.03667                      -0.00062                       0.00000
                      -0.04541                       0.00178                       0.00000
                      -0.05287                       0.00416                       0.00000
                      -0.05810                       0.00649                       0.00000
                      -0.05952                       0.00764                       0.00000
                       0.00000                      -0.00000                       0.00000
        </DataArray>
        <DataArray type="Float32" Name="OrientationX" NumberOfComponents="3" format="ascii">
                       1.00000                      -0.00000                      -0.00012
                       1.00000                      -0.00000                      -0.00042
                       1.00000                      -0.00000                      -0.00076
                       1.00000                      -0.00000                      -0.00112
                       1.00000                      -0.00000                      -0.00148
                       1.00000                      -0.00000                      -0.00183
                       1.00000                      -0.00000                      -0.00216
                       1.00000                      -0.00000                      -0.00249
                       1.00000                      -0.00000                      -0.00282
                       1.00000                      -0.00000                      -0.00316
                       0.99999                       0.00000                      -0.00350
                       0.99999                       0.00000                      -0.00387
                       0.99999                       0.00000                      -0.00426
                       0.99999                       0.00000                      -0.00466
                       0.99999                       0.00000                      -0.00506
                       0.99999                       0.00000                      -0.00544
                       0.99998                       0.00000                      -0.00576
                       0.99998                       0.00000                      -0.00598
                       0.99998                       0.00000                      -0.00602
                       0.99998                       0.00000                      -0.00581
                       0.99998                       0.00000                      -0.00557
                       1.00000                      -0.00000                       0.00000
        </DataArray>
        <DataArray type="Float32" Name="OrientationY" NumberOfComponents="3" format="ascii">
                      -0.00000                       1.00000                      -0.00002
                      -0.00000                       1.00000                      -0.00006
                      -0.00000                       1.00000                      -0.00008
                      -0.00000                       1.00000                      -0.00010
                      -0.00000                       1.00000                      -0.00011
                      -0.00000                       1.00000                      -0.00012
                      -0.00000                       1.00000                      -0.00011
                      -0.00000                       1.00000                      -0.00009
                      -0.00000                       1.00000                      -0.00007
                      -0.00000                       1.00000                      -0.00003
                       0.00000                       1.00000                       0.00002
                       0.00000                       1.00000                       0.00008
                       0.00000                       1.00000                       0.00015
                       0.00000                       1.00000                       0.00023
                       0.00000                       1.00000                       0.00032
                       0.00000                       1.00000                       0.00041
                       0.00000                       1.00000                       0.00051
                       0.00000                       1.00000                       0.00059
                       0.00000                       1.00000                       0.00067
                       0.00000                       1.00000                       0.00072
                       0.00000                       1.00000                       0.00073
                      -0.00000                       1.00000                      -0.00000
        </DataArray>
        <DataArray type="Float32" Name="OrientationZ" NumberOfComponents="3" format="ascii">
                       0.00012                       0.00002                       1.00000
                       0.00042                       0.00006                       1.00000
                       0.00076                       0.00008                       1.00000
                       0.00112                       0.00010                       1.00000
                       0.00148                       0.00011                       1.00000
                       0.00183                       0.00012                       1.00000
                       0.00216                       0.00011                       1.00000
                       0.00249                       0.00009                       1.00000
                       0.00282                       0.00007                       1.00000
                       0.00316                       0.00003                       1.00000
                       0.00350                      -0.00002                       0.99999
                       0.00387                      -0.00008                       0.99999
                       0.00426                      -0.00015                       0.99999
                       0.00466                      -0.00023                       0.99999
                       0.00506                      -0.00032                       0.99999
                       0.00544                      -0.00041                       0.99999
                       0.00576                      -0.00051                       0.99998
                       0.00598                      -0.00059                       0.99998
                       0.00602                      -0.00067                       0.99998
                       0.00581                      -0.00072                       0.99998
                       0.00557                      -0.00073                       0.99998
                       0.00000                      -0.00000                       1.00000
        </DataArray>
      </PointData>
      <Lines>
        <DataArray type="Int32" Name="connectivity" format="ascii">
      0      1
      1      2
      2      3
      3      4
      4      5
      5      6
      6      7
      7      8
      8      9
      9     10
     10     11
     11     12
     12     13
     13     14
     14     15
     15     16
     16     17
     17     18
     18     19
     19     20
     21      0
        </DataArray>
        <DataArray type="Int32" Name="offsets" format="ascii">
      2
      4
      6
      8
     10
     12
     14
     16
     18
     20
     22
     24
     26
     28
     30
     32
     34
     36
     38
     40
     42
        </DataArray>
      </Lines>
    </Piece>
  </PolyData>
</VTKFile>
