<?xml version="1.0"?>
<VTKFile type="PolyData" version="0.1" byte_order="LittleEndian">
  <PolyData>
    <Piece NumberOfPoints="     22" NumberOfVerts="  0" NumberOfLines="     21"
           NumberOfStrips="  0" NumberOfPolys="      0">
      <Points>
        <DataArray type="Float32" NumberOfComponents="3" format="ascii">
                       0.00014                       0.00001                       2.19000
                       0.00135                       0.00004                       6.57000
                       0.00400                       0.00011                      10.95000
                       0.00819                       0.00018                      15.33000
                       0.01393                       0.00025                      19.70999
                       0.02115                       0.00030                      24.08999
                       0.02978                       0.00030                      28.46998
                       0.03972                       0.00024                      32.84997
                       0.05091                       0.00008                      37.22995
                       0.06332                      -0.00020                      41.60994
                       0.07694                      -0.00063                      45.98991
                       0.09179                      -0.00124                      50.36989
                       0.10792                      -0.00205                      54.74986
                       0.12536                      -0.00309                      59.12982
                       0.14412                      -0.00438                      63.50978
                       0.16415                      -0.00593                      67.88974
                       0.18530                      -0.00773                      72.26969
                       0.20726                      -0.00978                      76.64963
                       0.22951                      -0.01206                      81.02957
                       0.25126                      -0.01450                      85.40952
                       0.26162                      -0.01577                      87.59949
                       0.00000                       0.00000                       0.00000
        </DataArray>
      </Points>
      <PointData>
        <DataArray type="Float32" Name="TranslationalVelocity" NumberOfComponents="3" format="ascii">
                       0.00006                       0.00003                      -0.00000
                       0.00058                       0.00027                      -0.00000
                       0.00162                       0.00070                      -0.00000
                       0.00313                       0.00130                      -0.00000
                       0.00504                       0.00204                      -0.00000
                       0.00722                       0.00292                      -0.00001
                       0.00953                       0.00390                      -0.00001
                       0.01183                       0.00499                      -0.00002
                       0.01395                       0.00616                      -0.00002
                       0.01571                       0.00741                      -0.00003
                       0.01695                       0.00871                      -0.00003
                       0.01753                       0.01004                      -0.00003
                       0.01731                       0.01140                      -0.00003
                       0.01617                       0.01274                      -0.00003
                       0.01405                       0.01406                      -0.00002
                       0.01090                       0.01534                      -0.00000
                       0.00674                       0.01656                       0.00002
                       0.00163                       0.01770                       0.00004
                      -0.00431                       0.01878                       0.00007
                      -0.01089                       0.01981                       0.00011
                      -0.01433                       0.02031                       0.00012
                       0.00000                      -0.00000                       0.00000
        </DataArray>
        <DataArray type="Float32" Name="RotationalVelocity" NumberOfComponents="3" format="ascii">
                      -0.00003                       0.00006                       0.00000
                      -0.00008                       0.00018                       0.00000
                      -0.00012                       0.00029                       0.00000
                      -0.00015                       0.00039                       0.00000
                      -0.00019                       0.00047                       0.00000
                      -0.00021                       0.00052                       0.00000
                      -0.00024                       0.00053                       0.00000
                      -0.00026                       0.00051                       0.00000
                      -0.00028                       0.00045                       0.00000
                      -0.00029                       0.00035                       0.00000
                      -0.00030                       0.00021                       0.00000
                      -0.00031                       0.00005                       0.00000
                      -0.00031                      -0.00015                       0.00000
                      -0.00031                      -0.00037                       0.00000
                      -0.00030                      -0.00060                       0.00000
                      -0.00028                      -0.00084                       0.00000
                      -0.00027                      -0.00106                       0.00000
                      -0.00025                      -0.00127                       0.00000
                      -0.00024                      -0.00144                       0.00000
                      -0.00023                      -0.00156                       0.00000
                      -0.00023                      -0.00159                       0.00000
                       0.00000                      -0.00000                       0.00000
        </DataArray>
        <DataArray type="Float32" Name="TranslationalAcceleration" NumberOfComponents="3" format="ascii">
                      -0.00117                      -0.00231                       0.00000
                      -0.01089                      -0.01939                       0.00000
                      -0.03064                      -0.05036                       0.00002
                      -0.05991                      -0.09252                       0.00005
                      -0.09742                      -0.14357                       0.00010
                      -0.14134                      -0.20141                       0.00017
                      -0.18943                      -0.26399                       0.00026
                      -0.23920                      -0.32917                       0.00037
                      -0.28803                      -0.39467                       0.00049
                      -0.33330                      -0.45801                       0.00061
                      -0.37251                      -0.51654                       0.00073
                      -0.40337                      -0.56751                       0.00082
                      -0.42390                      -0.60813                       0.00089
                      -0.43250                      -0.63574                       0.00091
                      -0.42803                      -0.64799                       0.00089
                      -0.40985                      -0.64306                       0.00081
                      -0.37788                      -0.61995                       0.00066
                      -0.33261                      -0.57876                       0.00044
                      -0.27515                      -0.52110                       0.00017
                      -0.20723                      -0.45045                      -0.00013
                      -0.17007                      -0.41198                      -0.00029
                       0.00000                      -0.00000                       0.00000
        </DataArray>
        <DataArray type="Float32" Name="RotationalAcceleration" NumberOfComponents="3" format="ascii">
                       0.00207                      -0.00108                       0.00000
                       0.00560                      -0.00337                       0.00000
                       0.00844                      -0.00563                       0.00000
                       0.01072                      -0.00768                       0.00000
                       0.01251                      -0.00937                       0.00000
                       0.01383                      -0.01059                       0.00000
                       0.01467                      -0.01127                       0.00000
                       0.01501                      -0.01136                       0.00000
                       0.01480                      -0.01084                       0.00000
                       0.01402                      -0.00974                       0.00000
                       0.01261                      -0.00808                       0.00000
                       0.01056                      -0.00593                       0.00000
                       0.00789                      -0.00338                       0.00000
                       0.00463                      -0.00051                       0.00000
                       0.00089                       0.00257                       0.00000
                      -0.00318                       0.00573                       0.00000
                      -0.00737                       0.00885                       0.00000
                      -0.01138                       0.01178                       0.00000
                      -0.01482                       0.01439                       0.00000
                      -0.01722                       0.01654                       0.00000
                      -0.01785                       0.01739                       0.00000
                       0.00000                      -0.00000                       0.00000
        </DataArray>
        <DataArray type="Float32" Name="OrientationX" NumberOfComponents="3" format="ascii">
                       1.00000                      -0.00000                      -0.00013
                       1.00000                      -0.00000                      -0.00043
                       1.00000                      -0.00000                      -0.00078
                       1.00000                      -0.00000                      -0.00114
                       1.00000                      -0.00000                      -0.00148
                       1.00000                      -0.00000                      -0.00181
                       1.00000                       0.00000                      -0.00212
                       1.00000                       0.00000                      -0.00241
                       1.00000                       0.00000                      -0.00270
                       1.00000                       0.00000                      -0.00297
                       0.99999                       0.00000                      -0.00325
                       0.99999                       0.00000                      -0.00353
                       0.99999                       0.00000                      -0.00383
                       0.99999                       0.00000                      -0.00413
                       0.99999                       0.00000                      -0.00443
                       0.99999                       0.00000                      -0.00471
                       0.99999                       0.00000                      -0.00494
                       0.99999                       0.00000                      -0.00507
                       0.99999                       0.00000                      -0.00506
                       0.99999                       0.00000                      -0.00483
                       0.99999                       0.00000                      -0.00461
                       1.00000                      -0.00000                       0.00000
        </DataArray>
        <DataArray type="Float32" Name="OrientationY" NumberOfComponents="3" format="ascii">
                      -0.00000                       1.00000                      -0.00000
                      -0.00000                       1.00000                      -0.00001
                      -0.00000                       1.00000                      -0.00002
                      -0.00000                       1.00000                      -0.00002
                      -0.00000                       1.00000                      -0.00001
                      -0.00000                       1.00000                      -0.00001
                       0.00000                       1.00000                       0.00001
                       0.00000                       1.00000                       0.00002
                       0.00000                       1.00000                       0.00005
                       0.00000                       1.00000                       0.00008
                       0.00000                       1.00000                       0.00012
                       0.00000                       1.00000                       0.00016
                       0.00000                       1.00000                       0.00021
                       0.00000                       1.00000                       0.00027
                       0.00000                       1.00000                       0.00032
                       0.00000                       1.00000                       0.00038
                       0.00000                       1.00000                       0.00044
                       0.00000                       1.00000                       0.00050
                       0.00000                       1.00000                       0.00054
                       0.00000                       1.00000                       0.00057
                       0.00000                       1.00000                       0.00058
                      -0.00000                       1.00000                      -0.00000
        </DataArray>
        <DataArray type="Float32" Name="OrientationZ" NumberOfComponents="3" format="ascii">
                       0.00013                       0.00000                       1.00000
                       0.00043                       0.00001                       1.00000
                       0.00078                       0.00002                       1.00000
                       0.00114                       0.00002                       1.00000
                       0.00148                       0.00001                       1.00000
                       0.00181                       0.00001                       1.00000
                       0.00212                      -0.00001                       1.00000
                       0.00241                      -0.00002                       1.00000
                       0.00270                      -0.00005                       1.00000
                       0.00297                      -0.00008                       1.00000
                       0.00325                      -0.00012                       0.99999
                       0.00353                      -0.00016                       0.99999
                       0.00383                      -0.00021                       0.99999
                       0.00413                      -0.00027                       0.99999
                       0.00443                      -0.00032                       0.99999
                       0.00471                      -0.00038                       0.99999
                       0.00494                      -0.00044                       0.99999
                       0.00507                      -0.00050                       0.99999
                       0.00506                      -0.00054                       0.99999
                       0.00483                      -0.00057                       0.99999
                       0.00461                      -0.00058                       0.99999
                       0.00000                      -0.00000                       1.00000
        </DataArray>
      </PointData>
      <Lines>
        <DataArray type="Int32" Name="connectivity" format="ascii">
      0      1
      1      2
      2      3
      3      4
      4      5
      5      6
      6      7
      7      8
      8      9
      9     10
     10     11
     11     12
     12     13
     13     14
     14     15
     15     16
     16     17
     17     18
     18     19
     19     20
     21      0
        </DataArray>
        <DataArray type="Int32" Name="offsets" format="ascii">
      2
      4
      6
      8
     10
     12
     14
     16
     18
     20
     22
     24
     26
     28
     30
     32
     34
     36
     38
     40
     42
        </DataArray>
      </Lines>
    </Piece>
  </PolyData>
</VTKFile>
