<?xml version="1.0"?>
<VTKFile type="PolyData" version="0.1" byte_order="LittleEndian">
  <PolyData>
    <Piece NumberOfPoints="     19" NumberOfVerts="  0" NumberOfLines="     18"
           NumberOfStrips="  0" NumberOfPolys="      0">
      <Points>
        <DataArray type="Float32" NumberOfComponents="3" format="ascii">
                      -4.72801                      -1.45812                      90.35617
                      -4.75983                      -2.79187                      90.65420
                      -4.85423                      -5.48017                      91.15807
                      -4.96096                      -8.17900                      91.61608
                      -5.09695                     -11.55940                      92.15773
                      -5.18370                     -15.58901                      92.93381
                      -5.22428                     -19.59434                      93.82467
                      -5.26300                     -23.60188                      94.70913
                      -5.30797                     -27.61130                      95.59039
                      -5.37478                     -31.62234                      96.46928
                      -5.48326                     -35.63409                      97.34608
                      -5.65375                     -39.64335                      98.22695
                      -5.91090                     -43.64544                      99.11795
                      -6.28185                     -47.63357                     100.02635
                      -6.79347                     -51.59887                     100.96013
                      -7.35241                     -54.87671                     101.76541
                      -7.89291                     -57.47506                     102.43824
                      -8.51147                     -60.03917                     103.18491
                      -8.87437                     -61.31645                     103.52933
        </DataArray>
      </Points>
      <PointData>
        <DataArray type="Float32" Name="TranslationalVelocity" NumberOfComponents="3" format="ascii">
                      -0.52289                      -0.99384                      -4.79324
                      -0.92906                      -1.95858                      -9.15416
                      -1.75097                      -3.58170                     -17.97031
                      -2.57998                      -5.05551                     -26.86097
                      -3.62345                      -6.80152                     -38.06380
                      -4.87529                      -9.35145                     -51.52292
                      -6.12997                     -12.32265                     -65.02112
                      -7.39795                     -15.30078                     -78.65041
                      -8.68284                     -18.29372                     -92.40697
                      -9.98876                     -21.29795                    -106.28401
                     -11.31953                     -24.30542                    -120.26970
                     -12.67801                     -27.32757                    -134.34218
                     -14.06564                     -30.37362                    -148.47328
                     -15.48187                     -33.45608                    -162.62699
                     -16.92359                     -36.59003                    -176.76045
                     -18.13998                     -39.25718                    -188.48411
                     -19.11834                     -41.46219                    -197.79903
                     -20.09537                     -43.90479                    -207.00927
                     -20.58345                     -45.00406                    -211.60437
        </DataArray>
        <DataArray type="Float32" Name="RotationalVelocity" NumberOfComponents="3" format="ascii">
                       3.26621                      -0.00308                      -0.30360
                       3.27064                      -0.00336                      -0.30403
                       3.28237                      -0.00382                      -0.30512
                       3.29732                      -0.00434                      -0.30640
                       3.31913                      -0.00542                      -0.30814
                       3.34810                      -0.00785                      -0.31033
                       3.37817                      -0.01203                      -0.31257
                       3.40777                      -0.01822                      -0.31493
                       3.43576                      -0.02644                      -0.31755
                       3.46138                      -0.03639                      -0.32063
                       3.48420                      -0.04733                      -0.32434
                       3.50410                      -0.05812                      -0.32887
                       3.52123                      -0.06709                      -0.33433
                       3.53594                      -0.07202                      -0.34076
                       3.54877                      -0.07004                      -0.34807
                       3.55851                      -0.06090                      -0.35465
                       3.56597                      -0.04669                      -0.36010
                       3.57341                      -0.02483                      -0.36553
                       3.57720                      -0.01058                      -0.36817
        </DataArray>
        <DataArray type="Float32" Name="TranslationalAcceleration" NumberOfComponents="3" format="ascii">
                      -1.98733                      13.09289                      -4.90452
                      -0.93797                      18.17042                      -5.15703
                      -2.46547                      52.76225                     -13.52948
                      -3.51949                      85.41858                     -20.27979
                      -4.14024                     124.56282                     -27.16017
                      -4.04955                     169.97670                     -35.51338
                      -3.07959                     215.12884                     -44.25513
                      -1.17543                     261.19953                     -52.37753
                       1.45699                     308.59292                     -60.16146
                       4.54657                     357.37553                     -67.76165
                       7.76885                     407.36350                     -75.25655
                      10.74831                     458.21416                     -82.75595
                      13.08620                     509.53010                     -90.35440
                      14.37546                     560.95387                     -98.17594
                      14.22267                     612.26898                    -106.38645
                      12.70097                     654.94836                    -113.72299
                      10.43692                     689.12342                    -120.11880
                       6.79051                     723.52415                    -127.62294
                       4.86178                     740.89483                    -131.18337
        </DataArray>
        <DataArray type="Float32" Name="OrientationX" NumberOfComponents="3" format="ascii">
                       0.94820                      -0.09150                      -0.30420
                       0.94821                      -0.09114                      -0.30430
                       0.94813                      -0.09012                      -0.30483
                       0.94797                      -0.08870                      -0.30576
                       0.94764                      -0.08652                      -0.30738
                       0.95675                      -0.07748                      -0.28041
                       0.96224                      -0.07113                      -0.26273
                       0.96606                      -0.06744                      -0.24935
                       0.96919                      -0.06695                      -0.23706
                       0.97130                      -0.07108                      -0.22697
                       0.97179                      -0.08141                      -0.22133
                       0.97060                      -0.09869                      -0.21951
                       0.96686                      -0.12387                      -0.22323
                       0.95926                      -0.15751                      -0.23457
                       0.94810                      -0.19823                      -0.24863
                       0.93584                      -0.23653                      -0.26128
                       0.92381                      -0.26951                      -0.27194
                       0.90881                      -0.30421                      -0.28550
                       0.89997                      -0.32201                      -0.29387
        </DataArray>
        <DataArray type="Float32" Name="OrientationY" NumberOfComponents="3" format="ascii">
                       0.31682                       0.20224                       0.92668
                       0.31682                       0.20197                       0.92673
                       0.31710                       0.20128                       0.92679
                       0.31767                       0.20042                       0.92678
                       0.31876                       0.19921                       0.92666
                       0.29046                       0.20016                       0.93572
                       0.27181                       0.19992                       0.94136
                       0.25792                       0.19902                       0.94545
                       0.24577                       0.19776                       0.94894
                       0.23672                       0.19610                       0.95158
                       0.23327                       0.19394                       0.95288
                       0.23498                       0.19131                       0.95299
                       0.24375                       0.18793                       0.95145
                       0.26178                       0.18308                       0.94760
                       0.28410                       0.17688                       0.94234
                       0.30473                       0.17059                       0.93704
                       0.32244                       0.16467                       0.93216
                       0.34345                       0.15701                       0.92595
                       0.35558                       0.15221                       0.92217
        </DataArray>
        <DataArray type="Float32" Name="OrientationZ" NumberOfComponents="3" format="ascii">
                      -0.02327                      -0.97505                       0.22075
                      -0.02301                      -0.97514                       0.22039
                      -0.02217                      -0.97538                       0.21942
                      -0.02092                      -0.97569                       0.21817
                      -0.01894                      -0.97613                       0.21636
                      -0.01637                      -0.97669                       0.21401
                      -0.01443                      -0.97723                       0.21170
                      -0.01414                      -0.97767                       0.20966
                      -0.01665                      -0.97796                       0.20812
                      -0.02313                      -0.97800                       0.20730
                      -0.03465                      -0.97763                       0.20746
                      -0.05206                      -0.97655                       0.20888
                      -0.07591                      -0.97434                       0.21190
                      -0.10631                      -0.97040                       0.21685
                      -0.14282                      -0.96406                       0.22401
                      -0.17707                      -0.95653                       0.23172
                      -0.20644                      -0.94881                       0.23902
                      -0.23686                      -0.93958                       0.24717
                      -0.25222                      -0.93442                       0.25149
        </DataArray>
        <DataArray type="Float32" Name="Force" NumberOfComponents="3" format="ascii">
                       4.41489                      10.68201                      47.64757
                     521.47973                      39.75386                     229.88855
                     732.74704                     120.11337                     604.04111
                     718.45695                     176.51938                     847.96269
                    5068.48907                    -574.12837                   -2113.85538
                    5838.77685                    -545.14147                   -1996.14637
                    6586.84773                    -527.92663                   -1931.98549
                    8828.67765                    -642.60043                   -2320.87743
                    9688.38654                    -658.70294                   -2234.82516
                   10684.30028                    -750.42125                   -2256.15029
                   13482.44324                   -1053.14540                   -2603.61810
                   13490.29095                   -1256.12529                   -2414.08926
                   10149.24906                   -1175.16744                   -1706.33717
                    4609.58253                    -624.49808                    -524.31547
                    -253.87647                     145.01481                     451.85538
                   -8553.12799                    2037.84565                    1882.61823
                  -16119.47002                    4270.17798                    3102.77679
                  -18632.83085                    5553.77062                    3423.24202
                  -44685.85439                   13248.90037                    4666.33821
        </DataArray>
        <DataArray type="Float32" Name="Moment" NumberOfComponents="3" format="ascii">
                       0.00000                       0.00000                       0.00000
                       0.00000                       0.00000                       0.00000
                       0.00000                       0.00000                       0.00000
                       0.00000                       0.00000                       0.00000
                      42.86636                    2251.51586                    -508.73463
                      66.51731                    4104.11485                    -926.25646
                      75.95598                    5421.03795                   -1222.36933
                     113.52869                    8395.95964                   -1892.79234
                     190.31978                   11943.66663                   -2695.26079
                     304.55898                   13562.56174                   -3068.78268
                     513.77942                   15019.73546                   -3414.84927
                     832.90473                   15977.31910                   -3659.09726
                     927.33475                   12059.09568                   -2789.42835
                    1271.62183                   11684.36673                   -2737.31932
                    1617.02427                   10939.80159                   -2602.40080
                    1855.25404                   10021.04197                   -2418.49966
                    1907.90481                    8757.10998                   -2140.01980
                    1086.39581                    4301.26216                   -1064.95361
                      15.24272                      56.35809                     -14.04715
        </DataArray>
      </PointData>
      <Lines>
        <DataArray type="Int32" Name="connectivity" format="ascii">
      0      1
      1      2
      2      3
      3      4
      4      5
      5      6
      6      7
      7      8
      8      9
      9     10
     10     11
     11     12
     12     13
     13     14
     14     15
     15     16
     16     17
     17     18
        </DataArray>
        <DataArray type="Int32" Name="offsets" format="ascii">
      2
      4
      6
      8
     10
     12
     14
     16
     18
     20
     22
     24
     26
     28
     30
     32
     34
     36
        </DataArray>
      </Lines>
    </Piece>
  </PolyData>
</VTKFile>
