<?xml version="1.0"?>
<VTKFile type="PolyData" version="0.1" byte_order="LittleEndian">
  <PolyData>
    <Piece NumberOfPoints="     19" NumberOfVerts="  0" NumberOfLines="     18"
           NumberOfStrips="  0" NumberOfPolys="      0">
      <Points>
        <DataArray type="Float32" NumberOfComponents="3" format="ascii">
                      -4.81376                      -0.19068                      91.49694
                      -4.75177                      -0.36541                      92.85126
                      -4.65220                      -0.80867                      95.54999
                      -4.56216                      -1.29602                      98.24437
                      -4.45060                      -1.93078                     101.60981
                      -4.25238                      -2.54906                     105.66357
                      -4.02091                      -3.03622                     109.73236
                      -3.79384                      -3.51805                     113.80268
                      -3.58362                      -3.99202                     117.87586
                      -3.41050                      -4.45861                     121.95274
                      -3.29917                      -4.91897                     126.03322
                      -3.27508                      -5.36791                     130.11654
                      -3.36740                      -5.79997                     134.20006
                      -3.60699                      -6.20764                     138.27887
                      -4.02320                      -6.58162                     142.34552
                      -4.53149                      -6.85777                     145.71712
                      -5.04944                      -7.04318                     148.39896
                      -5.66317                      -7.14603                     151.06832
                      -6.02722                      -7.22366                     152.38819
        </DataArray>
      </Points>
      <PointData>
        <DataArray type="Float32" Name="TranslationalVelocity" NumberOfComponents="3" format="ascii">
                      -0.04541                      -4.86736                      -0.61613
                      -0.09740                      -9.30067                      -1.18570
                      -0.22841                     -18.13335                      -2.63163
                      -0.37191                     -26.95711                      -4.22317
                      -0.55808                     -37.99115                      -6.29928
                      -0.73795                     -51.32046                      -8.32596
                      -0.87667                     -64.73112                      -9.92665
                      -1.00939                     -78.16789                     -11.51240
                      -1.13372                     -91.63025                     -13.07461
                      -1.24819                    -105.11333                     -14.61438
                      -1.35164                    -118.60780                     -16.13497
                      -1.44151                    -132.10189                     -17.61854
                      -1.51568                    -145.57705                     -19.04616
                      -1.57214                    -159.00740                     -20.39192
                      -1.60923                    -172.35997                     -21.62383
                      -1.62379                    -183.39491                     -22.52994
                      -1.62299                    -192.14776                     -23.13484
                      -1.59901                    -200.83990                     -23.46382
                      -1.59326                    -205.12469                     -23.71366
        </DataArray>
        <DataArray type="Float32" Name="RotationalVelocity" NumberOfComponents="3" format="ascii">
                       3.25923                      -0.00066                      -0.29200
                       3.26018                      -0.00063                      -0.29201
                       3.26260                      -0.00054                      -0.29205
                       3.26560                      -0.00040                      -0.29203
                       3.26987                      -0.00017                      -0.29183
                       3.27539                       0.00025                      -0.29108
                       3.28098                       0.00085                      -0.28958
                       3.28633                       0.00169                      -0.28715
                       3.29124                       0.00281                      -0.28373
                       3.29559                       0.00424                      -0.27932
                       3.29931                       0.00599                      -0.27408
                       3.30243                       0.00804                      -0.26828
                       3.30500                       0.01033                      -0.26236
                       3.30712                       0.01276                      -0.25694
                       3.30893                       0.01517                      -0.25284
                       3.31031                       0.01703                      -0.25109
                       3.31139                       0.01829                      -0.25135
                       3.31251                       0.01924                      -0.25354
                       3.31311                       0.01956                      -0.25550
        </DataArray>
        <DataArray type="Float32" Name="TranslationalAcceleration" NumberOfComponents="3" format="ascii">
                      -1.19747                       2.21107                     -15.92456
                      -1.67354                       2.57171                     -19.19330
                      -4.81586                       8.35240                     -54.82107
                      -7.75029                      14.20051                     -87.55654
                     -11.24083                      21.39422                    -125.80964
                     -15.31787                      28.10622                    -169.62546
                     -19.38653                      33.18330                    -212.63746
                     -23.49632                      38.11167                    -255.68284
                     -27.67143                      42.93333                    -299.29008
                     -31.90230                      47.67378                    -343.60930
                     -36.15410                      52.32953                    -388.51312
                     -40.37844                      56.80400                    -433.70739
                     -44.52075                      60.98596                    -478.82308
                     -48.52997                      64.74290                    -523.51963
                     -52.36779                      67.93850                    -567.59057
                     -55.41929                      70.05281                    -603.83720
                     -57.77878                      71.26716                    -632.65099
                     -60.12580                      71.52906                    -661.58351
                     -61.23976                      71.92512                    -676.07918
        </DataArray>
        <DataArray type="Float32" Name="OrientationX" NumberOfComponents="3" format="ascii">
                       0.96952                      -0.23369                      -0.07357
                       0.96951                      -0.23369                      -0.07375
                       0.96940                      -0.23394                      -0.07443
                       0.96918                      -0.23449                      -0.07551
                       0.96877                      -0.23562                      -0.07724
                       0.97537                      -0.20714                      -0.07585
                       0.97913                      -0.18906                      -0.07452
                       0.98168                      -0.17666                      -0.07145
                       0.98379                      -0.16715                      -0.06490
                       0.98531                      -0.16213                      -0.05366
                       0.98574                      -0.16422                      -0.03682
                       0.98484                      -0.17292                      -0.01341
                       0.98166                      -0.18988                       0.01686
                       0.97474                      -0.21681                       0.05358
                       0.96397                      -0.24790                       0.09650
                       0.95181                      -0.27497                       0.13585
                       0.93993                      -0.29673                       0.16880
                       0.92556                      -0.32046                       0.20162
                       0.91735                      -0.33339                       0.21753
        </DataArray>
        <DataArray type="Float32" Name="OrientationY" NumberOfComponents="3" format="ascii">
                       0.24083                       0.96420                       0.11100
                       0.24085                       0.96420                       0.11093
                       0.24117                       0.96416                       0.11063
                       0.24183                       0.96405                       0.11015
                       0.24313                       0.96381                       0.10935
                       0.21469                       0.97039                       0.11067
                       0.19656                       0.97415                       0.11129
                       0.18387                       0.97657                       0.11177
                       0.17364                       0.97837                       0.11243
                       0.16732                       0.97938                       0.11322
                       0.16740                       0.97927                       0.11403
                       0.17331                       0.97813                       0.11497
                       0.18670                       0.97552                       0.11622
                       0.20939                       0.97065                       0.11831
                       0.23577                       0.96417                       0.12164
                       0.25878                       0.95775                       0.12547
                       0.27733                       0.95203                       0.12931
                       0.29793                       0.94508                       0.13442
                       0.30931                       0.94094                       0.13767
        </DataArray>
        <DataArray type="Float32" Name="OrientationZ" NumberOfComponents="3" format="ascii">
                       0.04499                      -0.12534                       0.99109
                       0.04519                      -0.12531                       0.99109
                       0.04588                      -0.12519                       0.99107
                       0.04697                      -0.12501                       0.99104
                       0.04868                      -0.12471                       0.99100
                       0.05068                      -0.12423                       0.99096
                       0.05155                      -0.12362                       0.99099
                       0.05003                      -0.12286                       0.99116
                       0.04470                      -0.12188                       0.99154
                       0.03420                      -0.12053                       0.99212
                       0.01734                      -0.11856                       0.99280
                      -0.00677                      -0.11555                       0.99328
                      -0.03851                      -0.11094                       0.99308
                      -0.07766                      -0.10410                       0.99153
                      -0.12320                      -0.09451                       0.98787
                      -0.16461                      -0.08427                       0.98275
                      -0.19907                      -0.07473                       0.97713
                      -0.23362                      -0.06435                       0.97020
                      -0.25058                      -0.05900                       0.96630
        </DataArray>
        <DataArray type="Float32" Name="Force" NumberOfComponents="3" format="ascii">
                       0.31952                      28.33234                       3.56852
                     487.51469                     227.48362                       6.54072
                     661.06658                     592.53466                      44.33894
                     630.92412                     830.87672                      75.19659
                    5143.78061                   -1803.98888                    -480.87403
                    5930.61726                   -1607.98153                    -506.70694
                    6673.35417                   -1484.49262                    -534.95454
                    8764.22994                   -1685.03680                    -655.45783
                    9366.84687                   -1533.63370                    -616.00942
                    9943.99990                   -1464.76995                    -527.47931
                   11976.43129                   -1612.10994                    -411.72815
                   11001.45310                   -1404.29497                    -100.52200
                    6284.65623                    -712.24879                     155.69951
                    1280.78698                      -6.22524                     100.05569
                   -6606.41684                    1359.94501                    -659.22391
                  -16297.28642                    3018.79726                   -2373.03895
                  -23806.19151                    4461.61363                   -4333.32561
                  -22994.47580                    4505.89827                   -5025.45573
                  -35895.71818                    6438.41764                   -8593.04335
        </DataArray>
        <DataArray type="Float32" Name="Moment" NumberOfComponents="3" format="ascii">
                       0.00000                       0.00000                       0.00000
                       0.00000                       0.00000                       0.00000
                       0.00000                       0.00000                       0.00000
                       0.00000                       0.00000                       0.00000
                    -109.25952                     281.39665                   -2224.37350
                    -209.20637                     517.68030                   -4091.40498
                    -283.04322                     688.58024                   -5441.65855
                    -420.50178                    1054.29522                   -8332.95483
                    -525.49191                    1474.80080                  -11662.16975
                    -452.39094                    1659.81103                  -13137.60875
                    -251.47395                    1823.39468                  -14454.37520
                     105.50185                    1916.24435                  -15223.52035
                     442.54456                    1424.26053                  -11347.57937
                     864.27163                    1372.94213                  -10977.89594
                    1258.70581                    1249.83333                  -10035.78690
                    1560.76492                    1148.44751                   -9257.87700
                    1613.49406                     972.18536                   -7863.16011
                     896.00601                     454.89753                   -3691.89730
                    -316.70392                    -148.99783                    1211.32920
        </DataArray>
      </PointData>
      <Lines>
        <DataArray type="Int32" Name="connectivity" format="ascii">
      0      1
      1      2
      2      3
      3      4
      4      5
      5      6
      6      7
      7      8
      8      9
      9     10
     10     11
     11     12
     12     13
     13     14
     14     15
     15     16
     16     17
     17     18
        </DataArray>
        <DataArray type="Int32" Name="offsets" format="ascii">
      2
      4
      6
      8
     10
     12
     14
     16
     18
     20
     22
     24
     26
     28
     30
     32
     34
     36
        </DataArray>
      </Lines>
    </Piece>
  </PolyData>
</VTKFile>
