<?xml version="1.0"?>
<VTKFile type="PolyData" version="0.1" byte_order="LittleEndian">
  <PolyData>
    <Piece NumberOfPoints="     19" NumberOfVerts="  0" NumberOfLines="     18"
           NumberOfStrips="  0" NumberOfPolys="      0">
      <Points>
        <DataArray type="Float32" NumberOfComponents="3" format="ascii">
                      -4.47247                      -0.95376                      91.21378
                      -4.42951                      -1.80753                      92.28052
                      -4.36935                      -3.58977                      94.35630
                      -4.31706                      -5.40835                      96.40423
                      -4.24822                      -7.70443                      98.94645
                      -4.08423                     -10.35192                     102.07957
                      -3.86521                     -12.90131                     105.28843
                      -3.62794                     -15.45151                     108.49611
                      -3.37679                     -18.00088                     111.70457
                      -3.12317                     -20.55027                     114.91417
                      -2.88263                     -23.10122                     118.12464
                      -2.67157                     -25.65050                     121.33903
                      -2.51094                     -28.19493                     124.55979
                      -2.42470                     -30.72999                     127.78953
                      -2.43725                     -33.25008                     131.03053
                      -2.54634                     -35.33282                     133.74215
                      -2.70596                     -36.97847                     135.92377
                      -2.92724                     -38.56659                     138.14600
                      -3.08234                     -39.38448                     139.23525
        </DataArray>
      </Points>
      <PointData>
        <DataArray type="Float32" Name="TranslationalVelocity" NumberOfComponents="3" format="ascii">
                      -0.18251                      -3.72539                      -2.95258
                      -0.44026                      -7.12725                      -5.66466
                      -0.97550                     -13.74150                     -11.32806
                      -1.51900                     -20.26737                     -17.10961
                      -2.20229                     -28.37380                     -24.41327
                      -2.98344                     -38.39529                     -32.84103
                      -3.72324                     -48.68246                     -40.96368
                      -4.44322                     -58.97930                     -49.09664
                      -5.13158                     -69.29033                     -57.23579
                      -5.77534                     -79.61316                     -65.38469
                      -6.36069                     -89.94288                     -73.54880
                      -6.87213                    -100.28590                     -81.71778
                      -7.29479                    -110.64691                     -89.88060
                      -7.61481                    -121.03195                     -98.02092
                      -7.82030                    -131.44794                    -106.11802
                      -7.89491                    -140.15916                    -112.81054
                      -7.89024                    -147.16691                    -118.09692
                      -7.81656                    -154.30834                    -123.19639
                      -7.76646                    -157.80707                    -125.81936
        </DataArray>
        <DataArray type="Float32" Name="RotationalVelocity" NumberOfComponents="3" format="ascii">
                       3.17622                       0.00291                      -0.30503
                       3.17658                       0.00313                      -0.30488
                       3.17765                       0.00370                      -0.30450
                       3.17907                       0.00442                      -0.30403
                       3.18110                       0.00560                      -0.30329
                       3.18367                       0.00764                      -0.30191
                       3.18623                       0.01070                      -0.29958
                       3.18876                       0.01520                      -0.29578
                       3.19135                       0.02158                      -0.28997
                       3.19416                       0.03020                      -0.28166
                       3.19736                       0.04130                      -0.27052
                       3.20115                       0.05496                      -0.25641
                       3.20563                       0.07098                      -0.23952
                       3.21086                       0.08890                      -0.22037
                       3.21673                       0.10787                      -0.19994
                       3.22194                       0.12360                      -0.18298
                       3.22614                       0.13544                      -0.17028
                       3.23017                       0.14593                      -0.15919
                       3.23205                       0.15044                      -0.15451
        </DataArray>
        <DataArray type="Float32" Name="TranslationalAcceleration" NumberOfComponents="3" format="ascii">
                      -1.63916                       9.57422                     -11.94482
                      -1.54919                      11.53019                     -14.38032
                      -4.31884                      33.76521                     -40.53853
                      -6.75268                      54.65713                     -64.24822
                      -9.46820                      79.39990                     -91.68108
                     -12.51648                     106.56564                    -123.70407
                     -15.49866                     132.08866                    -155.72496
                     -18.49047                     157.58875                    -187.69182
                     -21.61270                     183.36667                    -220.01580
                     -24.95576                     209.52973                    -252.81422
                     -28.58397                     236.03551                    -286.00312
                     -32.54253                     262.69927                    -319.42280
                     -36.85693                     289.30695                    -352.87772
                     -41.53691                     315.66479                    -386.22759
                     -46.57940                     341.66624                    -419.46529
                     -51.05494                     363.07472                    -447.22811
                     -54.79835                     380.05010                    -469.70070
                     -58.70760                     396.65496                    -492.94597
                     -60.69225                     405.34896                    -504.56331
        </DataArray>
        <DataArray type="Float32" Name="OrientationX" NumberOfComponents="3" format="ascii">
                       0.95724                      -0.20646                      -0.20266
                       0.95721                      -0.20613                      -0.20311
                       0.95707                      -0.20528                      -0.20462
                       0.95682                      -0.20416                      -0.20691
                       0.95635                      -0.20255                      -0.21066
                       0.96429                      -0.17657                      -0.19738
                       0.96891                      -0.15827                      -0.19016
                       0.97205                      -0.14430                      -0.18517
                       0.97472                      -0.13284                      -0.17967
                       0.97678                      -0.12553                      -0.17364
                       0.97789                      -0.12488                      -0.16776
                       0.97823                      -0.13095                      -0.16099
                       0.97731                      -0.14556                      -0.15388
                       0.97426                      -0.17059                      -0.14737
                       0.96958                      -0.20204                      -0.13817
                       0.96431                      -0.23186                      -0.12786
                       0.95898                      -0.25783                      -0.11785
                       0.95175                      -0.28723                      -0.10805
                       0.94719                      -0.30348                      -0.10364
        </DataArray>
        <DataArray type="Float32" Name="OrientationY" NumberOfComponents="3" format="ascii">
                       0.28761                       0.75492                       0.58938
                       0.28762                       0.75490                       0.58941
                       0.28790                       0.75483                       0.58935
                       0.28845                       0.75478                       0.58915
                       0.28952                       0.75473                       0.58869
                       0.26095                       0.76063                       0.59443
                       0.24216                       0.76410                       0.59792
                       0.22816                       0.76641                       0.60046
                       0.21580                       0.76816                       0.60279
                       0.20636                       0.76923                       0.60473
                       0.20220                       0.76943                       0.60589
                       0.20273                       0.76889                       0.60639
                       0.20970                       0.76736                       0.60595
                       0.22523                       0.76426                       0.60430
                       0.24420                       0.76000                       0.60230
                       0.26132                       0.75563                       0.60061
                       0.27571                       0.75153                       0.59932
                       0.29305                       0.74608                       0.59790
                       0.30326                       0.74260                       0.59714
        </DataArray>
        <DataArray type="Float32" Name="OrientationZ" NumberOfComponents="3" format="ascii">
                       0.03131                      -0.62247                       0.78202
                       0.03183                      -0.62261                       0.78188
                       0.03348                      -0.62297                       0.78153
                       0.03589                      -0.62339                       0.78108
                       0.03975                      -0.62399                       0.78042
                       0.04518                      -0.62471                       0.77955
                       0.05067                      -0.62538                       0.77868
                       0.05527                      -0.62593                       0.77792
                       0.05794                      -0.62633                       0.77740
                       0.05765                      -0.62652                       0.77727
                       0.05342                      -0.62641                       0.77766
                       0.04438                      -0.62582                       0.77870
                       0.02988                      -0.62447                       0.78047
                       0.00954                      -0.62194                       0.78301
                      -0.01668                      -0.61773                       0.78622
                      -0.04264                      -0.61259                       0.78925
                      -0.06595                      -0.60723                       0.79178
                      -0.09112                      -0.60071                       0.79426
                      -0.10426                      -0.59704                       0.79541
        </DataArray>
        <DataArray type="Float32" Name="Force" NumberOfComponents="3" format="ascii">
                       2.28652                      30.03736                      23.81744
                     499.86570                     183.43967                     125.66871
                     689.38740                     468.88941                     343.78035
                     666.00403                     650.32912                     487.31482
                    4950.09468                   -1464.95867                   -1419.71417
                    5681.57718                   -1304.27515                   -1369.63235
                    6398.50306                   -1194.53490                   -1369.91552
                    8441.61914                   -1340.33934                   -1670.33391
                    9056.98541                   -1198.82030                   -1632.94584
                    9812.57695                   -1148.46512                   -1645.50832
                   12096.24140                   -1283.71794                   -1856.24432
                   11954.35229                   -1231.55167                   -1664.03714
                    9083.99426                    -963.49144                   -1115.08607
                    4220.18951                    -357.95921                    -335.32582
                     709.15947                     158.77733                     140.97569
                   -5178.34160                    1082.90214                     568.98541
                  -10781.68181                    2151.42724                     774.04527
                  -12912.34989                    2687.69895                     586.99062
                  -38565.03091                    5453.05176                    -930.61137
        </DataArray>
        <DataArray type="Float32" Name="Moment" NumberOfComponents="3" format="ascii">
                       0.00000                       0.00000                       0.00000
                       0.00000                       0.00000                       0.00000
                       0.00000                       0.00000                       0.00000
                       0.00000                       0.00000                       0.00000
                     -87.13844                    1361.60321                   -1708.81998
                    -182.49517                    2507.71952                   -3145.08977
                    -271.36967                    3323.83607                   -4165.80277
                    -452.26042                    5077.42600                   -6359.97628
                    -661.42655                    7081.61814                   -8867.48219
                    -740.00243                    7961.25585                   -9969.29357
                    -752.93802                    8741.16704                  -10951.63648
                    -659.65371                    9216.45716                  -11560.00395
                    -335.71019                    6968.23468                   -8755.75810
                    -102.46456                    6709.87942                   -8452.32550
                     172.08514                    6295.68325                   -7956.31944
                     404.41103                    5792.81723                   -7344.43388
                     548.18536                    5063.72676                   -6438.74428
                     374.50205                    2493.97449                   -3181.22808
                     187.37485                    1087.92994                   -1390.03086
        </DataArray>
      </PointData>
      <Lines>
        <DataArray type="Int32" Name="connectivity" format="ascii">
      0      1
      1      2
      2      3
      3      4
      4      5
      5      6
      6      7
      7      8
      8      9
      9     10
     10     11
     11     12
     12     13
     13     14
     14     15
     15     16
     16     17
     17     18
        </DataArray>
        <DataArray type="Int32" Name="offsets" format="ascii">
      2
      4
      6
      8
     10
     12
     14
     16
     18
     20
     22
     24
     26
     28
     30
     32
     34
     36
        </DataArray>
      </Lines>
    </Piece>
  </PolyData>
</VTKFile>
