<?xml version="1.0"?>
<VTKFile type="PolyData" version="0.1" byte_order="LittleEndian">
  <PolyData>
    <Piece NumberOfPoints="     19" NumberOfVerts="  0" NumberOfLines="     18"
           NumberOfStrips="  0" NumberOfPolys="      0">
      <Points>
        <DataArray type="Float32" NumberOfComponents="3" format="ascii">
                      -4.49211                      -0.32909                      88.60802
                      -4.68535                      -0.60709                      87.28370
                      -5.08877                      -1.06994                      84.61798
                      -5.49232                      -1.48847                      81.94271
                      -5.98276                      -1.98488                      78.59019
                      -6.47737                      -2.71994                      74.58351
                      -6.89112                      -3.58091                      70.59353
                      -7.23776                      -4.44254                      66.59714
                      -7.50023                      -5.30613                      62.59493
                      -7.66453                      -6.16930                      58.58777
                      -7.71785                      -7.02789                      54.57697
                      -7.64646                      -7.88274                      50.56570
                      -7.43995                      -8.73318                      46.55778
                      -7.09047                      -9.57847                      42.55800
                      -6.59089                     -10.41767                      38.57247
                      -6.05575                     -11.11164                      35.26764
                      -5.55490                     -11.67087                      32.63906
                      -4.99068                     -12.28046                      30.03648
                      -4.68605                     -12.54299                      28.73349
        </DataArray>
      </Points>
      <PointData>
        <DataArray type="Float32" Name="TranslationalVelocity" NumberOfComponents="3" format="ascii">
                      -0.15434                       2.11081                      -0.45129
                      -0.19169                       4.03432                      -0.84968
                      -0.25245                       7.90648                      -1.51291
                      -0.30566                      11.78972                      -2.11262
                      -0.36558                      16.64955                      -2.82409
                      -0.45202                      22.43801                      -3.87676
                      -0.54883                      28.18378                      -5.10824
                      -0.63606                      33.92187                      -6.33941
                      -0.71239                      39.64943                      -7.57172
                      -0.77618                      45.36379                      -8.80122
                      -0.82584                      51.06200                     -10.02140
                      -0.86084                      56.73838                     -11.23267
                      -0.88084                      62.38676                     -12.43322
                      -0.88592                      67.99991                     -13.62101
                      -0.87662                      73.56862                     -14.79353
                      -0.85842                      78.16691                     -15.75691
                      -0.83926                      81.81227                     -16.52897
                      -0.82396                      85.41050                     -17.36791
                      -0.80832                      87.20828                     -17.72577
        </DataArray>
        <DataArray type="Float32" Name="RotationalVelocity" NumberOfComponents="3" format="ascii">
                       1.43176                      -0.00191                      -0.14384
                       1.43147                      -0.00200                      -0.14380
                       1.43069                      -0.00232                      -0.14372
                       1.42971                      -0.00287                      -0.14366
                       1.42830                      -0.00388                      -0.14367
                       1.42647                      -0.00556                      -0.14392
                       1.42463                      -0.00774                      -0.14446
                       1.42288                      -0.01039                      -0.14528
                       1.42132                      -0.01346                      -0.14634
                       1.41998                      -0.01689                      -0.14755
                       1.41888                      -0.02058                      -0.14880
                       1.41802                      -0.02444                      -0.14996
                       1.41737                      -0.02832                      -0.15087
                       1.41688                      -0.03208                      -0.15140
                       1.41649                      -0.03555                      -0.15141
                       1.41617                      -0.03807                      -0.15093
                       1.41588                      -0.03975                      -0.15016
                       1.41553                      -0.04104                      -0.14904
                       1.41532                      -0.04153                      -0.14834
        </DataArray>
        <DataArray type="Float32" Name="TranslationalAcceleration" NumberOfComponents="3" format="ascii">
                       0.40448                       1.02428                       2.95541
                       0.38751                       1.21059                       3.56588
                       1.09554                       3.28553                      10.25238
                       1.72739                       5.08054                      16.43991
                       2.44005                       7.09684                      23.68471
                       3.21223                       9.62295                      31.80614
                       3.94259                      12.31076                      39.59830
                       4.67986                      14.97086                      47.34462
                       5.45481                      17.63891                      55.14498
                       6.29030                      20.31951                      63.03050
                       7.20247                      22.99716                      70.98258
                       8.20144                      25.65625                      78.94911
                       9.29308                      28.27516                      86.86964
                      10.48016                      30.83604                      94.69453
                      11.76341                      33.33105                     102.40406
                      12.90812                      35.36420                     108.75985
                      13.86919                      36.99156                     113.82878
                      14.86559                      38.73067                     118.90357
                      15.38546                      39.52810                     121.50142
        </DataArray>
        <DataArray type="Float32" Name="OrientationX" NumberOfComponents="3" format="ascii">
                       0.95845                       0.21654                      -0.18571
                       0.95858                       0.21674                      -0.18482
                       0.95900                       0.21736                      -0.18187
                       0.95962                       0.21827                      -0.17746
                       0.96059                       0.21981                      -0.17014
                       0.96943                       0.19169                      -0.15316
                       0.97576                       0.17256                      -0.13460
                       0.98112                       0.15670                      -0.11331
                       0.98618                       0.14021                      -0.08829
                       0.99056                       0.12353                      -0.05942
                       0.99375                       0.10835                      -0.02701
                       0.99557                       0.09359                       0.00889
                       0.99560                       0.08085                       0.04732
                       0.99360                       0.07247                       0.08668
                       0.98993                       0.06411                       0.12621
                       0.98583                       0.05679                       0.15785
                       0.98215                       0.05125                       0.18096
                       0.97848                       0.04925                       0.20037
                       0.97679                       0.05034                       0.20819
        </DataArray>
        <DataArray type="Float32" Name="OrientationY" NumberOfComponents="3" format="ascii">
                       0.24792                      -0.95432                       0.16677
                       0.24795                      -0.95428                       0.16693
                       0.24802                      -0.95417                       0.16748
                       0.24813                      -0.95399                       0.16833
                       0.24830                      -0.95369                       0.16978
                       0.21776                      -0.95981                       0.17706
                       0.19559                      -0.96351                       0.18271
                       0.17602                      -0.96632                       0.18775
                       0.15500                      -0.96896                       0.19258
                       0.13294                      -0.97137                       0.19689
                       0.11157                      -0.97335                       0.20034
                       0.08986                      -0.97509                       0.20277
                       0.06960                      -0.97649                       0.20404
                       0.05347                      -0.97743                       0.20436
                       0.03740                      -0.97834                       0.20361
                       0.02404                      -0.97907                       0.20212
                       0.01416                      -0.97958                       0.20056
                       0.00847                      -0.97986                       0.19949
                       0.00800                      -0.97989                       0.19940
        </DataArray>
        <DataArray type="Float32" Name="OrientationZ" NumberOfComponents="3" format="ascii">
                      -0.14112                      -0.20588                      -0.96835
                      -0.14019                      -0.20584                      -0.96849
                      -0.13713                      -0.20572                      -0.96895
                      -0.13255                      -0.20557                      -0.96962
                      -0.12494                      -0.20533                      -0.97068
                      -0.11306                      -0.20500                      -0.97221
                      -0.09816                      -0.20461                      -0.97391
                      -0.08007                      -0.20415                      -0.97566
                      -0.05855                      -0.20360                      -0.97730
                      -0.03339                      -0.20293                      -0.97862
                      -0.00459                      -0.20210                      -0.97935
                       0.02765                      -0.20108                      -0.97919
                       0.06270                      -0.19985                      -0.97782
                       0.09953                      -0.19842                      -0.97505
                       0.13653                      -0.19684                      -0.97088
                       0.16602                      -0.19546                      -0.96656
                       0.18754                      -0.19442                      -0.96282
                       0.20616                      -0.19350                      -0.95920
                       0.21404                      -0.19311                      -0.95755
        </DataArray>
        <DataArray type="Float32" Name="Force" NumberOfComponents="3" format="ascii">
                       0.16499                      -7.82000                       1.63855
                     336.92710                     -99.30370                     -27.66024
                     414.21463                    -214.42489                     -13.05344
                     355.98806                    -259.21827                       6.39512
                    2937.20086                     957.46330                    -581.28800
                    3273.12405                    1007.61713                    -594.26939
                    4216.70773                    1286.61601                    -697.34500
                    4644.56891                    1361.80110                    -668.87499
                    5519.48569                    1598.43750                    -667.52625
                    6345.46142                    1683.64130                    -570.32779
                    7640.05300                    1971.74255                    -448.70383
                    8902.60501                    2124.85689                    -191.88183
                   10636.04562                    2463.77065                     170.33381
                   11261.40131                    2443.97273                     644.30504
                   11654.26272                    2367.62993                    1151.77071
                   11719.16099                    2238.14627                    1554.22198
                   11204.20466                    2003.24791                    1773.00316
                    7951.71040                    1327.82498                    1438.32699
                    3563.06599                     190.68669                     758.04015
        </DataArray>
        <DataArray type="Float32" Name="Moment" NumberOfComponents="3" format="ascii">
                       0.00000                       0.00000                       0.00000
                       0.00000                       0.00000                       0.00000
                       0.00000                       0.00000                       0.00000
                       0.00000                       0.00000                       0.00000
                     150.37231                     247.95744                    1168.23990
                     166.43188                     303.36223                    1431.04318
                     143.85655                     302.08654                    1427.22814
                     135.92048                     349.89100                    1656.17494
                     106.57404                     375.09030                    1779.39408
                      65.95201                     406.72278                    1934.45111
                       9.89138                     447.94001                    2136.80606
                     -68.10747                     502.56489                    2405.35834
                    -172.55385                     559.20150                    2686.17478
                    -273.72481                     555.31886                    2677.83213
                    -363.66476                     533.54699                    2582.98187
                    -419.35049                     502.17045                    2438.84399
                    -420.76816                     443.31387                    2158.09259
                    -235.88446                     224.78777                    1096.55601
                    -224.92261                     205.92269                    1005.41826
        </DataArray>
      </PointData>
      <Lines>
        <DataArray type="Int32" Name="connectivity" format="ascii">
      0      1
      1      2
      2      3
      3      4
      4      5
      5      6
      6      7
      7      8
      8      9
      9     10
     10     11
     11     12
     12     13
     13     14
     14     15
     15     16
     16     17
     17     18
        </DataArray>
        <DataArray type="Int32" Name="offsets" format="ascii">
      2
      4
      6
      8
     10
     12
     14
     16
     18
     20
     22
     24
     26
     28
     30
     32
     34
     36
        </DataArray>
      </Lines>
    </Piece>
  </PolyData>
</VTKFile>
