<?xml version="1.0"?>
<VTKFile type="PolyData" version="0.1" byte_order="LittleEndian">
  <PolyData>
    <Piece NumberOfPoints="     22" NumberOfVerts="  0" NumberOfLines="     21"
           NumberOfStrips="  0" NumberOfPolys="      0">
      <Points>
        <DataArray type="Float32" NumberOfComponents="3" format="ascii">
                       0.00011                      -0.00007                       2.19000
                       0.00110                      -0.00058                       6.57000
                       0.00333                      -0.00152                      10.95000
                       0.00692                      -0.00282                      15.33000
                       0.01190                      -0.00441                      19.70999
                       0.01828                      -0.00626                      24.08999
                       0.02604                      -0.00831                      28.46998
                       0.03516                      -0.01054                      32.84997
                       0.04566                      -0.01289                      37.22996
                       0.05757                      -0.01532                      41.60994
                       0.07098                      -0.01778                      45.98992
                       0.08598                      -0.02021                      50.36989
                       0.10267                      -0.02255                      54.74986
                       0.12116                      -0.02475                      59.12982
                       0.14148                      -0.02675                      63.50977
                       0.16360                      -0.02850                      67.88972
                       0.18735                      -0.02998                      72.26965
                       0.21239                      -0.03117                      76.64958
                       0.23814                      -0.03209                      81.02951
                       0.26367                      -0.03279                      85.40943
                       0.27598                      -0.03309                      87.59940
                       0.00000                       0.00000                       0.00000
        </DataArray>
      </Points>
      <PointData>
        <DataArray type="Float32" Name="TranslationalVelocity" NumberOfComponents="3" format="ascii">
                       0.00064                       0.00044                      -0.00000
                       0.00594                       0.00368                      -0.00000
                       0.01671                       0.00956                      -0.00001
                       0.03268                       0.01754                      -0.00002
                       0.05315                       0.02720                      -0.00004
                       0.07713                       0.03810                      -0.00007
                       0.10341                       0.04985                      -0.00011
                       0.13063                       0.06202                      -0.00016
                       0.15737                       0.07416                      -0.00022
                       0.18221                       0.08577                      -0.00028
                       0.20380                       0.09635                      -0.00034
                       0.22088                       0.10532                      -0.00039
                       0.23240                       0.11216                      -0.00043
                       0.23748                       0.11633                      -0.00045
                       0.23550                       0.11738                      -0.00044
                       0.22613                       0.11495                      -0.00039
                       0.20930                       0.10886                      -0.00030
                       0.18528                       0.09914                      -0.00016
                       0.15466                       0.08611                       0.00001
                       0.11836                       0.07048                       0.00022
                       0.09846                       0.06202                       0.00033
                       0.00000                      -0.00000                       0.00000
        </DataArray>
        <DataArray type="Float32" Name="RotationalVelocity" NumberOfComponents="3" format="ascii">
                      -0.00039                       0.00059                       0.00000
                      -0.00106                       0.00184                       0.00000
                      -0.00160                       0.00307                       0.00000
                      -0.00203                       0.00419                       0.00000
                      -0.00236                       0.00512                       0.00000
                      -0.00260                       0.00579                       0.00000
                      -0.00275                       0.00616                       0.00000
                      -0.00279                       0.00621                       0.00000
                      -0.00273                       0.00594                       0.00000
                      -0.00255                       0.00535                       0.00000
                      -0.00225                       0.00446                       0.00000
                      -0.00183                       0.00330                       0.00000
                      -0.00128                       0.00192                       0.00000
                      -0.00061                       0.00037                       0.00000
                       0.00015                      -0.00129                       0.00000
                       0.00097                      -0.00300                       0.00000
                       0.00181                      -0.00468                       0.00000
                       0.00262                      -0.00627                       0.00000
                       0.00331                      -0.00768                       0.00000
                       0.00379                      -0.00885                       0.00000
                       0.00392                      -0.00932                       0.00000
                       0.00000                      -0.00000                       0.00000
        </DataArray>
        <DataArray type="Float32" Name="TranslationalAcceleration" NumberOfComponents="3" format="ascii">
                       0.00283                       0.00896                      -0.00000
                       0.02610                       0.07515                      -0.00001
                       0.07311                       0.19527                      -0.00004
                       0.14232                       0.35890                      -0.00013
                       0.23044                       0.55724                      -0.00027
                       0.33280                       0.78229                      -0.00049
                       0.44373                       1.02624                      -0.00076
                       0.55688                       1.28098                      -0.00106
                       0.66555                       1.53786                      -0.00138
                       0.76301                       1.78750                      -0.00167
                       0.84276                       2.01987                      -0.00192
                       0.89882                       2.22447                      -0.00208
                       0.92598                       2.39071                      -0.00213
                       0.92002                       2.50846                      -0.00206
                       0.87797                       2.56872                      -0.00183
                       0.79824                       2.56453                      -0.00145
                       0.68088                       2.49196                      -0.00092
                       0.52767                       2.35134                      -0.00023
                       0.34233                       2.14863                       0.00055
                       0.13062                       1.89692                       0.00138
                       0.01728                       1.75924                       0.00180
                       0.00000                      -0.00000                       0.00000
        </DataArray>
        <DataArray type="Float32" Name="RotationalAcceleration" NumberOfComponents="3" format="ascii">
                      -0.00803                       0.00260                       0.00000
                      -0.02171                       0.00804                       0.00000
                      -0.03275                       0.01336                       0.00000
                      -0.04163                       0.01811                       0.00000
                      -0.04863                       0.02194                       0.00000
                      -0.05384                       0.02458                       0.00000
                      -0.05725                       0.02583                       0.00000
                      -0.05875                       0.02558                       0.00000
                      -0.05819                       0.02379                       0.00000
                      -0.05542                       0.02047                       0.00000
                      -0.05029                       0.01572                       0.00000
                      -0.04273                       0.00968                       0.00000
                      -0.03279                       0.00256                       0.00000
                      -0.02063                      -0.00539                       0.00000
                      -0.00662                      -0.01387                       0.00000
                       0.00868                      -0.02253                       0.00000
                       0.02444                      -0.03099                       0.00000
                       0.03954                      -0.03883                       0.00000
                       0.05253                      -0.04558                       0.00000
                       0.06158                      -0.05079                       0.00000
                       0.06395                      -0.05265                       0.00000
                       0.00000                      -0.00000                       0.00000
        </DataArray>
        <DataArray type="Float32" Name="OrientationX" NumberOfComponents="3" format="ascii">
                       1.00000                       0.00000                      -0.00010
                       1.00000                       0.00000                      -0.00036
                       1.00000                       0.00000                      -0.00066
                       1.00000                       0.00000                      -0.00098
                       1.00000                       0.00000                      -0.00130
                       1.00000                       0.00000                      -0.00161
                       1.00000                       0.00000                      -0.00193
                       1.00000                       0.00000                      -0.00224
                       1.00000                       0.00000                      -0.00256
                       1.00000                       0.00000                      -0.00289
                       0.99999                       0.00000                      -0.00324
                       0.99999                       0.00000                      -0.00361
                       0.99999                       0.00000                      -0.00401
                       0.99999                       0.00000                      -0.00443
                       0.99999                       0.00000                      -0.00485
                       0.99999                       0.00000                      -0.00525
                       0.99998                       0.00000                      -0.00559
                       0.99998                       0.00000                      -0.00583
                       0.99998                       0.00000                      -0.00589
                       0.99998                       0.00000                      -0.00572
                       0.99998                       0.00000                      -0.00551
                       1.00000                      -0.00000                       0.00000
        </DataArray>
        <DataArray type="Float32" Name="OrientationY" NumberOfComponents="3" format="ascii">
                       0.00000                       1.00000                       0.00006
                       0.00000                       1.00000                       0.00017
                       0.00000                       1.00000                       0.00026
                       0.00000                       1.00000                       0.00033
                       0.00000                       1.00000                       0.00039
                       0.00000                       1.00000                       0.00045
                       0.00000                       1.00000                       0.00049
                       0.00000                       1.00000                       0.00052
                       0.00000                       1.00000                       0.00055
                       0.00000                       1.00000                       0.00056
                       0.00000                       1.00000                       0.00056
                       0.00000                       1.00000                       0.00055
                       0.00000                       1.00000                       0.00052
                       0.00000                       1.00000                       0.00048
                       0.00000                       1.00000                       0.00043
                       0.00000                       1.00000                       0.00037
                       0.00000                       1.00000                       0.00030
                       0.00000                       1.00000                       0.00024
                       0.00000                       1.00000                       0.00018
                       0.00000                       1.00000                       0.00014
                       0.00000                       1.00000                       0.00013
                      -0.00000                       1.00000                      -0.00000
        </DataArray>
        <DataArray type="Float32" Name="OrientationZ" NumberOfComponents="3" format="ascii">
                       0.00010                      -0.00006                       1.00000
                       0.00036                      -0.00017                       1.00000
                       0.00066                      -0.00026                       1.00000
                       0.00098                      -0.00033                       1.00000
                       0.00130                      -0.00039                       1.00000
                       0.00161                      -0.00045                       1.00000
                       0.00193                      -0.00049                       1.00000
                       0.00224                      -0.00052                       1.00000
                       0.00256                      -0.00055                       1.00000
                       0.00289                      -0.00056                       1.00000
                       0.00324                      -0.00056                       0.99999
                       0.00361                      -0.00055                       0.99999
                       0.00401                      -0.00052                       0.99999
                       0.00443                      -0.00048                       0.99999
                       0.00485                      -0.00043                       0.99999
                       0.00525                      -0.00037                       0.99999
                       0.00559                      -0.00030                       0.99998
                       0.00583                      -0.00024                       0.99998
                       0.00589                      -0.00018                       0.99998
                       0.00572                      -0.00014                       0.99998
                       0.00551                      -0.00013                       0.99998
                       0.00000                      -0.00000                       1.00000
        </DataArray>
      </PointData>
      <Lines>
        <DataArray type="Int32" Name="connectivity" format="ascii">
      0      1
      1      2
      2      3
      3      4
      4      5
      5      6
      6      7
      7      8
      8      9
      9     10
     10     11
     11     12
     12     13
     13     14
     14     15
     15     16
     16     17
     17     18
     18     19
     19     20
     21      0
        </DataArray>
        <DataArray type="Int32" Name="offsets" format="ascii">
      2
      4
      6
      8
     10
     12
     14
     16
     18
     20
     22
     24
     26
     28
     30
     32
     34
     36
     38
     40
     42
        </DataArray>
      </Lines>
    </Piece>
  </PolyData>
</VTKFile>
