<?xml version="1.0"?>
<VTKFile type="PolyData" version="0.1" byte_order="LittleEndian">
  <PolyData>
    <Piece NumberOfPoints="     22" NumberOfVerts="  0" NumberOfLines="     21"
           NumberOfStrips="  0" NumberOfPolys="      0">
      <Points>
        <DataArray type="Float32" NumberOfComponents="3" format="ascii">
                       0.00011                      -0.00006                       2.19000
                       0.00110                      -0.00053                       6.57000
                       0.00332                      -0.00140                      10.95000
                       0.00692                      -0.00259                      15.33000
                       0.01193                      -0.00406                      19.70999
                       0.01838                      -0.00577                      24.08999
                       0.02625                      -0.00768                      28.46998
                       0.03555                      -0.00977                      32.84997
                       0.04630                      -0.01200                      37.22996
                       0.05857                      -0.01432                      41.60994
                       0.07244                      -0.01670                      45.98992
                       0.08804                      -0.01908                      50.36989
                       0.10549                      -0.02143                      54.74985
                       0.12490                      -0.02369                      59.12981
                       0.14632                      -0.02582                      63.50976
                       0.16972                      -0.02777                      67.88969
                       0.19493                      -0.02951                      72.26962
                       0.22157                      -0.03104                      76.64954
                       0.24902                      -0.03236                      81.02945
                       0.27633                      -0.03351                      85.40937
                       0.28951                      -0.03405                      87.59933
                       0.00000                       0.00000                       0.00000
        </DataArray>
      </Points>
      <PointData>
        <DataArray type="Float32" Name="TranslationalVelocity" NumberOfComponents="3" format="ascii">
                       0.00018                       0.00041                       0.00000
                       0.00172                       0.00343                      -0.00000
                       0.00487                       0.00889                      -0.00000
                       0.00958                       0.01627                      -0.00000
                       0.01569                       0.02511                      -0.00001
                       0.02294                       0.03500                      -0.00001
                       0.03099                       0.04550                      -0.00002
                       0.03951                       0.05616                      -0.00004
                       0.04813                       0.06648                      -0.00005
                       0.05647                       0.07594                      -0.00007
                       0.06421                       0.08398                      -0.00009
                       0.07104                       0.09002                      -0.00011
                       0.07669                       0.09347                      -0.00013
                       0.08095                       0.09380                      -0.00015
                       0.08367                       0.09054                      -0.00017
                       0.08476                       0.08332                      -0.00017
                       0.08418                       0.07199                      -0.00017
                       0.08194                       0.05661                      -0.00017
                       0.07809                       0.03756                      -0.00015
                       0.07273                       0.01562                      -0.00012
                       0.06953                       0.00394                      -0.00011
                       0.00000                      -0.00000                       0.00000
        </DataArray>
        <DataArray type="Float32" Name="RotationalVelocity" NumberOfComponents="3" format="ascii">
                      -0.00037                       0.00017                       0.00000
                      -0.00099                       0.00053                       0.00000
                      -0.00148                       0.00090                       0.00000
                      -0.00187                       0.00124                       0.00000
                      -0.00215                       0.00154                       0.00000
                      -0.00234                       0.00176                       0.00000
                      -0.00243                       0.00191                       0.00000
                      -0.00241                       0.00197                       0.00000
                      -0.00228                       0.00195                       0.00000
                      -0.00202                       0.00185                       0.00000
                      -0.00163                       0.00167                       0.00000
                      -0.00111                       0.00143                       0.00000
                      -0.00045                       0.00114                       0.00000
                       0.00032                       0.00080                       0.00000
                       0.00119                       0.00044                       0.00000
                       0.00211                       0.00006                       0.00000
                       0.00306                      -0.00032                       0.00000
                       0.00395                      -0.00070                       0.00000
                       0.00472                      -0.00105                       0.00000
                       0.00525                      -0.00139                       0.00000
                       0.00540                      -0.00154                       0.00000
                       0.00000                      -0.00000                       0.00000
        </DataArray>
        <DataArray type="Float32" Name="TranslationalAcceleration" NumberOfComponents="3" format="ascii">
                       0.00499                       0.00512                      -0.00000
                       0.04607                       0.04302                      -0.00001
                       0.12904                       0.11204                      -0.00005
                       0.25116                       0.20655                      -0.00015
                       0.40660                       0.32194                      -0.00031
                       0.58712                       0.45415                      -0.00056
                       0.78268                       0.59935                      -0.00089
                       0.98205                       0.75361                      -0.00128
                       1.17340                       0.91280                      -0.00171
                       1.34480                       1.07239                      -0.00213
                       1.48475                       1.22753                      -0.00252
                       1.58268                       1.37309                      -0.00280
                       1.62935                       1.50380                      -0.00291
                       1.61730                       1.61456                      -0.00280
                       1.54126                       1.70074                      -0.00238
                       1.39844                       1.75863                      -0.00160
                       1.18892                       1.78592                      -0.00041
                       0.91589                       1.78234                       0.00119
                       0.58599                       1.75035                       0.00315
                       0.20945                       1.69588                       0.00535
                       0.00798                       1.66336                       0.00649
                       0.00000                      -0.00000                       0.00000
        </DataArray>
        <DataArray type="Float32" Name="RotationalAcceleration" NumberOfComponents="3" format="ascii">
                      -0.00459                       0.00460                       0.00000
                      -0.01244                       0.01420                       0.00000
                      -0.01886                       0.02358                       0.00000
                      -0.02412                       0.03196                       0.00000
                      -0.02841                       0.03870                       0.00000
                      -0.03181                       0.04334                       0.00000
                      -0.03434                       0.04553                       0.00000
                      -0.03595                       0.04506                       0.00000
                      -0.03657                       0.04186                       0.00000
                      -0.03612                       0.03597                       0.00000
                      -0.03453                       0.02754                       0.00000
                      -0.03174                       0.01683                       0.00000
                      -0.02775                       0.00420                       0.00000
                      -0.02264                      -0.00990                       0.00000
                      -0.01656                      -0.02493                       0.00000
                      -0.00978                      -0.04028                       0.00000
                      -0.00267                      -0.05527                       0.00000
                       0.00421                      -0.06915                       0.00000
                       0.01017                      -0.08111                       0.00000
                       0.01431                      -0.09029                       0.00000
                       0.01536                      -0.09357                       0.00000
                       0.00000                      -0.00000                       0.00000
        </DataArray>
        <DataArray type="Float32" Name="OrientationX" NumberOfComponents="3" format="ascii">
                       1.00000                       0.00000                      -0.00010
                       1.00000                       0.00000                      -0.00036
                       1.00000                       0.00000                      -0.00066
                       1.00000                       0.00000                      -0.00098
                       1.00000                       0.00000                      -0.00131
                       1.00000                       0.00000                      -0.00163
                       1.00000                       0.00000                      -0.00196
                       1.00000                       0.00000                      -0.00229
                       1.00000                       0.00000                      -0.00262
                       1.00000                       0.00000                      -0.00298
                       0.99999                       0.00000                      -0.00336
                       0.99999                       0.00000                      -0.00377
                       0.99999                       0.00000                      -0.00420
                       0.99999                       0.00000                      -0.00466
                       0.99999                       0.00000                      -0.00512
                       0.99998                       0.00000                      -0.00556
                       0.99998                       0.00000                      -0.00594
                       0.99998                       0.00000                      -0.00621
                       0.99998                       0.00000                      -0.00629
                       0.99998                       0.00000                      -0.00612
                       0.99998                       0.00000                      -0.00590
                       1.00000                      -0.00000                       0.00000
        </DataArray>
        <DataArray type="Float32" Name="OrientationY" NumberOfComponents="3" format="ascii">
                       0.00000                       1.00000                       0.00006
                       0.00000                       1.00000                       0.00015
                       0.00000                       1.00000                       0.00024
                       0.00000                       1.00000                       0.00031
                       0.00000                       1.00000                       0.00036
                       0.00000                       1.00000                       0.00042
                       0.00000                       1.00000                       0.00046
                       0.00000                       1.00000                       0.00049
                       0.00000                       1.00000                       0.00052
                       0.00000                       1.00000                       0.00054
                       0.00000                       1.00000                       0.00055
                       0.00000                       1.00000                       0.00054
                       0.00000                       1.00000                       0.00053
                       0.00000                       1.00000                       0.00050
                       0.00000                       1.00000                       0.00047
                       0.00000                       1.00000                       0.00042
                       0.00000                       1.00000                       0.00037
                       0.00000                       1.00000                       0.00032
                       0.00000                       1.00000                       0.00028
                       0.00000                       1.00000                       0.00025
                       0.00000                       1.00000                       0.00024
                      -0.00000                       1.00000                      -0.00000
        </DataArray>
        <DataArray type="Float32" Name="OrientationZ" NumberOfComponents="3" format="ascii">
                       0.00010                      -0.00006                       1.00000
                       0.00036                      -0.00015                       1.00000
                       0.00066                      -0.00024                       1.00000
                       0.00098                      -0.00031                       1.00000
                       0.00131                      -0.00036                       1.00000
                       0.00163                      -0.00042                       1.00000
                       0.00196                      -0.00046                       1.00000
                       0.00229                      -0.00049                       1.00000
                       0.00262                      -0.00052                       1.00000
                       0.00298                      -0.00054                       1.00000
                       0.00336                      -0.00055                       0.99999
                       0.00377                      -0.00054                       0.99999
                       0.00420                      -0.00053                       0.99999
                       0.00466                      -0.00050                       0.99999
                       0.00512                      -0.00047                       0.99999
                       0.00556                      -0.00042                       0.99998
                       0.00594                      -0.00037                       0.99998
                       0.00621                      -0.00032                       0.99998
                       0.00629                      -0.00028                       0.99998
                       0.00612                      -0.00025                       0.99998
                       0.00590                      -0.00024                       0.99998
                       0.00000                      -0.00000                       1.00000
        </DataArray>
      </PointData>
      <Lines>
        <DataArray type="Int32" Name="connectivity" format="ascii">
      0      1
      1      2
      2      3
      3      4
      4      5
      5      6
      6      7
      7      8
      8      9
      9     10
     10     11
     11     12
     12     13
     13     14
     14     15
     15     16
     16     17
     17     18
     18     19
     19     20
     21      0
        </DataArray>
        <DataArray type="Int32" Name="offsets" format="ascii">
      2
      4
      6
      8
     10
     12
     14
     16
     18
     20
     22
     24
     26
     28
     30
     32
     34
     36
     38
     40
     42
        </DataArray>
      </Lines>
    </Piece>
  </PolyData>
</VTKFile>
