<?xml version="1.0"?>
<VTKFile type="PolyData" version="0.1" byte_order="LittleEndian">
  <PolyData>
    <Piece NumberOfPoints="     19" NumberOfVerts="  0" NumberOfLines="     18"
           NumberOfStrips="  0" NumberOfPolys="      0">
      <Points>
        <DataArray type="Float32" NumberOfComponents="3" format="ascii">
                      -4.93834                       0.10035                      88.54455
                      -5.12369                       0.21963                      87.19534
                      -5.51669                       0.55593                      84.50810
                      -5.92035                       0.94215                      81.82669
                      -6.43107                       1.46050                      78.47960
                      -6.99297                       1.95479                      74.44530
                      -7.53446                       2.33732                      70.39738
                      -8.08515                       2.73602                      66.35157
                      -8.64913                       3.14922                      62.30809
                      -9.23570                       3.57816                      58.26838
                      -9.85661                       4.02498                      54.23472
                     -10.52340                       4.48583                      50.20917
                     -11.25073                       4.95737                      46.19498
                     -12.05505                       5.43529                      42.19640
                     -12.95204                       5.91454                      38.21832
                     -13.78614                       6.31023                      34.92394
                     -14.51483                       6.61379                      32.30331
                     -15.29811                       6.85656                      29.69075
                     -15.72230                       7.01497                      28.39884
        </DataArray>
      </Points>
      <PointData>
        <DataArray type="Float32" Name="TranslationalVelocity" NumberOfComponents="3" format="ascii">
                       0.11179                       4.93133                       0.33917
                       0.16301                       9.31645                       0.71918
                       0.30426                      18.05031                       1.79244
                       0.46683                      26.76022                       3.02441
                       0.67986                      37.62344                       4.67562
                       0.88623                      50.68653                       6.24623
                       1.04373                      63.77194                       7.45903
                       1.19756                      76.83867                       8.72383
                       1.36801                      89.88860                      10.03431
                       1.59023                     102.92208                      11.39027
                       1.91437                     115.93895                      12.78943
                       2.40477                     128.94173                      14.20422
                       3.14241                     141.93270                      15.60071
                       4.22536                     154.91471                      16.93216
                       5.76972                     167.89224                      18.13926
                       7.51738                     178.70835                      18.99089
                       9.26284                     187.36769                      19.51457
                      11.35598                     196.05679                      19.72102
                      12.56998                     200.38444                      19.88123
        </DataArray>
        <DataArray type="Float32" Name="RotationalVelocity" NumberOfComponents="3" format="ascii">
                       3.20992                      -0.01294                      -0.29721
                       3.20885                      -0.01342                      -0.29698
                       3.20649                      -0.01469                      -0.29669
                       3.20394                      -0.01567                      -0.29638
                       3.20064                      -0.01580                      -0.29555
                       3.19677                      -0.01435                      -0.29335
                       3.19330                      -0.01257                      -0.28951
                       3.19045                      -0.01321                      -0.28409
                       3.18840                      -0.01994                      -0.27760
                       3.18727                      -0.03699                      -0.27111
                       3.18714                      -0.06873                      -0.26627
                       3.18801                      -0.11933                      -0.26541
                       3.18985                      -0.19232                      -0.27157
                       3.19255                      -0.29026                      -0.28854
                       3.19597                      -0.41429                      -0.32099
                       3.19921                      -0.53671                      -0.36324
                       3.20196                      -0.64684                      -0.41022
                       3.20476                      -0.76626                      -0.47114
                       3.20614                      -0.82885                      -0.50748
        </DataArray>
        <DataArray type="Float32" Name="TranslationalAcceleration" NumberOfComponents="3" format="ascii">
                       1.20407                       0.57253                      15.32353
                       1.76136                      -0.90830                      18.65175
                       5.25148                      -3.94517                      53.18204
                       8.87904                      -7.79968                      84.71929
                      13.90849                     -13.44496                     121.20617
                      21.02430                     -19.63980                     162.41700
                      29.56875                     -25.60007                     202.29325
                      39.47014                     -32.79842                     241.61579
                      50.48292                     -41.35859                     280.89362
                      62.17847                     -51.44718                     320.30356
                      73.95697                     -63.24503                     359.81265
                      85.09965                     -76.86542                     399.32498
                      94.77641                     -92.42310                     438.77938
                     102.07517                    -110.01121                     478.27820
                     106.02375                    -129.67890                     518.21486
                     105.94137                    -147.70794                     552.43331
                     103.45322                    -163.05447                     580.90303
                      99.12068                    -178.67171                     611.00733
                      95.34361                    -187.27776                     626.70911
        </DataArray>
        <DataArray type="Float32" Name="OrientationX" NumberOfComponents="3" format="ascii">
                       0.96595                       0.23298                      -0.11250
                       0.96597                       0.23296                      -0.11237
                       0.96598                       0.23311                      -0.11203
                       0.96595                       0.23342                      -0.11160
                       0.96588                       0.23400                      -0.11099
                       0.97226                       0.20412                      -0.11422
                       0.97603                       0.18356                      -0.11695
                       0.97856                       0.16712                      -0.12036
                       0.98046                       0.15156                      -0.12545
                       0.98148                       0.13811                      -0.13272
                       0.98133                       0.12927                      -0.14241
                       0.98000                       0.12468                      -0.15508
                       0.97716                       0.12649                      -0.17074
                       0.97230                       0.13742                      -0.18910
                       0.96551                       0.15309                      -0.21059
                       0.95824                       0.16910                      -0.23060
                       0.95117                       0.18421                      -0.24767
                       0.94244                       0.20419                      -0.26480
                       0.93727                       0.21661                      -0.27313
        </DataArray>
        <DataArray type="Float32" Name="OrientationY" NumberOfComponents="3" format="ascii">
                       0.22051                      -0.96881                      -0.11304
                       0.22043                      -0.96877                      -0.11357
                       0.22039                      -0.96860                      -0.11508
                       0.22047                      -0.96834                      -0.11710
                       0.22069                      -0.96792                      -0.12013
                       0.19035                      -0.97426                      -0.12074
                       0.16921                      -0.97791                      -0.12272
                       0.15202                      -0.98040                      -0.12534
                       0.13548                      -0.98247                      -0.12808
                       0.12075                      -0.98400                      -0.13098
                       0.11024                      -0.98479                      -0.13427
                       0.10351                      -0.98503                      -0.13782
                       0.10264                      -0.98454                      -0.14195
                       0.11029                      -0.98294                      -0.14721
                       0.12213                      -0.98065                      -0.15298
                       0.13459                      -0.97821                      -0.15805
                       0.14668                      -0.97576                      -0.16243
                       0.16345                      -0.97216                      -0.16791
                       0.17418                      -0.96970                      -0.17131
        </DataArray>
        <DataArray type="Float32" Name="OrientationZ" NumberOfComponents="3" format="ascii">
                      -0.13533                       0.08438                      -0.98720
                      -0.13531                       0.08493                      -0.98716
                      -0.13534                       0.08647                      -0.98702
                      -0.13540                       0.08851                      -0.98683
                      -0.13554                       0.09154                      -0.98653
                      -0.13592                       0.09564                      -0.98609
                      -0.13689                       0.09999                      -0.98553
                      -0.13894                       0.10435                      -0.98479
                      -0.14267                       0.10858                      -0.98380
                      -0.14868                       0.11253                      -0.98246
                      -0.15760                       0.11606                      -0.98066
                      -0.16994                       0.11902                      -0.97824
                      -0.18606                       0.12118                      -0.97504
                      -0.20610                       0.12228                      -0.97086
                      -0.22994                       0.12199                      -0.96553
                      -0.25230                       0.12042                      -0.96013
                      -0.27158                       0.11817                      -0.95513
                      -0.29171                       0.11497                      -0.94957
                      -0.30196                       0.11299                      -0.94660
        </DataArray>
        <DataArray type="Float32" Name="Force" NumberOfComponents="3" format="ascii">
                      -0.18901                     -24.25897                      -2.04766
                     352.26259                    -186.26263                     -64.20879
                     494.15586                    -507.84301                    -111.16589
                     479.46273                    -732.10241                    -128.36136
                    3708.31281                    1182.81000                    -408.29610
                    4181.61624                    1016.08452                    -489.37489
                    4712.81808                     907.75568                    -576.75462
                    6511.68323                    1066.56613                    -827.01593
                    7235.17559                     949.18490                    -967.26108
                    8136.65866                     916.42477                   -1151.87709
                   10560.94806                     949.74316                   -1614.15797
                   10981.96809                     848.46813                   -1832.73042
                    9334.93532                     679.80632                   -1720.50879
                    5880.59903                     283.18366                   -1222.21097
                     755.61970                    -232.59999                    -199.75263
                   -1990.65411                    -458.31565                     482.76735
                   -7658.31040                    -917.16598                    2095.53668
                  -11064.30351                   -1122.13452                    3298.47298
                  -28541.29053                    -855.75228                    9023.32862
        </DataArray>
        <DataArray type="Float32" Name="Moment" NumberOfComponents="3" format="ascii">
                       0.00000                       0.00000                       0.00000
                       0.00000                       0.00000                       0.00000
                       0.00000                       0.00000                       0.00000
                       0.00000                       0.00000                       0.00000
                     250.76745                    -156.04364                    1825.52363
                     463.34048                    -287.42385                    3362.38166
                     628.15306                    -386.76508                    4524.07803
                    1004.29847                    -608.99604                    7122.15903
                    1478.39564                    -872.66642                   10202.13720
                    1748.02821                    -989.43157                   11560.58178
                    2050.95239                   -1094.29060                   12774.89999
                    2357.83424                   -1165.39345                   13588.93863
                    1968.22766                    -887.14485                   10328.45131
                    2151.87970                    -873.61695                   10151.23246
                    2243.29346                    -813.74067                    9433.43192
                    2328.19521                    -767.01016                    8871.97232
                    2194.02187                    -669.17992                    7725.34864
                    1164.75711                    -329.40261                    3794.96581
                    1100.23960                    -299.92325                    3451.67504
        </DataArray>
      </PointData>
      <Lines>
        <DataArray type="Int32" Name="connectivity" format="ascii">
      0      1
      1      2
      2      3
      3      4
      4      5
      5      6
      6      7
      7      8
      8      9
      9     10
     10     11
     11     12
     12     13
     13     14
     14     15
     15     16
     16     17
     17     18
        </DataArray>
        <DataArray type="Int32" Name="offsets" format="ascii">
      2
      4
      6
      8
     10
     12
     14
     16
     18
     20
     22
     24
     26
     28
     30
     32
     34
     36
        </DataArray>
      </Lines>
    </Piece>
  </PolyData>
</VTKFile>
