<?xml version="1.0"?>
<VTKFile type="PolyData" version="0.1" byte_order="LittleEndian">
  <PolyData>
    <Piece NumberOfPoints="     19" NumberOfVerts="  0" NumberOfLines="     18"
           NumberOfStrips="  0" NumberOfPolys="      0">
      <Points>
        <DataArray type="Float32" NumberOfComponents="3" format="ascii">
                      -4.83753                       1.36430                      89.38264
                      -4.95011                       2.59758                      88.80382
                      -5.18796                       5.10486                      87.73330
                      -5.42755                       7.63197                      86.70344
                      -5.71994                      10.80329                      85.43943
                      -6.01055                      14.54994                      83.78654
                      -6.26667                      18.24219                      82.01263
                      -6.50924                      21.93432                      80.23547
                      -6.74571                      25.62562                      78.45393
                      -6.99034                      29.31650                      76.67064
                      -7.26134                      33.00745                      74.88980
                      -7.57810                      36.69578                      73.11071
                      -7.96385                      40.37813                      71.33393
                      -8.44390                      44.04946                      69.55971
                      -9.04276                      47.70329                      67.78798
                      -9.65519                      50.72793                      66.31299
                     -10.22651                      53.12732                      65.12651
                     -10.87315                      55.48538                      63.89036
                     -11.23676                      56.67243                      63.30987
        </DataArray>
      </Points>
      <PointData>
        <DataArray type="Float32" Name="TranslationalVelocity" NumberOfComponents="3" format="ascii">
                       0.30343                       2.23173                       4.36608
                       0.69385                       4.16113                       8.40346
                       1.51285                       7.72570                      16.56694
                       2.40036                      11.13972                      24.72145
                       3.64107                      15.29852                      34.82565
                       5.32788                      20.63994                      46.56281
                       7.23361                      26.25778                      57.90576
                       9.33606                      31.78169                      69.02579
                      11.56797                      37.22067                      79.93561
                      13.84456                      42.57859                      90.65828
                      16.07162                      47.85821                     101.22187
                      18.15521                      53.07633                     111.64803
                      20.01123                      58.24501                     121.95554
                      21.57494                      63.37322                     132.15497
                      22.81047                      68.46469                     142.24693
                      23.58460                      72.67742                     150.56069
                      24.06529                      76.04700                     157.13101
                      24.45752                      79.53254                     163.56126
                      24.61645                      81.15895                     166.78499
        </DataArray>
        <DataArray type="Float32" Name="RotationalVelocity" NumberOfComponents="3" format="ascii">
                       3.28142                      -0.01351                      -0.30157
                       3.27390                      -0.01635                      -0.30580
                       3.25222                      -0.02588                      -0.32149
                       3.22334                      -0.03997                      -0.34500
                       3.18065                      -0.06252                      -0.38107
                       3.12422                      -0.09494                      -0.42758
                       3.06698                      -0.13085                      -0.46936
                       3.01270                      -0.16804                      -0.49898
                       2.96404                      -0.20455                      -0.51026
                       2.92260                      -0.23861                      -0.49897
                       2.88909                      -0.26856                      -0.46318
                       2.86341                      -0.29284                      -0.40382
                       2.84475                      -0.30994                      -0.32509
                       2.83170                      -0.31837                      -0.23495
                       2.82239                      -0.31662                      -0.14558
                       2.81588                      -0.30652                      -0.08297
                       2.81050                      -0.29178                      -0.04993
                       2.80408                      -0.27059                      -0.04034
                       2.80024                      -0.25744                      -0.04695
        </DataArray>
        <DataArray type="Float32" Name="TranslationalAcceleration" NumberOfComponents="3" format="ascii">
                      -0.61105                     -16.69965                       7.06949
                       0.27742                     -18.17898                       8.73697
                       0.54233                     -51.99538                      23.92729
                       0.37702                     -82.71096                      37.06432
                      -0.61560                    -117.86847                      51.42345
                      -2.93711                    -156.09392                      67.83136
                      -6.53632                    -191.75322                      83.67741
                     -11.39544                    -226.42419                      98.38304
                     -17.15872                    -260.61994                     112.45471
                     -23.32757                    -294.46707                     126.27079
                     -29.28398                    -327.79912                     140.10486
                     -34.29882                    -360.23786                     154.18343
                     -37.56967                    -391.31944                     168.64042
                     -38.24166                    -420.59054                     183.53489
                     -35.43084                    -447.71719                     198.86604
                     -29.68822                    -468.54738                     211.92157
                     -22.58021                    -484.11346                     222.57421
                     -12.77751                    -498.66558                     233.72230
                      -6.99646                    -505.86713                     239.01033
        </DataArray>
        <DataArray type="Float32" Name="OrientationX" NumberOfComponents="3" format="ascii">
                       0.98545                       0.13774                       0.09958
                       0.98549                       0.13731                       0.09981
                       0.98557                       0.13600                       0.10074
                       0.98567                       0.13415                       0.10225
                       0.98578                       0.13130                       0.10484
                       0.99018                       0.11449                       0.08027
                       0.99265                       0.10219                       0.06488
                       0.99421                       0.09323                       0.05346
                       0.99527                       0.08733                       0.04255
                       0.99575                       0.08606                       0.03283
                       0.99548                       0.09135                       0.02601
                       0.99439                       0.10365                       0.02115
                       0.99207                       0.12415                       0.01960
                       0.98783                       0.15377                       0.02320
                       0.98143                       0.18989                       0.02730
                       0.97421                       0.22364                       0.03012
                       0.96708                       0.25247                       0.03193
                       0.95837                       0.28326                       0.03583
                       0.95334                       0.29935                       0.03909
        </DataArray>
        <DataArray type="Float32" Name="OrientationY" NumberOfComponents="3" format="ascii">
                       0.14836                      -0.41114                      -0.89942
                       0.14838                      -0.41124                      -0.89937
                       0.14870                      -0.41152                      -0.89919
                       0.14931                      -0.41190                      -0.89892
                       0.15049                      -0.41245                      -0.89846
                       0.12124                      -0.41697                      -0.90080
                       0.10216                      -0.41976                      -0.90187
                       0.08806                      -0.42156                      -0.90251
                       0.07571                      -0.42273                      -0.90309
                       0.06637                      -0.42321                      -0.90360
                       0.06243                      -0.42289                      -0.90403
                       0.06321                      -0.42189                      -0.90444
                       0.07043                      -0.42001                      -0.90478
                       0.08612                      -0.41671                      -0.90495
                       0.10496                      -0.41234                      -0.90496
                       0.12164                      -0.40800                      -0.90484
                       0.13534                      -0.40400                      -0.90469
                       0.15167                      -0.39876                      -0.90443
                       0.16123                      -0.39542                      -0.90424
        </DataArray>
        <DataArray type="Float32" Name="OrientationZ" NumberOfComponents="3" format="ascii">
                      -0.08295                       0.90110                      -0.42559
                      -0.08245                       0.90113                      -0.42565
                      -0.08084                       0.90120                      -0.42581
                      -0.07847                       0.90130                      -0.42602
                      -0.07473                       0.90147                      -0.42635
                      -0.06966                       0.90168                      -0.42676
                      -0.06493                       0.90186                      -0.42711
                      -0.06161                       0.90199                      -0.42733
                      -0.06088                       0.90204                      -0.42735
                      -0.06387                       0.90193                      -0.42713
                      -0.07158                       0.90157                      -0.42668
                      -0.08483                       0.90070                      -0.42607
                      -0.10410                       0.89899                      -0.42542
                      -0.12949                       0.89594                      -0.42489
                      -0.16058                       0.89102                      -0.42462
                      -0.19007                       0.88517                      -0.42468
                      -0.21551                       0.87923                      -0.42487
                      -0.24190                       0.87221                      -0.42512
                      -0.25523                       0.86835                      -0.42523
        </DataArray>
        <DataArray type="Float32" Name="Force" NumberOfComponents="3" format="ascii">
                      -0.94827                      -4.96538                     -10.32832
                     423.36187                     -56.55790                    -201.74483
                     549.42823                    -187.30491                    -500.72025
                     506.49351                    -292.11132                    -711.20917
                    4520.24833                     814.14508                     928.01943
                    4806.23657                     654.99039                     597.54860
                    4686.77036                     501.51665                     344.34786
                    5318.50666                     463.71156                     209.17992
                    4631.80413                     311.30659                      -5.16974
                    3711.97788                     197.59550                    -139.49718
                    4092.90780                     201.23250                    -262.93723
                    2561.86147                     106.85996                    -284.90684
                     582.21879                     -39.84385                    -227.82069
                   -2094.69746                    -353.31842                    -111.80739
                   -7392.30247                   -1189.71317                     279.14016
                  -12349.62794                   -2260.70743                     768.90533
                  -16022.09050                   -3294.08047                    1232.26490
                  -15257.15029                   -3520.84360                    1362.88650
                  -31704.00904                   -6683.41009                    5325.94110
        </DataArray>
        <DataArray type="Float32" Name="Moment" NumberOfComponents="3" format="ascii">
                       0.00000                       0.00000                       0.00000
                       0.00000                       0.00000                       0.00000
                       0.00000                       0.00000                       0.00000
                       0.00000                       0.00000                       0.00000
                     167.88797                   -2023.36717                     957.32811
                     254.28892                   -3285.74379                    1556.28833
                     292.30237                   -4050.10250                    1920.26690
                     411.30396                   -6002.03506                    2847.74091
                     576.53228                   -8510.91985                    4038.72786
                     670.64492                   -9438.57953                    4476.06346
                     828.60706                  -10412.06346                    4929.56709
                    1026.85566                  -10899.07339                    5145.49748
                     918.70363                   -7951.88953                    3738.55608
                    1109.08150                   -7717.16721                    3608.23328
                    1286.24834                   -7206.90562                    3346.65674
                    1417.08389                   -6691.28377                    3086.75703
                    1397.66382                   -5802.55793                    2661.28132
                     758.29947                   -2793.15509                    1273.19979
                     491.91134                   -1713.14451                     778.43788
        </DataArray>
      </PointData>
      <Lines>
        <DataArray type="Int32" Name="connectivity" format="ascii">
      0      1
      1      2
      2      3
      3      4
      4      5
      5      6
      6      7
      7      8
      8      9
      9     10
     10     11
     11     12
     12     13
     13     14
     14     15
     15     16
     16     17
     17     18
        </DataArray>
        <DataArray type="Int32" Name="offsets" format="ascii">
      2
      4
      6
      8
     10
     12
     14
     16
     18
     20
     22
     24
     26
     28
     30
     32
     34
     36
        </DataArray>
      </Lines>
    </Piece>
  </PolyData>
</VTKFile>
