<?xml version="1.0"?>
<VTKFile type="PolyData" version="0.1" byte_order="LittleEndian">
  <PolyData>
    <Piece NumberOfPoints="     19" NumberOfVerts="  0" NumberOfLines="     18"
           NumberOfStrips="  0" NumberOfPolys="      0">
      <Points>
        <DataArray type="Float32" NumberOfComponents="3" format="ascii">
                      -4.84220                       1.46323                      89.70364
                      -4.92906                       2.79678                      89.41691
                      -5.11225                       5.48340                      88.93632
                      -5.29550                       8.17956                      88.49820
                      -5.51687                      11.55610                      87.97353
                      -5.72120                      15.57924                      87.19384
                      -5.88250                      19.57470                      86.27861
                      -6.00619                      23.56932                      85.35373
                      -6.08056                      27.56225                      84.41693
                      -6.09649                      31.55318                      83.46995
                      -6.04551                      35.54198                      82.51643
                      -5.91841                      39.52701                      81.55486
                      -5.70851                      43.50671                      80.58541
                      -5.41106                      47.47921                      79.60837
                      -5.02112                      51.44201                      78.62390
                      -4.62345                      54.73471                      77.79787
                      -4.26223                      57.35975                      77.12605
                      -3.86971                      59.96497                      76.39801
                      -3.65582                      61.27362                      76.07332
        </DataArray>
      </Points>
      <PointData>
        <DataArray type="Float32" Name="TranslationalVelocity" NumberOfComponents="3" format="ascii">
                       0.35238                       0.33728                       1.47469
                       0.47335                       0.63056                       2.80202
                       0.71764                       1.12543                       5.47540
                       0.96333                       1.57793                       8.15715
                       1.27193                       2.11990                      11.51368
                       1.64076                       2.91354                      15.50966
                       2.00920                       3.83719                      19.47436
                       2.38131                       4.76615                      23.43427
                       2.75812                       5.70141                      27.38849
                       3.14071                       6.64021                      31.33675
                       3.53012                       7.57797                      35.27904
                       3.92708                       8.51506                      39.21393
                       4.33208                       9.45038                      43.14012
                       4.74532                      10.38290                      47.05601
                       5.16655                      11.31153                      50.95939
                       5.52329                      12.08179                      54.20058
                       5.81144                      12.70314                      56.78332
                       6.09980                      13.37540                      59.34553
                       6.24618                      13.67033                      60.63216
        </DataArray>
        <DataArray type="Float32" Name="RotationalVelocity" NumberOfComponents="3" format="ascii">
                       0.99518                       0.00388                      -0.09155
                       0.99505                       0.00388                      -0.09157
                       0.99472                       0.00388                      -0.09167
                       0.99428                       0.00391                      -0.09184
                       0.99364                       0.00399                      -0.09216
                       0.99277                       0.00421                      -0.09275
                       0.99184                       0.00458                      -0.09360
                       0.99091                       0.00511                      -0.09475
                       0.99001                       0.00580                      -0.09620
                       0.98916                       0.00664                      -0.09798
                       0.98839                       0.00759                      -0.10007
                       0.98771                       0.00860                      -0.10241
                       0.98711                       0.00962                      -0.10493
                       0.98661                       0.01056                      -0.10752
                       0.98620                       0.01133                      -0.11001
                       0.98591                       0.01178                      -0.11186
                       0.98573                       0.01194                      -0.11309
                       0.98558                       0.01191                      -0.11399
                       0.98552                       0.01180                      -0.11429
        </DataArray>
        <DataArray type="Float32" Name="TranslationalAcceleration" NumberOfComponents="3" format="ascii">
                       0.78788                      -1.43660                       0.61764
                       0.28452                      -1.71739                       0.66690
                       0.71537                      -4.93825                       1.81663
                       0.99997                      -7.91964                       2.81018
                       1.21822                     -11.41036                       3.92252
                       1.36666                     -15.31688                       5.28648
                       1.46965                     -19.06061                       6.71717
                       1.57541                     -22.78615                       8.13249
                       1.71800                     -26.54393                       9.55382
                       1.91360                     -30.35095                      10.98490
                       2.16523                     -34.19995                      12.41788
                       2.46805                     -38.06738                      13.84391
                       2.81359                     -41.92568                      15.25100
                       3.19456                     -45.75271                      16.62965
                       3.60953                     -49.54118                      17.97684
                       3.98828                     -52.68022                      19.07965
                       4.32059                     -55.19409                      19.96598
                       4.69574                     -57.71941                      20.91194
                       4.89823                     -59.01657                      21.35369
        </DataArray>
        <DataArray type="Float32" Name="OrientationX" NumberOfComponents="3" format="ascii">
                       0.98787                       0.09144                       0.12552
                       0.98790                       0.09095                       0.12562
                       0.98801                       0.08936                       0.12593
                       0.98816                       0.08698                       0.12637
                       0.98841                       0.08299                       0.12710
                       0.99279                       0.06999                       0.09730
                       0.99546                       0.05688                       0.07636
                       0.99739                       0.04228                       0.05850
                       0.99889                       0.02508                       0.03979
                       0.99977                       0.00524                       0.02073
                       0.99985                      -0.01686                       0.00306
                       0.99905                      -0.04129                      -0.01421
                       0.99731                      -0.06721                      -0.02942
                       0.99483                      -0.09327                      -0.04013
                       0.99157                      -0.11931                      -0.05056
                       0.98838                      -0.13997                      -0.05932
                       0.98575                      -0.15480                      -0.06579
                       0.98365                      -0.16657                      -0.06851
                       0.98296                      -0.17089                      -0.06771
        </DataArray>
        <DataArray type="Float32" Name="OrientationY" NumberOfComponents="3" format="ascii">
                       0.14180                      -0.20157                      -0.96916
                       0.14182                      -0.20186                      -0.96909
                       0.14183                      -0.20269                      -0.96892
                       0.14182                      -0.20381                      -0.96868
                       0.14178                      -0.20553                      -0.96833
                       0.11003                      -0.21033                      -0.97142
                       0.08688                      -0.21427                      -0.97290
                       0.06635                      -0.21780                      -0.97374
                       0.04436                      -0.22102                      -0.97426
                       0.02137                      -0.22373                      -0.97442
                      -0.00083                      -0.22574                      -0.97419
                      -0.02323                      -0.22695                      -0.97363
                      -0.04402                      -0.22731                      -0.97283
                      -0.06050                      -0.22713                      -0.97198
                      -0.07673                      -0.22620                      -0.97105
                      -0.09008                      -0.22487                      -0.97022
                      -0.09982                      -0.22360                      -0.96956
                      -0.10524                      -0.22281                      -0.96916
                      -0.10550                      -0.22281                      -0.96914
        </DataArray>
        <DataArray type="Float32" Name="OrientationZ" NumberOfComponents="3" format="ascii">
                      -0.06331                       0.97520                      -0.21209
                      -0.06278                       0.97518                      -0.21232
                      -0.06106                       0.97516                      -0.21293
                      -0.05850                       0.97514                      -0.21373
                      -0.05424                       0.97513                      -0.21491
                      -0.04753                       0.97512                      -0.21651
                      -0.03898                       0.97512                      -0.21824
                      -0.02842                       0.97508                      -0.22004
                      -0.01564                       0.97495                      -0.22189
                      -0.00047                       0.97464                      -0.22379
                       0.01712                       0.97404                      -0.22573
                       0.03698                       0.97303                      -0.22769
                       0.05870                       0.97150                      -0.22966
                       0.08155                       0.96939                      -0.23160
                       0.10442                       0.96675                      -0.23345
                       0.12246                       0.96428                      -0.23486
                       0.13538                       0.96231                      -0.23586
                       0.14617                       0.96052                      -0.23670
                       0.15053                       0.95977                      -0.23704
        </DataArray>
        <DataArray type="Float32" Name="Force" NumberOfComponents="3" format="ascii">
                       0.00600                       0.01458                       0.06525
                     413.85497                      12.43968                     -65.26212
                     453.15751                      -0.69493                    -133.39087
                     355.31720                     -12.25367                    -153.82400
                    3085.38496                     327.94967                     718.83003
                    2899.90114                     258.22347                     537.62155
                    3246.52993                     244.74207                     528.63880
                    2990.26684                     176.60351                     411.16612
                    2973.53053                     134.34454                     397.00133
                    3563.28922                     121.61900                     545.08266
                    4011.96989                      83.83715                     695.38007
                    4730.13392                       6.90601                     833.68215
                    5682.10180                    -153.53925                     841.74137
                    6175.15676                    -327.76054                     842.95504
                    6467.91968                    -515.54385                     798.19340
                    6613.46795                    -668.51136                     742.51606
                    6517.50391                    -759.10700                     680.53777
                    4801.89731                    -619.14206                     479.50190
                    1731.84320                    -299.23539                    -112.63906
        </DataArray>
        <DataArray type="Float32" Name="Moment" NumberOfComponents="3" format="ascii">
                       0.00000                       0.00000                       0.00000
                       0.00000                       0.00000                       0.00000
                       0.00000                       0.00000                       0.00000
                       0.00000                       0.00000                       0.00000
                      89.97072                   -1623.48637                     354.50317
                      82.40402                   -1701.00102                     372.52020
                      67.61662                   -1707.79700                     375.39882
                      51.25864                   -1786.21371                     394.42597
                      27.41635                   -1764.59466                     391.78786
                      -0.08823                   -1693.58105                     378.44906
                     -25.23938                   -1392.67393                     313.52272
                     -50.33710                   -1305.80162                     296.41884
                     -77.50776                   -1271.56519                     291.26741
                    -105.01955                   -1240.72965                     286.90731
                    -127.88217                   -1178.46636                     275.09690
                    -143.73823                   -1127.46557                     265.15876
                    -143.12155                   -1013.89413                     239.72382
                     -77.31271                    -506.46208                     120.28255
                     -73.91323                    -469.85788                     111.79046
        </DataArray>
      </PointData>
      <Lines>
        <DataArray type="Int32" Name="connectivity" format="ascii">
      0      1
      1      2
      2      3
      3      4
      4      5
      5      6
      6      7
      7      8
      8      9
      9     10
     10     11
     11     12
     12     13
     13     14
     14     15
     15     16
     16     17
     17     18
        </DataArray>
        <DataArray type="Int32" Name="offsets" format="ascii">
      2
      4
      6
      8
     10
     12
     14
     16
     18
     20
     22
     24
     26
     28
     30
     32
     34
     36
        </DataArray>
      </Lines>
    </Piece>
  </PolyData>
</VTKFile>
