<?xml version="1.0"?>
<VTKFile type="PolyData" version="0.1" byte_order="LittleEndian">
  <PolyData>
    <Piece NumberOfPoints="     19" NumberOfVerts="  0" NumberOfLines="     18"
           NumberOfStrips="  0" NumberOfPolys="      0">
      <Points>
        <DataArray type="Float32" NumberOfComponents="3" format="ascii">
                      -4.88707                      -1.51497                      90.17044
                      -4.93395                      -2.87407                      90.30916
                      -5.05855                      -5.60165                      90.49331
                      -5.19531                      -8.33409                      90.63192
                      -5.36828                     -11.75284                      90.77594
                      -5.49853                     -15.84409                      91.08095
                      -5.58180                     -19.92455                      91.50739
                      -5.66284                     -24.00587                      91.93222
                      -5.75059                     -28.08790                      92.35882
                      -5.86147                     -32.17021                      92.78804
                      -6.01612                     -36.25167                      93.22007
                      -6.23549                     -40.32950                      93.66103
                      -6.54447                     -44.39945                      94.11685
                      -6.96995                     -48.45525                      94.59475
                      -7.53795                     -52.48872                      95.10264
                      -8.14411                     -55.82442                      95.55666
                      -8.72152                     -58.47097                      95.95091
                      -9.37554                     -61.09024                      96.42193
                      -9.75498                     -62.39145                      96.62883
        </DataArray>
      </Points>
      <PointData>
        <DataArray type="Float32" Name="TranslationalVelocity" NumberOfComponents="3" format="ascii">
                      -0.02472                      -0.50777                      -4.70044
                      -0.41379                      -0.93495                      -9.01596
                      -1.19050                      -1.48423                     -17.67600
                      -1.96320                      -1.88567                     -26.35048
                      -2.92184                      -2.29482                     -37.20208
                      -4.05364                      -3.22827                     -50.18632
                      -5.16009                      -4.56075                     -63.13435
                      -6.23669                      -5.88910                     -76.08364
                      -7.27308                      -7.22182                     -89.03507
                      -8.25741                      -8.55824                    -101.98910
                      -9.17704                      -9.89573                    -114.94422
                     -10.01879                     -11.25191                    -127.89422
                     -10.76977                     -12.64495                    -140.82836
                     -11.41791                     -14.09894                    -153.72982
                     -11.95263                     -15.64293                    -166.57602
                     -12.30313                     -17.02805                    -177.21491
                     -12.52149                     -18.23921                    -185.66690
                     -12.68107                     -19.70433                    -194.04351
                     -12.74069                     -20.34793                    -198.20905
        </DataArray>
        <DataArray type="Float32" Name="RotationalVelocity" NumberOfComponents="3" format="ascii">
                       3.17562                       0.00711                      -0.28691
                       3.17543                       0.00718                      -0.28639
                       3.17514                       0.00741                      -0.28494
                       3.17489                       0.00774                      -0.28297
                       3.17456                       0.00835                      -0.27987
                       3.17411                       0.00943                      -0.27507
                       3.17365                       0.01099                      -0.26882
                       3.17336                       0.01309                      -0.26068
                       3.17347                       0.01576                      -0.25015
                       3.17423                       0.01898                      -0.23678
                       3.17589                       0.02264                      -0.22023
                       3.17861                       0.02653                      -0.20036
                       3.18250                       0.03033                      -0.17732
                       3.18751                       0.03357                      -0.15165
                       3.19343                       0.03564                      -0.12435
                       3.19878                       0.03594                      -0.10142
                       3.20309                       0.03480                      -0.08381
                       3.20714                       0.03206                      -0.06772
                       3.20898                       0.02998                      -0.06053
        </DataArray>
        <DataArray type="Float32" Name="TranslationalAcceleration" NumberOfComponents="3" format="ascii">
                      -0.19512                      15.35452                      -1.50286
                      -0.23903                      18.39252                      -1.81666
                      -0.61406                      52.69699                      -4.21080
                      -0.92477                      84.25604                      -5.83580
                      -1.26629                     121.09233                      -7.27471
                      -1.78894                     162.79560                     -10.10998
                      -2.44849                     203.26299                     -14.02446
                      -3.17917                     243.59462                     -17.82559
                      -4.03625                     284.31005                     -21.58462
                      -5.07628                     325.58146                     -25.31147
                      -6.35679                     367.32876                     -28.98854
                      -7.94023                     409.31502                     -32.65171
                      -9.88632                     451.25053                     -36.33888
                     -12.25148                     492.89153                     -40.11790
                     -15.08687                     534.14321                     -44.09347
                     -17.85068                     568.31837                     -47.68176
                     -20.33038                     595.68844                     -50.88894
                     -23.08798                     623.31101                     -54.94841
                     -24.54040                     637.34538                     -56.72841
        </DataArray>
        <DataArray type="Float32" Name="OrientationX" NumberOfComponents="3" format="ascii">
                       0.94805                      -0.06539                      -0.31133
                       0.94806                      -0.06506                      -0.31138
                       0.94799                      -0.06405                      -0.31178
                       0.94785                      -0.06258                      -0.31252
                       0.94755                      -0.06031                      -0.31388
                       0.95665                      -0.05467                      -0.28607
                       0.96212                      -0.05064                      -0.26789
                       0.96588                      -0.04886                      -0.25435
                       0.96889                      -0.05027                      -0.24234
                       0.97084                      -0.05619                      -0.23306
                       0.97109                      -0.06791                      -0.22883
                       0.96959                      -0.08623                      -0.22904
                       0.96546                      -0.11180                      -0.23533
                       0.95744                      -0.14477                      -0.24970
                       0.94596                      -0.18413                      -0.26695
                       0.93364                      -0.22073                      -0.28213
                       0.92184                      -0.25183                      -0.29459
                       0.90750                      -0.28384                      -0.30965
                       0.89919                      -0.29990                      -0.31862
        </DataArray>
        <DataArray type="Float32" Name="OrientationY" NumberOfComponents="3" format="ascii">
                       0.31627                       0.08810                       0.94457
                       0.31628                       0.08795                       0.94458
                       0.31656                       0.08760                       0.94452
                       0.31713                       0.08724                       0.94436
                       0.31824                       0.08679                       0.94403
                       0.29000                       0.08803                       0.95297
                       0.27150                       0.08845                       0.95837
                       0.25784                       0.08836                       0.96214
                       0.24600                       0.08792                       0.96527
                       0.23730                       0.08708                       0.96753
                       0.23419                       0.08573                       0.96840
                       0.23614                       0.08389                       0.96809
                       0.24491                       0.08127                       0.96613
                       0.26253                       0.07724                       0.96183
                       0.28383                       0.07194                       0.95617
                       0.30301                       0.06653                       0.95066
                       0.31903                       0.06150                       0.94575
                       0.33781                       0.05499                       0.93961
                       0.34860                       0.05092                       0.93589
        </DataArray>
        <DataArray type="Float32" Name="OrientationZ" NumberOfComponents="3" format="ascii">
                      -0.03433                      -0.99396                       0.10421
                      -0.03407                      -0.99400                       0.10396
                      -0.03318                      -0.99409                       0.10332
                      -0.03184                      -0.99422                       0.10253
                      -0.02969                      -0.99440                       0.10143
                      -0.02692                      -0.99462                       0.10007
                      -0.02484                      -0.99479                       0.09884
                      -0.02453                      -0.99489                       0.09794
                      -0.02721                      -0.99486                       0.09755
                      -0.03407                      -0.99462                       0.09788
                      -0.04615                      -0.99400                       0.09916
                      -0.06427                      -0.99274                       0.10170
                      -0.08888                      -0.99040                       0.10585
                      -0.11996                      -0.98645                       0.11196
                      -0.15686                      -0.98027                       0.12031
                      -0.19106                      -0.97306                       0.12900
                      -0.22005                      -0.96582                       0.13703
                      -0.24966                      -0.95729                       0.14579
                      -0.26445                      -0.95261                       0.15033
        </DataArray>
        <DataArray type="Float32" Name="Force" NumberOfComponents="3" format="ascii">
                       4.10721                       4.62287                      45.44757
                     494.38435                       6.14451                     220.19047
                     691.85193                      37.48662                     578.00731
                     675.37765                      63.03870                     808.61262
                    4622.81829                    -343.33089                   -1975.58408
                    5214.15772                    -328.70140                   -1816.17915
                    5780.06124                    -320.89937                   -1720.55086
                    7590.67531                    -394.10177                   -2025.10339
                    8077.48647                    -414.25336                   -1895.44658
                    8532.81342                    -479.31371                   -1827.98011
                   10394.85332                    -692.70880                   -2032.43697
                    9656.66450                    -809.54642                   -1748.66018
                    5869.32089                    -628.20038                    -933.45372
                     666.84469                     -64.30492                     149.71664
                   -4113.06564                     783.18677                    1055.77532
                  -12021.47484                    2667.83511                    2471.28494
                  -18389.58532                    4650.07315                    3554.12128
                  -18871.41686                    5409.03225                    3624.36182
                  -37242.26723                   11031.11787                    4895.88142
        </DataArray>
        <DataArray type="Float32" Name="Moment" NumberOfComponents="3" format="ascii">
                       0.00000                       0.00000                       0.00000
                       0.00000                       0.00000                       0.00000
                       0.00000                       0.00000                       0.00000
                       0.00000                       0.00000                       0.00000
                      64.95542                    2190.48037                    -228.68300
                     105.85733                    3954.73370                    -411.83696
                     128.00580                    5208.03183                    -541.32242
                     192.78984                    7967.04665                    -827.82051
                     299.48008                   11155.27197                   -1161.76451
                     421.52116                   12497.34798                   -1309.30789
                     629.87207                   13710.91549                   -1451.57959
                     926.11480                   14389.57506                   -1547.38416
                     959.08969                   10708.12043                   -1175.89141
                    1229.01027                   10095.44481                   -1137.96424
                    1525.17784                    9497.97129                   -1103.95542
                    1731.23556                    8772.60914                   -1048.79448
                    1734.05032                    7565.59094                    -926.27254
                     941.44591                    3586.00523                    -449.84461
                      81.54821                     291.75807                     -37.04697
        </DataArray>
      </PointData>
      <Lines>
        <DataArray type="Int32" Name="connectivity" format="ascii">
      0      1
      1      2
      2      3
      3      4
      4      5
      5      6
      6      7
      7      8
      8      9
      9     10
     10     11
     11     12
     12     13
     13     14
     14     15
     15     16
     16     17
     17     18
        </DataArray>
        <DataArray type="Int32" Name="offsets" format="ascii">
      2
      4
      6
      8
     10
     12
     14
     16
     18
     20
     22
     24
     26
     28
     30
     32
     34
     36
        </DataArray>
      </Lines>
    </Piece>
  </PolyData>
</VTKFile>
