<?xml version="1.0"?>
<VTKFile type="PolyData" version="0.1" byte_order="LittleEndian">
  <PolyData>
    <Piece NumberOfPoints="     22" NumberOfVerts="  0" NumberOfLines="     21"
           NumberOfStrips="  0" NumberOfPolys="      0">
      <Points>
        <DataArray type="Float32" NumberOfComponents="3" format="ascii">
                       0.00011                      -0.00009                       2.19000
                       0.00114                      -0.00077                       6.57000
                       0.00342                      -0.00199                      10.95000
                       0.00706                      -0.00366                      15.33000
                       0.01210                      -0.00569                      19.70999
                       0.01852                      -0.00799                      24.08999
                       0.02627                      -0.01048                      28.46998
                       0.03534                      -0.01309                      32.84997
                       0.04570                      -0.01572                      37.22996
                       0.05737                      -0.01828                      41.60994
                       0.07041                      -0.02066                      45.98992
                       0.08489                      -0.02277                      50.36990
                       0.10089                      -0.02448                      54.74987
                       0.11848                      -0.02571                      59.12983
                       0.13771                      -0.02635                      63.50979
                       0.15853                      -0.02634                      67.88974
                       0.18078                      -0.02564                      72.26968
                       0.20414                      -0.02425                      76.64962
                       0.22806                      -0.02223                      81.02956
                       0.25170                      -0.01971                      85.40949
                       0.26306                      -0.01833                      87.59946
                       0.00000                       0.00000                       0.00000
        </DataArray>
      </Points>
      <PointData>
        <DataArray type="Float32" Name="TranslationalVelocity" NumberOfComponents="3" format="ascii">
                      -0.00106                      -0.00042                       0.00000
                      -0.00979                      -0.00358                       0.00000
                      -0.02742                      -0.00936                       0.00001
                      -0.05334                      -0.01735                       0.00003
                      -0.08631                      -0.02720                       0.00006
                      -0.12457                      -0.03866                       0.00011
                      -0.16597                      -0.05150                       0.00018
                      -0.20811                      -0.06548                       0.00026
                      -0.24846                      -0.08037                       0.00034
                      -0.28446                      -0.09591                       0.00043
                      -0.31365                      -0.11181                       0.00051
                      -0.33377                      -0.12777                       0.00056
                      -0.34283                      -0.14345                       0.00059
                      -0.33923                      -0.15852                       0.00057
                      -0.32184                      -0.17267                       0.00049
                      -0.29007                      -0.18562                       0.00034
                      -0.24394                      -0.19718                       0.00010
                      -0.18416                      -0.20726                      -0.00021
                      -0.11217                      -0.21594                      -0.00060
                      -0.03022                      -0.22350                      -0.00103
                       0.01355                      -0.22704                      -0.00126
                       0.00000                      -0.00000                       0.00000
        </DataArray>
        <DataArray type="Float32" Name="RotationalVelocity" NumberOfComponents="3" format="ascii">
                       0.00038                      -0.00098                       0.00000
                       0.00104                      -0.00302                       0.00000
                       0.00159                      -0.00501                       0.00000
                       0.00205                      -0.00678                       0.00000
                       0.00244                      -0.00821                       0.00000
                       0.00278                      -0.00918                       0.00000
                       0.00307                      -0.00963                       0.00000
                       0.00331                      -0.00951                       0.00000
                       0.00348                      -0.00881                       0.00000
                       0.00360                      -0.00753                       0.00000
                       0.00365                      -0.00571                       0.00000
                       0.00362                      -0.00340                       0.00000
                       0.00352                      -0.00068                       0.00000
                       0.00335                       0.00236                       0.00000
                       0.00310                       0.00560                       0.00000
                       0.00280                       0.00891                       0.00000
                       0.00247                       0.01213                       0.00000
                       0.00214                       0.01511                       0.00000
                       0.00184                       0.01767                       0.00000
                       0.00163                       0.01963                       0.00000
                       0.00159                       0.02032                       0.00000
                       0.00000                      -0.00000                       0.00000
        </DataArray>
        <DataArray type="Float32" Name="TranslationalAcceleration" NumberOfComponents="3" format="ascii">
                       0.00450                       0.01273                      -0.00000
                       0.04194                       0.10660                      -0.00002
                       0.11840                       0.27634                      -0.00010
                       0.23212                       0.50637                      -0.00028
                       0.37849                       0.78316                      -0.00059
                       0.55076                       1.09407                      -0.00104
                       0.74064                       1.42646                      -0.00161
                       0.93891                       1.76707                      -0.00227
                       1.13592                       2.10161                      -0.00295
                       1.32209                       2.41469                      -0.00361
                       1.48831                       2.68991                      -0.00421
                       1.62628                       2.91023                      -0.00471
                       1.72889                       3.05866                      -0.00510
                       1.79037                       3.11910                      -0.00539
                       1.80660                       3.07754                      -0.00558
                       1.77516                       2.92341                      -0.00570
                       1.69547                       2.65127                      -0.00577
                       1.56882                       2.26274                      -0.00582
                       1.39835                       1.76859                      -0.00586
                       1.18895                       1.19125                      -0.00595
                       1.07167                       0.88216                      -0.00602
                       0.00000                      -0.00000                       0.00000
        </DataArray>
        <DataArray type="Float32" Name="RotationalAcceleration" NumberOfComponents="3" format="ascii">
                      -0.01141                       0.00416                       0.00000
                      -0.03074                       0.01301                       0.00000
                      -0.04618                       0.02184                       0.00000
                      -0.05835                       0.02991                       0.00000
                      -0.06756                       0.03667                       0.00000
                      -0.07392                       0.04168                       0.00000
                      -0.07735                       0.04467                       0.00000
                      -0.07764                       0.04549                       0.00000
                      -0.07454                       0.04410                       0.00000
                      -0.06780                       0.04056                       0.00000
                      -0.05722                       0.03502                       0.00000
                      -0.04273                       0.02771                       0.00000
                      -0.02443                       0.01892                       0.00000
                      -0.00263                       0.00900                       0.00000
                       0.02202                      -0.00168                       0.00000
                       0.04857                      -0.01270                       0.00000
                       0.07564                      -0.02364                       0.00000
                       0.10138                      -0.03407                       0.00000
                       0.12342                      -0.04358                       0.00000
                       0.13882                      -0.05178                       0.00000
                       0.14293                      -0.05528                       0.00000
                       0.00000                      -0.00000                       0.00000
        </DataArray>
        <DataArray type="Float32" Name="OrientationX" NumberOfComponents="3" format="ascii">
                       1.00000                       0.00000                      -0.00011
                       1.00000                       0.00000                      -0.00037
                       1.00000                       0.00000                      -0.00067
                       1.00000                       0.00000                      -0.00099
                       1.00000                       0.00000                      -0.00131
                       1.00000                       0.00000                      -0.00162
                       1.00000                       0.00000                      -0.00192
                       1.00000                       0.00000                      -0.00222
                       1.00000                       0.00000                      -0.00251
                       1.00000                       0.00000                      -0.00282
                       1.00000                       0.00000                      -0.00314
                       0.99999                       0.00000                      -0.00348
                       0.99999                       0.00000                      -0.00383
                       0.99999                       0.00000                      -0.00420
                       0.99999                       0.00000                      -0.00457
                       0.99999                      -0.00000                      -0.00493
                       0.99999                      -0.00000                      -0.00522
                       0.99999                      -0.00000                      -0.00542
                       0.99999                      -0.00000                      -0.00547
                       0.99999                      -0.00000                      -0.00528
                       0.99999                      -0.00000                      -0.00507
                       1.00000                      -0.00000                       0.00000
        </DataArray>
        <DataArray type="Float32" Name="OrientationY" NumberOfComponents="3" format="ascii">
                       0.00000                       1.00000                       0.00008
                       0.00000                       1.00000                       0.00022
                       0.00000                       1.00000                       0.00033
                       0.00000                       1.00000                       0.00043
                       0.00000                       1.00000                       0.00050
                       0.00000                       1.00000                       0.00055
                       0.00000                       1.00000                       0.00059
                       0.00000                       1.00000                       0.00060
                       0.00000                       1.00000                       0.00060
                       0.00000                       1.00000                       0.00057
                       0.00000                       1.00000                       0.00052
                       0.00000                       1.00000                       0.00044
                       0.00000                       1.00000                       0.00034
                       0.00000                       1.00000                       0.00022
                       0.00000                       1.00000                       0.00007
                      -0.00000                       1.00000                      -0.00008
                      -0.00000                       1.00000                      -0.00024
                      -0.00000                       1.00000                      -0.00039
                      -0.00000                       1.00000                      -0.00053
                      -0.00000                       1.00000                      -0.00062
                      -0.00000                       1.00000                      -0.00064
                      -0.00000                       1.00000                      -0.00000
        </DataArray>
        <DataArray type="Float32" Name="OrientationZ" NumberOfComponents="3" format="ascii">
                       0.00011                      -0.00008                       1.00000
                       0.00037                      -0.00022                       1.00000
                       0.00067                      -0.00033                       1.00000
                       0.00099                      -0.00043                       1.00000
                       0.00131                      -0.00050                       1.00000
                       0.00162                      -0.00055                       1.00000
                       0.00192                      -0.00059                       1.00000
                       0.00222                      -0.00060                       1.00000
                       0.00251                      -0.00060                       1.00000
                       0.00282                      -0.00057                       1.00000
                       0.00314                      -0.00052                       0.99999
                       0.00348                      -0.00044                       0.99999
                       0.00383                      -0.00034                       0.99999
                       0.00420                      -0.00022                       0.99999
                       0.00457                      -0.00007                       0.99999
                       0.00493                       0.00008                       0.99999
                       0.00522                       0.00024                       0.99999
                       0.00542                       0.00039                       0.99999
                       0.00547                       0.00053                       0.99998
                       0.00528                       0.00062                       0.99999
                       0.00507                       0.00064                       0.99999
                       0.00000                      -0.00000                       1.00000
        </DataArray>
      </PointData>
      <Lines>
        <DataArray type="Int32" Name="connectivity" format="ascii">
      0      1
      1      2
      2      3
      3      4
      4      5
      5      6
      6      7
      7      8
      8      9
      9     10
     10     11
     11     12
     12     13
     13     14
     14     15
     15     16
     16     17
     17     18
     18     19
     19     20
     21      0
        </DataArray>
        <DataArray type="Int32" Name="offsets" format="ascii">
      2
      4
      6
      8
     10
     12
     14
     16
     18
     20
     22
     24
     26
     28
     30
     32
     34
     36
     38
     40
     42
        </DataArray>
      </Lines>
    </Piece>
  </PolyData>
</VTKFile>
