<?xml version="1.0"?>
<VTKFile type="PolyData" version="0.1" byte_order="LittleEndian">
  <PolyData>
    <Piece NumberOfPoints="     22" NumberOfVerts="  0" NumberOfLines="     21"
           NumberOfStrips="  0" NumberOfPolys="      0">
      <Points>
        <DataArray type="Float32" NumberOfComponents="3" format="ascii">
                       0.00012                      -0.00007                       2.19000
                       0.00119                      -0.00060                       6.57000
                       0.00356                      -0.00156                      10.95000
                       0.00737                      -0.00288                      15.33000
                       0.01263                      -0.00452                      19.70999
                       0.01934                      -0.00642                      24.08999
                       0.02745                      -0.00855                      28.46998
                       0.03694                      -0.01086                      32.84997
                       0.04780                      -0.01331                      37.22995
                       0.06005                      -0.01586                      41.60994
                       0.07374                      -0.01846                      45.98991
                       0.08896                      -0.02105                      50.36989
                       0.10580                      -0.02359                      54.74985
                       0.12433                      -0.02601                      59.12981
                       0.14460                      -0.02825                      63.50977
                       0.16656                      -0.03028                      67.88971
                       0.19006                      -0.03206                      72.26965
                       0.21474                      -0.03358                      76.64958
                       0.24002                      -0.03484                      81.02951
                       0.26503                      -0.03591                      85.40943
                       0.27705                      -0.03640                      87.59940
                       0.00000                       0.00000                       0.00000
        </DataArray>
      </Points>
      <PointData>
        <DataArray type="Float32" Name="TranslationalVelocity" NumberOfComponents="3" format="ascii">
                       0.00078                       0.00061                      -0.00000
                       0.00727                       0.00512                      -0.00000
                       0.02045                       0.01330                      -0.00001
                       0.03996                       0.02442                      -0.00002
                       0.06495                       0.03789                      -0.00005
                       0.09419                       0.05313                      -0.00008
                       0.12619                       0.06961                      -0.00014
                       0.15926                       0.08675                      -0.00020
                       0.19164                       0.10394                      -0.00027
                       0.22159                       0.12053                      -0.00034
                       0.24741                       0.13580                      -0.00041
                       0.26757                       0.14902                      -0.00047
                       0.28072                       0.15944                      -0.00052
                       0.28581                       0.16636                      -0.00053
                       0.28205                       0.16916                      -0.00051
                       0.26903                       0.16735                      -0.00045
                       0.24668                       0.16066                      -0.00033
                       0.21536                       0.14913                      -0.00016
                       0.17583                       0.13319                       0.00006
                       0.12929                       0.11377                       0.00032
                       0.10388                       0.10322                       0.00046
                       0.00000                      -0.00000                       0.00000
        </DataArray>
        <DataArray type="Float32" Name="RotationalVelocity" NumberOfComponents="3" format="ascii">
                      -0.00055                       0.00072                       0.00000
                      -0.00148                       0.00225                       0.00000
                      -0.00223                       0.00376                       0.00000
                      -0.00283                       0.00512                       0.00000
                      -0.00330                       0.00624                       0.00000
                      -0.00364                       0.00705                       0.00000
                      -0.00386                       0.00749                       0.00000
                      -0.00394                       0.00754                       0.00000
                      -0.00388                       0.00718                       0.00000
                      -0.00366                       0.00643                       0.00000
                      -0.00328                       0.00530                       0.00000
                      -0.00273                       0.00385                       0.00000
                      -0.00201                       0.00212                       0.00000
                      -0.00113                       0.00017                       0.00000
                      -0.00013                      -0.00191                       0.00000
                       0.00097                      -0.00404                       0.00000
                       0.00209                      -0.00615                       0.00000
                       0.00316                      -0.00812                       0.00000
                       0.00408                      -0.00988                       0.00000
                       0.00473                      -0.01131                       0.00000
                       0.00489                      -0.01188                       0.00000
                       0.00000                      -0.00000                       0.00000
        </DataArray>
        <DataArray type="Float32" Name="TranslationalAcceleration" NumberOfComponents="3" format="ascii">
                      -0.00005                       0.01034                      -0.00000
                      -0.00045                       0.08677                      -0.00001
                      -0.00128                       0.22539                      -0.00003
                      -0.00253                       0.41414                      -0.00009
                      -0.00415                       0.64274                      -0.00019
                      -0.00608                       0.90186                      -0.00032
                      -0.00824                       1.18234                      -0.00047
                      -0.01054                       1.47468                      -0.00063
                      -0.01289                       1.76870                      -0.00076
                      -0.01519                       2.05341                      -0.00086
                      -0.01737                       2.31702                      -0.00090
                      -0.01935                       2.54723                      -0.00089
                      -0.02106                       2.73167                      -0.00085
                      -0.02245                       2.85846                      -0.00079
                      -0.02349                       2.91713                      -0.00077
                      -0.02415                       2.89957                      -0.00082
                      -0.02442                       2.80126                      -0.00099
                      -0.02429                       2.62267                      -0.00131
                      -0.02377                       2.37088                      -0.00180
                      -0.02287                       2.06135                      -0.00246
                      -0.02228                       1.89262                      -0.00283
                       0.00000                      -0.00000                       0.00000
        </DataArray>
        <DataArray type="Float32" Name="RotationalAcceleration" NumberOfComponents="3" format="ascii">
                      -0.00928                      -0.00004                       0.00000
                      -0.02506                      -0.00014                       0.00000
                      -0.03779                      -0.00024                       0.00000
                      -0.04801                      -0.00033                       0.00000
                      -0.05602                      -0.00041                       0.00000
                      -0.06195                      -0.00047                       0.00000
                      -0.06576                      -0.00051                       0.00000
                      -0.06734                      -0.00053                       0.00000
                      -0.06650                      -0.00053                       0.00000
                      -0.06305                      -0.00051                       0.00000
                      -0.05685                      -0.00048                       0.00000
                      -0.04780                      -0.00042                       0.00000
                      -0.03596                      -0.00036                       0.00000
                      -0.02153                      -0.00028                       0.00000
                      -0.00494                      -0.00019                       0.00000
                       0.01314                      -0.00011                       0.00000
                       0.03174                      -0.00002                       0.00000
                       0.04954                       0.00007                       0.00000
                       0.06485                       0.00016                       0.00000
                       0.07552                       0.00025                       0.00000
                       0.07832                       0.00029                       0.00000
                       0.00000                      -0.00000                       0.00000
        </DataArray>
        <DataArray type="Float32" Name="OrientationX" NumberOfComponents="3" format="ascii">
                       1.00000                       0.00000                      -0.00011
                       1.00000                       0.00000                      -0.00039
                       1.00000                       0.00000                      -0.00070
                       1.00000                       0.00000                      -0.00104
                       1.00000                       0.00000                      -0.00137
                       1.00000                       0.00000                      -0.00169
                       1.00000                       0.00000                      -0.00201
                       1.00000                       0.00000                      -0.00232
                       1.00000                       0.00000                      -0.00264
                       1.00000                       0.00000                      -0.00296
                       0.99999                       0.00000                      -0.00330
                       0.99999                       0.00000                      -0.00366
                       0.99999                       0.00000                      -0.00404
                       0.99999                       0.00000                      -0.00443
                       0.99999                       0.00000                      -0.00482
                       0.99999                       0.00000                      -0.00520
                       0.99998                       0.00000                      -0.00552
                       0.99998                       0.00000                      -0.00573
                       0.99998                       0.00000                      -0.00578
                       0.99998                       0.00000                      -0.00559
                       0.99999                       0.00000                      -0.00537
                       1.00000                      -0.00000                       0.00000
        </DataArray>
        <DataArray type="Float32" Name="OrientationY" NumberOfComponents="3" format="ascii">
                       0.00000                       1.00000                       0.00006
                       0.00000                       1.00000                       0.00017
                       0.00000                       1.00000                       0.00026
                       0.00000                       1.00000                       0.00034
                       0.00000                       1.00000                       0.00041
                       0.00000                       1.00000                       0.00046
                       0.00000                       1.00000                       0.00051
                       0.00000                       1.00000                       0.00055
                       0.00000                       1.00000                       0.00057
                       0.00000                       1.00000                       0.00059
                       0.00000                       1.00000                       0.00060
                       0.00000                       1.00000                       0.00059
                       0.00000                       1.00000                       0.00057
                       0.00000                       1.00000                       0.00053
                       0.00000                       1.00000                       0.00049
                       0.00000                       1.00000                       0.00044
                       0.00000                       1.00000                       0.00038
                       0.00000                       1.00000                       0.00032
                       0.00000                       1.00000                       0.00026
                       0.00000                       1.00000                       0.00023
                       0.00000                       1.00000                       0.00022
                      -0.00000                       1.00000                      -0.00000
        </DataArray>
        <DataArray type="Float32" Name="OrientationZ" NumberOfComponents="3" format="ascii">
                       0.00011                      -0.00006                       1.00000
                       0.00039                      -0.00017                       1.00000
                       0.00070                      -0.00026                       1.00000
                       0.00104                      -0.00034                       1.00000
                       0.00137                      -0.00041                       1.00000
                       0.00169                      -0.00046                       1.00000
                       0.00201                      -0.00051                       1.00000
                       0.00232                      -0.00055                       1.00000
                       0.00264                      -0.00057                       1.00000
                       0.00296                      -0.00059                       1.00000
                       0.00330                      -0.00060                       0.99999
                       0.00366                      -0.00059                       0.99999
                       0.00404                      -0.00057                       0.99999
                       0.00443                      -0.00053                       0.99999
                       0.00482                      -0.00049                       0.99999
                       0.00520                      -0.00044                       0.99999
                       0.00552                      -0.00038                       0.99998
                       0.00573                      -0.00032                       0.99998
                       0.00578                      -0.00026                       0.99998
                       0.00559                      -0.00023                       0.99998
                       0.00537                      -0.00022                       0.99999
                       0.00000                      -0.00000                       1.00000
        </DataArray>
      </PointData>
      <Lines>
        <DataArray type="Int32" Name="connectivity" format="ascii">
      0      1
      1      2
      2      3
      3      4
      4      5
      5      6
      6      7
      7      8
      8      9
      9     10
     10     11
     11     12
     12     13
     13     14
     14     15
     15     16
     16     17
     17     18
     18     19
     19     20
     21      0
        </DataArray>
        <DataArray type="Int32" Name="offsets" format="ascii">
      2
      4
      6
      8
     10
     12
     14
     16
     18
     20
     22
     24
     26
     28
     30
     32
     34
     36
     38
     40
     42
        </DataArray>
      </Lines>
    </Piece>
  </PolyData>
</VTKFile>
