<?xml version="1.0"?>
<VTKFile type="PolyData" version="0.1" byte_order="LittleEndian">
  <PolyData>
    <Piece NumberOfPoints="     19" NumberOfVerts="  0" NumberOfLines="     18"
           NumberOfStrips="  0" NumberOfPolys="      0">
      <Points>
        <DataArray type="Float32" NumberOfComponents="3" format="ascii">
                      -4.76397                      -1.42499                      90.51408
                      -4.78254                      -2.71734                      90.95924
                      -4.84964                      -5.33318                      91.76058
                      -4.92814                      -7.96459                      92.51809
                      -5.02740                     -11.26398                      93.43616
                      -5.06811                     -15.18116                      94.66195
                      -5.05973                     -19.06003                      96.00118
                      -5.04518                     -22.94092                      97.33657
                      -5.03162                     -26.82321                      98.67117
                      -5.03354                     -30.70686                     100.00557
                      -5.06962                     -34.59150                     101.33958
                      -5.15902                     -38.47405                     102.67846
                      -5.32516                     -42.35036                     104.02706
                      -5.59396                     -46.21441                     105.39105
                      -5.99106                     -50.05846                     106.77643
                      -6.44403                     -53.23852                     107.95308
                      -6.89279                     -55.76052                     108.91855
                      -7.41374                     -58.24494                     109.95174
                      -7.72467                     -59.48870                     110.43824
        </DataArray>
      </Points>
      <PointData>
        <DataArray type="Float32" Name="TranslationalVelocity" NumberOfComponents="3" format="ascii">
                      -0.37110                      -1.57765                      -4.57893
                      -0.75497                      -3.01179                      -8.75830
                      -1.52909                      -5.58490                     -17.22258
                      -2.30316                      -8.01482                     -25.74463
                      -3.26521                     -10.96170                     -36.44251
                      -4.39171                     -14.92866                     -49.16325
                      -5.48598                     -19.28550                     -61.78226
                      -6.55552                     -23.63959                     -74.43106
                      -7.59612                     -27.99878                     -87.10731
                      -8.60394                     -32.36095                     -99.81000
                      -9.57550                     -36.72063                    -112.53654
                     -10.50709                     -41.09063                    -125.27526
                     -11.39539                     -45.48199                    -138.01081
                     -12.23742                     -49.90899                    -150.72176
                     -13.03062                     -54.38813                    -163.38126
                     -13.65174                     -58.17756                    -173.86469
                     -14.12264                     -61.27826                    -182.18509
                     -14.56671                     -64.59580                    -190.38751
                     -14.78226                     -66.14899                    -194.49602
        </DataArray>
        <DataArray type="Float32" Name="RotationalVelocity" NumberOfComponents="3" format="ascii">
                       3.23324                       0.00045                      -0.29737
                       3.23406                       0.00058                      -0.29701
                       3.23631                       0.00099                      -0.29583
                       3.23922                       0.00163                      -0.29408
                       3.24348                       0.00270                      -0.29123
                       3.24909                       0.00430                      -0.28689
                       3.25490                       0.00608                      -0.28162
                       3.26063                       0.00785                      -0.27538
                       3.26616                       0.00941                      -0.26812
                       3.27143                       0.01059                      -0.25978
                       3.27644                       0.01128                      -0.25035
                       3.28122                       0.01142                      -0.23988
                       3.28580                       0.01108                      -0.22855
                       3.29021                       0.01043                      -0.21669
                       3.29440                       0.00980                      -0.20481
                       3.29766                       0.00963                      -0.19538
                       3.30003                       0.01002                      -0.18857
                       3.30210                       0.01114                      -0.18278
                       3.30298                       0.01207                      -0.18040
        </DataArray>
        <DataArray type="Float32" Name="TranslationalAcceleration" NumberOfComponents="3" format="ascii">
                      -0.62735                      14.65055                      -5.19056
                      -0.61551                      17.98126                      -6.23397
                      -1.64039                      51.85677                     -16.85326
                      -2.47141                      83.29453                     -26.02365
                      -3.29390                     120.28038                     -36.23143
                      -4.16702                     162.11469                     -48.96157
                      -4.94168                     202.67608                     -62.45215
                      -5.55475                     243.33255                     -75.74642
                      -6.06664                     284.56681                     -89.03390
                      -6.53775                     326.52854                    -102.35393
                      -7.03181                     369.12078                    -115.65069
                      -7.62167                     412.07691                    -128.87918
                      -8.38451                     455.07614                    -141.97389
                      -9.40372                     497.83571                    -154.89944
                     -10.76962                     540.21162                    -167.68234
                     -12.25281                     575.28068                    -178.31767
                     -13.69940                     603.28862                    -186.99032
                     -15.43532                     631.34742                    -196.41939
                     -16.40105                     645.64729                    -200.82406
        </DataArray>
        <DataArray type="Float32" Name="OrientationX" NumberOfComponents="3" format="ascii">
                       0.94948                      -0.11514                      -0.29194
                       0.94948                      -0.11476                      -0.29209
                       0.94940                      -0.11367                      -0.29277
                       0.94923                      -0.11217                      -0.29389
                       0.94890                      -0.10986                      -0.29585
                       0.95787                      -0.09721                      -0.27025
                       0.96327                      -0.08814                      -0.25366
                       0.96703                      -0.08203                      -0.24108
                       0.97016                      -0.07896                      -0.22925
                       0.97239                      -0.08042                      -0.21905
                       0.97318                      -0.08818                      -0.21246
                       0.97255                      -0.10288                      -0.20871
                       0.96975                      -0.12564                      -0.20930
                       0.96360                      -0.15728                      -0.21619
                       0.95455                      -0.19593                      -0.22459
                       0.94462                      -0.23240                      -0.23170
                       0.93488                      -0.26389                      -0.23741
                       0.92260                      -0.29748                      -0.24559
                       0.91528                      -0.31496                      -0.25111
        </DataArray>
        <DataArray type="Float32" Name="OrientationY" NumberOfComponents="3" format="ascii">
                       0.31353                       0.30773                       0.89833
                       0.31354                       0.30753                       0.89840
                       0.31382                       0.30706                       0.89846
                       0.31439                       0.30652                       0.89845
                       0.31548                       0.30579                       0.89831
                       0.28716                       0.30809                       0.90698
                       0.26853                       0.30899                       0.91237
                       0.25465                       0.30915                       0.91628
                       0.24246                       0.30890                       0.91967
                       0.23325                       0.30818                       0.92229
                       0.22946                       0.30686                       0.92368
                       0.23056                       0.30499                       0.92403
                       0.23837                       0.30232                       0.92292
                       0.25503                       0.29818                       0.91981
                       0.27553                       0.29278                       0.91562
                       0.29427                       0.28731                       0.91152
                       0.31020                       0.28217                       0.90783
                       0.32924                       0.27548                       0.90317
                       0.34035                       0.27125                       0.90033
        </DataArray>
        <DataArray type="Float32" Name="OrientationZ" NumberOfComponents="3" format="ascii">
                      -0.01359                      -0.94448                       0.32828
                      -0.01327                      -0.94459                       0.32798
                      -0.01223                      -0.94488                       0.32720
                      -0.01069                      -0.94523                       0.32622
                      -0.00822                      -0.94574                       0.32482
                      -0.00491                      -0.94638                       0.32303
                      -0.00204                      -0.94697                       0.32131
                      -0.00063                      -0.94747                       0.31985
                      -0.00180                      -0.94781                       0.31883
                      -0.00666                      -0.94792                       0.31843
                      -0.01625                      -0.94766                       0.31886
                      -0.03141                      -0.94678                       0.32034
                      -0.05268                      -0.94489                       0.32312
                      -0.08021                      -0.94146                       0.32744
                      -0.11364                      -0.93589                       0.33346
                      -0.14527                      -0.92922                       0.33978
                      -0.17258                      -0.92236                       0.34566
                      -0.20102                      -0.91412                       0.35210
                      -0.21545                      -0.90952                       0.35546
        </DataArray>
        <DataArray type="Float32" Name="Force" NumberOfComponents="3" format="ascii">
                       4.07743                      15.35564                      44.34830
                     513.47090                      68.65454                     218.26048
                     718.90005                     189.41266                     571.78555
                     702.10310                     269.89907                     799.71823
                    4884.95250                    -725.34698                   -1971.79310
                    5555.21652                    -662.31549                   -1834.11984
                    6214.28626                    -619.50321                   -1759.97890
                    8216.93237                    -722.67776                   -2087.95368
                    8829.15680                    -692.20076                   -1970.54826
                    9509.31624                    -729.86921                   -1935.12933
                   11779.29544                    -941.51093                   -2155.01107
                   11461.84621                   -1040.77491                   -1916.00699
                    8244.74614                    -893.43443                   -1248.03656
                    2920.38074                    -318.00650                    -197.96846
                    -899.28113                     267.62256                     443.24833
                   -8476.90362                    1876.25897                    1522.69405
                  -14859.78721                    3619.06552                    2294.17660
                  -16717.83245                    4559.93462                    2397.23202
                  -39966.12763                   10416.52092                    2554.86747
        </DataArray>
        <DataArray type="Float32" Name="Moment" NumberOfComponents="3" format="ascii">
                       0.00000                       0.00000                       0.00000
                       0.00000                       0.00000                       0.00000
                       0.00000                       0.00000                       0.00000
                       0.00000                       0.00000                       0.00000
                      17.94564                    2133.61293                    -740.41546
                      18.51893                    3889.92834                   -1348.59407
                       8.13564                    5131.52140                   -1777.54221
                      -0.26020                    7864.73684                   -2723.14876
                      12.13102                   11044.72736                   -3825.36280
                      76.69965                   12418.88872                   -4307.10399
                     222.61890                   13650.31707                   -4746.90320
                     467.04935                   14404.24423                   -5030.42438
                     597.55706                   10828.67362                   -3804.37863
                     880.85510                   10376.28416                   -3673.78504
                    1182.94269                    9741.84335                   -3481.88353
                    1402.33284                    8957.40765                   -3230.44286
                    1466.70327                    7825.33792                   -2844.38091
                     836.95213                    3800.77970                   -1392.97382
                     193.49960                     816.08974                    -300.36240
        </DataArray>
      </PointData>
      <Lines>
        <DataArray type="Int32" Name="connectivity" format="ascii">
      0      1
      1      2
      2      3
      3      4
      4      5
      5      6
      6      7
      7      8
      8      9
      9     10
     10     11
     11     12
     12     13
     13     14
     14     15
     15     16
     16     17
     17     18
        </DataArray>
        <DataArray type="Int32" Name="offsets" format="ascii">
      2
      4
      6
      8
     10
     12
     14
     16
     18
     20
     22
     24
     26
     28
     30
     32
     34
     36
        </DataArray>
      </Lines>
    </Piece>
  </PolyData>
</VTKFile>
