<?xml version="1.0"?>
<VTKFile type="PolyData" version="0.1" byte_order="LittleEndian">
  <PolyData>
    <Piece NumberOfPoints="     22" NumberOfVerts="  0" NumberOfLines="     21"
           NumberOfStrips="  0" NumberOfPolys="      0">
      <Points>
        <DataArray type="Float32" NumberOfComponents="3" format="ascii">
                       0.00010                      -0.00002                       2.19000
                       0.00099                      -0.00013                       6.57000
                       0.00296                      -0.00035                      10.95000
                       0.00609                      -0.00066                      15.33000
                       0.01039                      -0.00107                      19.71000
                       0.01583                      -0.00157                      24.08999
                       0.02236                      -0.00218                      28.46999
                       0.02993                      -0.00290                      32.84998
                       0.03852                      -0.00375                      37.22997
                       0.04811                      -0.00473                      41.60996
                       0.05871                      -0.00587                      45.98995
                       0.07038                      -0.00716                      50.36993
                       0.08315                      -0.00862                      54.74991
                       0.09707                      -0.01025                      59.12989
                       0.11215                      -0.01206                      63.50987
                       0.12837                      -0.01404                      67.88983
                       0.14559                      -0.01618                      72.26980
                       0.16357                      -0.01847                      76.64976
                       0.18187                      -0.02088                      81.02972
                       0.19987                      -0.02340                      85.40969
                       0.20847                      -0.02468                      87.59967
                       0.00000                       0.00000                       0.00000
        </DataArray>
      </Points>
      <PointData>
        <DataArray type="Float32" Name="TranslationalVelocity" NumberOfComponents="3" format="ascii">
                       0.00017                      -0.00002                      -0.00000
                       0.00175                      -0.00013                      -0.00000
                       0.00524                      -0.00034                      -0.00000
                       0.01080                      -0.00063                      -0.00001
                       0.01845                      -0.00099                      -0.00001
                       0.02815                      -0.00141                      -0.00003
                       0.03982                      -0.00187                      -0.00004
                       0.05338                      -0.00239                      -0.00007
                       0.06879                      -0.00293                      -0.00010
                       0.08605                      -0.00350                      -0.00014
                       0.10521                      -0.00409                      -0.00018
                       0.12633                      -0.00468                      -0.00024
                       0.14953                      -0.00527                      -0.00031
                       0.17488                      -0.00583                      -0.00039
                       0.20243                      -0.00637                      -0.00048
                       0.23212                      -0.00687                      -0.00059
                       0.26371                      -0.00732                      -0.00072
                       0.29675                      -0.00772                      -0.00085
                       0.33045                      -0.00807                      -0.00099
                       0.36364                      -0.00839                      -0.00113
                       0.37954                      -0.00853                      -0.00119
                       0.00000                      -0.00000                       0.00000
        </DataArray>
        <DataArray type="Float32" Name="RotationalVelocity" NumberOfComponents="3" format="ascii">
                       0.00001                       0.00016                       0.00000
                       0.00004                       0.00057                       0.00000
                       0.00006                       0.00103                       0.00000
                       0.00007                       0.00151                       0.00000
                       0.00009                       0.00198                       0.00000
                       0.00010                       0.00244                       0.00000
                       0.00011                       0.00288                       0.00000
                       0.00012                       0.00331                       0.00000
                       0.00013                       0.00373                       0.00000
                       0.00013                       0.00415                       0.00000
                       0.00014                       0.00459                       0.00000
                       0.00013                       0.00506                       0.00000
                       0.00013                       0.00554                       0.00000
                       0.00013                       0.00604                       0.00000
                       0.00012                       0.00654                       0.00000
                       0.00011                       0.00701                       0.00000
                       0.00010                       0.00740                       0.00000
                       0.00009                       0.00766                       0.00000
                       0.00008                       0.00769                       0.00000
                       0.00007                       0.00740                       0.00000
                       0.00007                       0.00709                       0.00000
                       0.00000                      -0.00000                       0.00000
        </DataArray>
        <DataArray type="Float32" Name="TranslationalAcceleration" NumberOfComponents="3" format="ascii">
                       0.00054                      -0.00080                      -0.00000
                       0.00493                      -0.00667                      -0.00000
                       0.01377                      -0.01725                      -0.00001
                       0.02670                      -0.03155                      -0.00003
                       0.04308                      -0.04866                      -0.00006
                       0.06197                      -0.06774                      -0.00011
                       0.08225                      -0.08793                      -0.00017
                       0.10267                      -0.10832                      -0.00025
                       0.12190                      -0.12793                      -0.00035
                       0.13858                      -0.14570                      -0.00046
                       0.15141                      -0.16052                      -0.00057
                       0.15918                      -0.17123                      -0.00070
                       0.16084                      -0.17667                      -0.00083
                       0.15552                      -0.17576                      -0.00096
                       0.14263                      -0.16757                      -0.00108
                       0.12185                      -0.15142                      -0.00120
                       0.09324                      -0.12696                      -0.00130
                       0.05723                      -0.09435                      -0.00139
                       0.01468                      -0.05436                      -0.00145
                      -0.03306                      -0.00856                      -0.00147
                      -0.05831                       0.01577                      -0.00148
                       0.00000                      -0.00000                       0.00000
        </DataArray>
        <DataArray type="Float32" Name="RotationalAcceleration" NumberOfComponents="3" format="ascii">
                       0.00071                       0.00049                       0.00000
                       0.00192                       0.00152                       0.00000
                       0.00288                       0.00250                       0.00000
                       0.00362                       0.00338                       0.00000
                       0.00416                       0.00407                       0.00000
                       0.00452                       0.00452                       0.00000
                       0.00467                       0.00470                       0.00000
                       0.00460                       0.00458                       0.00000
                       0.00431                       0.00415                       0.00000
                       0.00376                       0.00342                       0.00000
                       0.00296                       0.00240                       0.00000
                       0.00189                       0.00111                       0.00000
                       0.00056                      -0.00039                       0.00000
                      -0.00101                      -0.00206                       0.00000
                      -0.00276                      -0.00384                       0.00000
                      -0.00463                      -0.00565                       0.00000
                      -0.00653                      -0.00740                       0.00000
                      -0.00833                      -0.00901                       0.00000
                      -0.00987                      -0.01037                       0.00000
                      -0.01095                      -0.01136                       0.00000
                      -0.01124                      -0.01168                       0.00000
                       0.00000                      -0.00000                       0.00000
        </DataArray>
        <DataArray type="Float32" Name="OrientationX" NumberOfComponents="3" format="ascii">
                       1.00000                       0.00000                      -0.00009
                       1.00000                       0.00000                      -0.00032
                       1.00000                       0.00000                      -0.00058
                       1.00000                       0.00000                      -0.00085
                       1.00000                       0.00000                      -0.00111
                       1.00000                       0.00000                      -0.00137
                       1.00000                       0.00000                      -0.00161
                       1.00000                       0.00000                      -0.00185
                       1.00000                       0.00000                      -0.00207
                       1.00000                       0.00000                      -0.00230
                       1.00000                       0.00000                      -0.00254
                       1.00000                       0.00000                      -0.00279
                       1.00000                       0.00000                      -0.00305
                       0.99999                       0.00000                      -0.00331
                       0.99999                       0.00000                      -0.00358
                       0.99999                       0.00000                      -0.00382
                       0.99999                       0.00000                      -0.00403
                       0.99999                       0.00000                      -0.00416
                       0.99999                       0.00000                      -0.00417
                       0.99999                       0.00000                      -0.00401
                       0.99999                       0.00000                      -0.00384
                       1.00000                      -0.00000                       0.00000
        </DataArray>
        <DataArray type="Float32" Name="OrientationY" NumberOfComponents="3" format="ascii">
                       0.00000                       1.00000                       0.00001
                       0.00000                       1.00000                       0.00004
                       0.00000                       1.00000                       0.00006
                       0.00000                       1.00000                       0.00008
                       0.00000                       1.00000                       0.00010
                       0.00000                       1.00000                       0.00013
                       0.00000                       1.00000                       0.00015
                       0.00000                       1.00000                       0.00018
                       0.00000                       1.00000                       0.00021
                       0.00000                       1.00000                       0.00024
                       0.00000                       1.00000                       0.00028
                       0.00000                       1.00000                       0.00031
                       0.00000                       1.00000                       0.00035
                       0.00000                       1.00000                       0.00039
                       0.00000                       1.00000                       0.00043
                       0.00000                       1.00000                       0.00047
                       0.00000                       1.00000                       0.00051
                       0.00000                       1.00000                       0.00054
                       0.00000                       1.00000                       0.00056
                       0.00000                       1.00000                       0.00058
                       0.00000                       1.00000                       0.00059
                      -0.00000                       1.00000                      -0.00000
        </DataArray>
        <DataArray type="Float32" Name="OrientationZ" NumberOfComponents="3" format="ascii">
                       0.00009                      -0.00001                       1.00000
                       0.00032                      -0.00004                       1.00000
                       0.00058                      -0.00006                       1.00000
                       0.00085                      -0.00008                       1.00000
                       0.00111                      -0.00010                       1.00000
                       0.00137                      -0.00013                       1.00000
                       0.00161                      -0.00015                       1.00000
                       0.00185                      -0.00018                       1.00000
                       0.00207                      -0.00021                       1.00000
                       0.00230                      -0.00024                       1.00000
                       0.00254                      -0.00028                       1.00000
                       0.00279                      -0.00031                       1.00000
                       0.00305                      -0.00035                       1.00000
                       0.00331                      -0.00039                       0.99999
                       0.00358                      -0.00043                       0.99999
                       0.00382                      -0.00047                       0.99999
                       0.00403                      -0.00051                       0.99999
                       0.00416                      -0.00054                       0.99999
                       0.00417                      -0.00056                       0.99999
                       0.00401                      -0.00058                       0.99999
                       0.00384                      -0.00059                       0.99999
                       0.00000                      -0.00000                       1.00000
        </DataArray>
      </PointData>
      <Lines>
        <DataArray type="Int32" Name="connectivity" format="ascii">
      0      1
      1      2
      2      3
      3      4
      4      5
      5      6
      6      7
      7      8
      8      9
      9     10
     10     11
     11     12
     12     13
     13     14
     14     15
     15     16
     16     17
     17     18
     18     19
     19     20
     21      0
        </DataArray>
        <DataArray type="Int32" Name="offsets" format="ascii">
      2
      4
      6
      8
     10
     12
     14
     16
     18
     20
     22
     24
     26
     28
     30
     32
     34
     36
     38
     40
     42
        </DataArray>
      </Lines>
    </Piece>
  </PolyData>
</VTKFile>
