<?xml version="1.0"?>
<VTKFile type="PolyData" version="0.1" byte_order="LittleEndian">
  <PolyData>
    <Piece NumberOfPoints="     19" NumberOfVerts="  0" NumberOfLines="     18"
           NumberOfStrips="  0" NumberOfPolys="      0">
      <Points>
        <DataArray type="Float32" NumberOfComponents="3" format="ascii">
                      -4.69561                       1.39159                      90.58619
                      -4.70676                       2.65686                      91.10317
                      -4.74035                       5.15359                      92.22336
                      -4.77208                       7.63690                      93.38070
                      -4.79668                      10.73675                      94.84331
                      -4.75222                      14.51834                      96.44619
                      -4.65732                      18.35466                      97.90819
                      -4.53371                      22.19821                      99.34988
                      -4.39213                      26.04953                     100.77124
                      -4.25164                      29.90771                     102.17639
                      -4.13645                      33.77094                     103.57102
                      -4.07277                      37.63867                     104.95515
                      -4.09101                      41.50913                     106.32892
                      -4.22375                      45.37962                     107.69052
                      -4.50241                      49.24641                     109.03591
                      -4.87380                      52.46224                     110.13896
                      -5.27023                      55.03098                     110.99887
                      -5.75784                      57.61080                     111.79033
                      -6.05042                      58.88239                     112.21618
        </DataArray>
      </Points>
      <PointData>
        <DataArray type="Float32" Name="TranslationalVelocity" NumberOfComponents="3" format="ascii">
                       0.34382                      -2.02194                       4.57836
                       0.72723                      -3.71687                       8.73164
                       1.47387                      -7.36519                      16.88855
                       2.20806                     -11.10286                      24.94243
                       3.12523                     -15.77727                      34.89653
                       4.26924                     -20.84333                      46.87847
                       5.48791                     -25.40471                      58.84134
                       6.80224                     -29.84186                      70.62752
                       8.24065                     -34.15526                      82.24434
                       9.82137                     -38.35585                      93.69964
                      11.54728                     -42.45719                     105.00208
                      13.40175                     -46.45532                     116.16493
                      15.34273                     -50.34474                     127.19615
                      17.29772                     -54.11253                     138.09683
                      19.15835                     -57.73904                     148.85900
                      20.52378                     -60.62781                     157.70323
                      21.42546                     -62.82033                     164.69669
                      22.10441                     -64.77019                     171.65154
                      22.30865                     -65.80237                     175.04521
        </DataArray>
        <DataArray type="Float32" Name="RotationalVelocity" NumberOfComponents="3" format="ascii">
                       3.28807                       0.00183                      -0.30306
                       3.28052                       0.00156                      -0.30216
                       3.26095                       0.00122                      -0.29996
                       3.23628                       0.00189                      -0.29845
                       3.20028                       0.00466                      -0.29929
                       3.15213                       0.01053                      -0.30681
                       3.10164                       0.01727                      -0.32328
                       3.05146                       0.02180                      -0.34922
                       3.00363                       0.02051                      -0.38383
                       2.95964                       0.00990                      -0.42483
                       2.92041                      -0.01285                      -0.46839
                       2.88628                      -0.04924                      -0.50912
                       2.85699                      -0.09882                      -0.53996
                       2.83173                      -0.15861                      -0.55217
                       2.80907                      -0.22242                      -0.53529
                       2.79076                      -0.27198                      -0.49132
                       2.77547                      -0.30346                      -0.42970
                       2.75860                      -0.32199                      -0.33974
                       2.74928                      -0.32453                      -0.28273
        </DataArray>
        <DataArray type="Float32" Name="TranslationalAcceleration" NumberOfComponents="3" format="ascii">
                       0.89404                     -16.66758                      -4.97531
                      -0.25269                     -18.64540                      -7.16263
                      -1.20015                     -52.67999                     -21.21933
                      -3.09249                     -83.39471                     -34.15099
                      -7.32774                    -118.61208                     -48.58926
                     -15.38315                    -158.23817                     -62.03878
                     -26.58118                    -196.16206                     -72.15019
                     -40.30241                    -232.93915                     -80.80219
                     -55.37377                    -269.10641                     -88.63483
                     -70.34606                    -304.84813                     -96.26099
                     -83.63252                    -340.07459                    -104.19978
                     -93.66627                    -374.50518                    -112.77470
                     -99.05588                    -407.74606                    -122.12326
                     -98.74327                    -439.37014                    -132.13984
                     -92.16547                    -469.01066                    -142.44398
                     -81.85774                    -491.96790                    -150.74306
                     -70.93637                    -509.27821                    -156.73619
                     -57.97362                    -525.90415                    -161.38811
                     -51.01820                    -533.74311                    -163.48429
        </DataArray>
        <DataArray type="Float32" Name="OrientationX" NumberOfComponents="3" format="ascii">
                       0.98914                      -0.04681                       0.13934
                       0.98914                      -0.04743                       0.13911
                       0.98912                      -0.04969                       0.13850
                       0.98904                      -0.05321                       0.13770
                       0.98886                      -0.05900                       0.13666
                       0.99273                      -0.05586                       0.10661
                       0.99464                      -0.05667                       0.08650
                       0.99569                      -0.05803                       0.07230
                       0.99645                      -0.05724                       0.06172
                       0.99697                      -0.05328                       0.05659
                       0.99718                      -0.04566                       0.05963
                       0.99697                      -0.03307                       0.07043
                       0.99578                      -0.01542                       0.09052
                       0.99259                       0.00675                       0.12132
                       0.98701                       0.03485                       0.15681
                       0.98028                       0.06236                       0.18754
                       0.97347                       0.08656                       0.21179
                       0.96511                       0.11104                       0.23714
                       0.96031                       0.12293                       0.25040
        </DataArray>
        <DataArray type="Float32" Name="OrientationY" NumberOfComponents="3" format="ascii">
                       0.14670                       0.37363                      -0.91590
                       0.14673                       0.37294                      -0.91618
                       0.14703                       0.37092                      -0.91695
                       0.14761                       0.36817                      -0.91797
                       0.14878                       0.36402                      -0.91943
                       0.11962                       0.36036                      -0.92511
                       0.10108                       0.35619                      -0.92893
                       0.08818                       0.35224                      -0.93175
                       0.07789                       0.34895                      -0.93390
                       0.07161                       0.34636                      -0.93536
                       0.07174                       0.34437                      -0.93609
                       0.07751                       0.34298                      -0.93614
                       0.09032                       0.34215                      -0.93529
                       0.11171                       0.34202                      -0.93303
                       0.13558                       0.34285                      -0.92955
                       0.15525                       0.34427                      -0.92595
                       0.16999                       0.34591                      -0.92274
                       0.18569                       0.34830                      -0.91881
                       0.19418                       0.34989                      -0.91644
        </DataArray>
        <DataArray type="Float32" Name="OrientationZ" NumberOfComponents="3" format="ascii">
                      -0.00919                       0.92640                       0.37644
                      -0.00843                       0.92664                       0.37585
                      -0.00581                       0.92733                       0.37419
                      -0.00185                       0.92823                       0.37199
                       0.00450                       0.92952                       0.36875
                       0.01326                       0.93114                       0.36442
                       0.02183                       0.93269                       0.36001
                       0.02860                       0.93411                       0.35584
                       0.03192                       0.93539                       0.35217
                       0.03024                       0.93659                       0.34913
                       0.02220                       0.93772                       0.34667
                       0.00680                       0.93876                       0.34450
                      -0.01655                       0.93952                       0.34210
                      -0.04780                       0.93967                       0.33873
                      -0.08615                       0.93874                       0.33368
                      -0.12230                       0.93680                       0.32780
                      -0.15314                       0.93426                       0.32202
                      -0.18462                       0.93078                       0.31553
                      -0.20027                       0.92869                       0.31213
        </DataArray>
        <DataArray type="Float32" Name="Force" NumberOfComponents="3" format="ascii">
                      -1.01061                       4.45523                     -10.98877
                     451.15092                      86.88688                    -203.82238
                     575.82487                     217.20873                    -526.39006
                     523.30653                     299.89524                    -737.33233
                    4884.17699                    -518.26728                    1213.52888
                    5309.16008                    -435.66414                     877.27178
                    5492.52500                    -387.53516                     622.22983
                    6682.60695                    -429.20012                     526.59371
                    6565.87881                    -370.86543                     327.93875
                    6239.22022                    -293.46936                     188.61102
                    7102.43841                    -241.28188                     131.59896
                    5402.17600                     -74.13118                      46.86835
                    2109.05687                      42.31741                     -28.41802
                   -1850.04698                      18.90741                    -262.26698
                   -9076.73503                    -511.57942                    -716.12407
                  -15765.40202                   -1480.16089                   -1293.82578
                  -20202.84858                   -2500.51084                   -1833.85403
                  -18549.86497                   -2836.48043                   -1929.57563
                  -33917.15887                   -6421.20108                   -2019.12105
        </DataArray>
        <DataArray type="Float32" Name="Moment" NumberOfComponents="3" format="ascii">
                       0.00000                       0.00000                       0.00000
                       0.00000                       0.00000                       0.00000
                       0.00000                       0.00000                       0.00000
                       0.00000                       0.00000                       0.00000
                     -11.37899                   -2068.01681                    -837.39947
                     -55.08763                   -3600.86355                   -1454.84909
                    -117.33524                   -4714.95633                   -1900.81630
                    -233.17766                   -7171.70542                   -2886.21410
                    -364.99217                  -10026.94205                   -4031.70371
                    -388.94547                  -11151.94000                   -4485.61409
                    -323.18468                  -12193.49449                   -4913.94439
                    -127.47807                  -12481.78042                   -5048.82421
                     132.56053                   -9089.69879                   -3697.47143
                     404.94096                   -8457.47513                   -3466.19614
                     685.92717                   -7707.49688                   -3187.97050
                     895.75504                   -6991.16701                   -2916.84282
                     959.05222                   -5922.84980                   -2489.53114
                     552.42463                   -2804.62496                   -1187.89772
                      43.86059                    -204.35335                     -86.88571
        </DataArray>
      </PointData>
      <Lines>
        <DataArray type="Int32" Name="connectivity" format="ascii">
      0      1
      1      2
      2      3
      3      4
      4      5
      5      6
      6      7
      7      8
      8      9
      9     10
     10     11
     11     12
     12     13
     13     14
     14     15
     15     16
     16     17
     17     18
        </DataArray>
        <DataArray type="Int32" Name="offsets" format="ascii">
      2
      4
      6
      8
     10
     12
     14
     16
     18
     20
     22
     24
     26
     28
     30
     32
     34
     36
        </DataArray>
      </Lines>
    </Piece>
  </PolyData>
</VTKFile>
