<?xml version="1.0"?>
<VTKFile type="PolyData" version="0.1" byte_order="LittleEndian">
  <PolyData>
    <Piece NumberOfPoints="     19" NumberOfVerts="  0" NumberOfLines="     18"
           NumberOfStrips="  0" NumberOfPolys="      0">
      <Points>
        <DataArray type="Float32" NumberOfComponents="3" format="ascii">
                      -4.79704                      -1.50938                      90.03342
                      -4.85603                      -2.87510                      90.03836
                      -5.00370                      -5.60649                      89.95456
                      -5.16176                      -8.33830                      89.82501
                      -5.35831                     -11.75369                      89.63373
                      -5.51094                     -15.85483                      89.53674
                      -5.60830                     -19.95766                      89.56148
                      -5.69293                     -24.06142                      89.58424
                      -5.77110                     -28.16632                      89.60805
                      -5.85653                     -32.27221                      89.63340
                      -5.96724                     -36.37841                      89.66008
                      -6.12187                     -40.48349                      89.69382
                      -6.34352                     -44.58497                      89.74025
                      -6.65796                     -48.67897                      89.80635
                      -7.09095                     -52.76028                      89.89990
                      -7.56646                     -56.14622                      90.00666
                      -8.02889                     -58.84193                      90.12202
                      -8.55954                     -61.52407                      90.31336
                      -8.87433                     -62.85718                      90.38005
        </DataArray>
      </Points>
      <PointData>
        <DataArray type="Float32" Name="TranslationalVelocity" NumberOfComponents="3" format="ascii">
                      -0.42830                       0.00609                      -4.84889
                      -0.83746                       0.00755                      -9.26211
                      -1.65670                       0.32249                     -18.08474
                      -2.48149                       0.78843                     -26.90288
                      -3.52585                       1.46489                     -37.91762
                      -4.80273                       1.82292                     -51.12824
                      -6.10345                       1.77152                     -64.32697
                      -7.41985                       1.72300                     -77.51259
                      -8.73898                       1.66976                     -90.68862
                     -10.04428                       1.61433                    -103.85868
                     -11.31683                       1.56205                    -117.02577
                     -12.53674                       1.49828                    -130.19157
                     -13.68442                       1.40871                    -143.35503
                     -14.74191                       1.27383                    -156.51141
                     -15.69423                       1.06980                    -169.65198
                     -16.39759                       0.82208                    -180.57954
                     -16.90221                       0.53599                    -189.29904
                     -17.35777                       0.00909                    -197.99383
                     -17.56285                      -0.15605                    -202.32500
        </DataArray>
        <DataArray type="Float32" Name="RotationalVelocity" NumberOfComponents="3" format="ascii">
                       3.23200                      -0.00105                      -0.29849
                       3.23132                      -0.00103                      -0.29890
                       3.22957                      -0.00111                      -0.30058
                       3.22738                      -0.00130                      -0.30324
                       3.22422                      -0.00166                      -0.30744
                       3.22012                      -0.00229                      -0.31290
                       3.21605                      -0.00332                      -0.31756
                       3.21240                      -0.00499                      -0.32020
                       3.20949                      -0.00758                      -0.31961
                       3.20763                      -0.01139                      -0.31483
                       3.20700                      -0.01662                      -0.30517
                       3.20774                      -0.02340                      -0.29038
                       3.20986                      -0.03169                      -0.27066
                       3.21323                      -0.04125                      -0.24686
                       3.21762                      -0.05159                      -0.22052
                       3.22176                      -0.06026                      -0.19825
                       3.22518                      -0.06679                      -0.18152
                       3.22845                      -0.07251                      -0.16702
                       3.22995                      -0.07491                      -0.16102
        </DataArray>
        <DataArray type="Float32" Name="TranslationalAcceleration" NumberOfComponents="3" format="ascii">
                      -0.06816                      16.27294                      -0.07088
                      -0.00770                      19.23312                      -0.00644
                       0.08258                      54.95158                       0.99838
                       0.22666                      87.68660                       2.49559
                       0.42854                     125.77005                       4.66592
                       0.49354                     168.90754                       5.78784
                       0.35203                     210.78872                       5.56326
                       0.08683                     252.44966                       5.32014
                      -0.33624                     294.44984                       5.03660
                      -0.93670                     336.98088                       4.72632
                      -1.71707                     379.96822                       4.41294
                      -2.66465                     423.17510                       4.05459
                      -3.74142                     466.30653                       3.60786
                      -4.88143                     509.11309                       3.00791
                      -5.98673                     551.49655                       2.16908
                      -6.78244                     586.59156                       1.19346
                      -7.27436                     614.69224                       0.10293
                      -7.59825                     643.07675                      -1.79965
                      -7.64625                     657.47411                      -2.44904
        </DataArray>
        <DataArray type="Float32" Name="OrientationX" NumberOfComponents="3" format="ascii">
                       0.94692                      -0.04298                      -0.31858
                       0.94694                      -0.04249                      -0.31860
                       0.94690                      -0.04098                      -0.31890
                       0.94679                      -0.03878                      -0.31950
                       0.94654                      -0.03530                      -0.32065
                       0.95577                      -0.03077                      -0.29250
                       0.96134                      -0.02637                      -0.27410
                       0.96519                      -0.02321                      -0.26053
                       0.96831                      -0.02246                      -0.24874
                       0.97044                      -0.02527                      -0.24002
                       0.97101                      -0.03269                      -0.23678
                       0.97009                      -0.04562                      -0.23844
                       0.96693                      -0.06470                      -0.24670
                       0.96043                      -0.09015                      -0.26354
                       0.95113                      -0.12186                      -0.28372
                       0.94116                      -0.15247                      -0.30163
                       0.93153                      -0.17934                      -0.31638
                       0.91950                      -0.20766                      -0.33376
                       0.91237                      -0.22212                      -0.34386
        </DataArray>
        <DataArray type="Float32" Name="OrientationY" NumberOfComponents="3" format="ascii">
                       0.31854                      -0.00776                       0.94788
                       0.31856                      -0.00786                       0.94787
                       0.31885                      -0.00803                       0.94777
                       0.31943                      -0.00814                       0.94758
                       0.32057                      -0.00818                       0.94719
                       0.29242                      -0.00713                       0.95626
                       0.27402                      -0.00659                       0.96170
                       0.26045                      -0.00640                       0.96547
                       0.24866                      -0.00650                       0.96857
                       0.23992                      -0.00693                       0.97077
                       0.23666                      -0.00772                       0.97156
                       0.23829                      -0.00885                       0.97115
                       0.24654                      -0.01047                       0.96907
                       0.26346                      -0.01303                       0.96458
                       0.28386                      -0.01651                       0.95872
                       0.30217                      -0.02018                       0.95304
                       0.31741                      -0.02370                       0.94799
                       0.33539                      -0.02837                       0.94165
                       0.34580                      -0.03138                       0.93778
        </DataArray>
        <DataArray type="Float32" Name="OrientationZ" NumberOfComponents="3" format="ascii">
                      -0.04321                      -0.99905                       0.00634
                      -0.04278                      -0.99907                       0.00610
                      -0.04140                      -0.99913                       0.00546
                      -0.03935                      -0.99921                       0.00468
                      -0.03605                      -0.99934                       0.00357
                      -0.03151                      -0.99950                       0.00218
                      -0.02717                      -0.99963                       0.00089
                      -0.02408                      -0.99971                      -0.00013
                      -0.02338                      -0.99973                      -0.00071
                      -0.02619                      -0.99966                      -0.00066
                      -0.03358                      -0.99944                       0.00024
                      -0.04641                      -0.99892                       0.00229
                      -0.06528                      -0.99785                       0.00582
                      -0.09039                      -0.99584                       0.01124
                      -0.12152                      -0.99241                       0.01889
                      -0.15139                      -0.98810                       0.02708
                      -0.17751                      -0.98350                       0.03485
                      -0.20501                      -0.97779                       0.04356
                      -0.21909                      -0.97451                       0.04818
        </DataArray>
        <DataArray type="Float32" Name="Force" NumberOfComponents="3" format="ascii">
                       4.49203                       0.11437                      48.60701
                     514.27145                     -20.56430                     229.09445
                     720.37795                     -26.08071                     602.28682
                     703.98717                     -22.59643                     842.70409
                    4781.57193                    -183.37116                   -2083.49398
                    5419.06481                    -179.37422                   -1932.14121
                    6087.08379                    -172.17644                   -1866.48200
                    8112.70915                    -202.00465                   -2245.93274
                    8843.70632                    -212.17470                   -2175.36962
                    9616.20985                    -257.52104                   -2203.53044
                   11982.18803                    -410.72093                   -2559.21854
                   11738.93150                    -556.58116                   -2388.01956
                    8369.13188                    -559.23418                   -1622.47801
                    3047.69173                    -280.98544                    -382.74628
                    -461.50834                      62.09425                     389.31025
                   -7793.89093                    1234.87988                    1964.42936
                  -13906.63037                    2593.96309                    3263.92676
                  -15634.61993                    3390.52416                    3626.88546
                  -38682.26575                    8926.31164                    5855.46393
        </DataArray>
        <DataArray type="Float32" Name="Moment" NumberOfComponents="3" format="ascii">
                       0.00000                       0.00000                       0.00000
                       0.00000                       0.00000                       0.00000
                       0.00000                       0.00000                       0.00000
                       0.00000                       0.00000                       0.00000
                      82.59639                    2302.05235                     -13.04991
                     130.13592                    4166.68073                     -21.83078
                     147.92163                    5518.54350                     -26.65539
                     199.82885                    8451.75840                     -38.35429
                     270.15902                   11801.24493                     -52.73525
                     340.01730                   13232.02902                     -62.55786
                     480.70533                   14513.48444                     -78.57485
                     702.65697                   15252.42935                    -100.82530
                     747.56537                   11466.28639                     -96.06669
                     992.01946                   10919.75855                    -117.37198
                    1258.05898                   10230.23642                    -140.33563
                    1448.02447                    9387.15930                    -155.90756
                    1489.91714                    8185.15993                    -156.95076
                     841.40124                    3973.10718                     -87.10703
                     184.08675                     810.15213                     -18.91871
        </DataArray>
      </PointData>
      <Lines>
        <DataArray type="Int32" Name="connectivity" format="ascii">
      0      1
      1      2
      2      3
      3      4
      4      5
      5      6
      6      7
      7      8
      8      9
      9     10
     10     11
     11     12
     12     13
     13     14
     14     15
     15     16
     16     17
     17     18
        </DataArray>
        <DataArray type="Int32" Name="offsets" format="ascii">
      2
      4
      6
      8
     10
     12
     14
     16
     18
     20
     22
     24
     26
     28
     30
     32
     34
     36
        </DataArray>
      </Lines>
    </Piece>
  </PolyData>
</VTKFile>
