<?xml version="1.0"?>
<VTKFile type="PolyData" version="0.1" byte_order="LittleEndian">
  <PolyData>
    <Piece NumberOfPoints="     19" NumberOfVerts="  0" NumberOfLines="     18"
           NumberOfStrips="  0" NumberOfPolys="      0">
      <Points>
        <DataArray type="Float32" NumberOfComponents="3" format="ascii">
                      -4.82356                       1.47463                      89.84733
                      -4.89728                       2.83041                      89.68938
                      -5.05853                       5.55323                      89.46496
                      -5.22317                       8.28198                      89.27884
                      -5.42412                      11.69700                      89.06085
                      -5.60977                      15.77843                      88.63307
                      -5.76712                      19.84138                      88.05189
                      -5.91902                      23.90130                      87.44514
                      -6.07668                      27.95780                      86.81162
                      -6.25888                      32.01041                      86.15446
                      -6.48890                      36.05799                      85.47842
                      -6.79147                      40.09722                      84.78266
                      -7.19517                      44.12298                      84.06692
                      -7.73055                      48.12766                      83.32959
                      -8.42700                      52.10119                      82.56763
                      -9.15710                      55.37805                      81.90936
                      -9.84589                      57.97015                      81.35786
                     -10.62730                      60.52374                      80.73488
                     -11.07125                      61.79179                      80.45536
        </DataArray>
      </Points>
      <PointData>
        <DataArray type="Float32" Name="TranslationalVelocity" NumberOfComponents="3" format="ascii">
                       0.49319                       0.46504                       4.85828
                       0.89778                       0.99840                       9.24865
                       1.69745                       1.77328                      18.07332
                       2.48351                       2.42447                      26.92890
                       3.44387                       3.18756                      38.03233
                       4.54677                       4.62645                      51.33729
                       5.57483                       6.55989                      64.62540
                       6.49968                       8.57955                      77.95138
                       7.28273                      10.69162                      91.31499
                       7.88200                      12.88672                     104.71311
                       8.25535                      15.14593                     118.13701
                       8.36367                      17.46341                     131.56714
                       8.17418                      19.82462                     144.97390
                       7.66360                      22.21117                     158.31492
                       6.82127                      24.60022                     171.53508
                       5.86367                      26.57408                     182.40437
                       4.94889                      28.15590                     190.96836
                       3.91886                      29.88791                     199.36392
                       3.35614                      30.60187                     203.51223
        </DataArray>
        <DataArray type="Float32" Name="RotationalVelocity" NumberOfComponents="3" format="ascii">
                       3.23696                       0.00867                      -0.29876
                       3.23848                       0.00876                      -0.29737
                       3.24199                       0.00879                      -0.29353
                       3.24631                       0.00844                      -0.28815
                       3.25292                       0.00726                      -0.27908
                       3.26263                       0.00449                      -0.26379
                       3.27391                       0.00019                      -0.24226
                       3.28609                      -0.00552                      -0.21292
                       3.29839                      -0.01243                      -0.17418
                       3.30991                      -0.02027                      -0.12486
                       3.31977                      -0.02879                      -0.06443
                       3.32718                      -0.03779                       0.00672
                       3.33157                      -0.04722                       0.08701
                       3.33264                      -0.05722                       0.17339
                       3.33046                      -0.06820                       0.26105
                       3.32659                      -0.07856                       0.33049
                       3.32249                      -0.08812                       0.37991
                       3.31800                      -0.09925                       0.42040
                       3.31580                      -0.10556                       0.43618
        </DataArray>
        <DataArray type="Float32" Name="TranslationalAcceleration" NumberOfComponents="3" format="ascii">
                       1.09483                     -15.29467                       1.38747
                       0.51436                     -18.93675                       1.75243
                       1.18171                     -54.39776                       4.23099
                       1.49933                     -87.19525                       6.34159
                       1.51062                    -125.73457                       9.07369
                       1.16751                    -169.62868                      14.70188
                       0.36467                    -212.33625                      22.89524
                      -1.13979                    -254.99002                      32.51857
                      -3.50767                    -298.08526                      43.67834
                      -6.92728                    -341.78243                      56.36381
                     -11.57493                    -385.99834                      70.47451
                     -17.58516                    -430.47614                      85.90424
                     -25.01988                    -474.89973                     102.48383
                     -33.83467                    -518.98340                     120.00801
                     -43.84347                    -562.56957                     138.23655
                     -52.84574                    -598.53600                     153.80530
                     -60.27185                    -627.17373                     166.44543
                     -67.91612                    -655.74311                     179.64184
                     -71.42086                    -670.29352                     185.82149
        </DataArray>
        <DataArray type="Float32" Name="OrientationX" NumberOfComponents="3" format="ascii">
                       0.98863                       0.07021                       0.13295
                       0.98864                       0.07000                       0.13301
                       0.98863                       0.06922                       0.13352
                       0.98858                       0.06793                       0.13449
                       0.98846                       0.06582                       0.13643
                       0.99229                       0.05919                       0.10887
                       0.99423                       0.05441                       0.09246
                       0.99524                       0.05231                       0.08224
                       0.99570                       0.05404                       0.07518
                       0.99548                       0.06129                       0.07260
                       0.99417                       0.07575                       0.07671
                       0.99139                       0.09831                       0.08650
                       0.98619                       0.12969                       0.10300
                       0.97721                       0.16995                       0.12718
                       0.96417                       0.21717                       0.15238
                       0.95021                       0.26013                       0.17156
                       0.93726                       0.29582                       0.18449
                       0.92258                       0.33183                       0.19683
                       0.91463                       0.34963                       0.20302
        </DataArray>
        <DataArray type="Float32" Name="OrientationY" NumberOfComponents="3" format="ascii">
                       0.14007                      -0.10887                      -0.98414
                       0.14016                      -0.10962                      -0.98404
                       0.14068                      -0.11174                      -0.98373
                       0.14164                      -0.11455                      -0.98327
                       0.14352                      -0.11875                      -0.98250
                       0.11563                      -0.12629                      -0.98523
                       0.09899                      -0.13310                      -0.98615
                       0.08881                      -0.13917                      -0.98628
                       0.08230                      -0.14442                      -0.98609
                       0.08103                      -0.14862                      -0.98557
                       0.08752                      -0.15151                      -0.98457
                       0.10094                      -0.15296                      -0.98306
                       0.12248                      -0.15252                      -0.98068
                       0.15311                      -0.14937                      -0.97685
                       0.18600                      -0.14379                      -0.97197
                       0.21235                      -0.13762                      -0.96745
                       0.23135                      -0.13187                      -0.96389
                       0.24976                      -0.12481                      -0.96023
                       0.25884                      -0.12063                      -0.95836
        </DataArray>
        <DataArray type="Float32" Name="OrientationZ" NumberOfComponents="3" format="ascii">
                      -0.05463                       0.99157                      -0.11747
                      -0.05431                       0.99151                      -0.11819
                      -0.05317                       0.99132                      -0.12020
                      -0.05138                       0.99109                      -0.12287
                      -0.04846                       0.99074                      -0.12683
                      -0.04457                       0.99023                      -0.13216
                      -0.04135                       0.98961                      -0.13772
                      -0.04015                       0.98889                      -0.14315
                      -0.04243                       0.98804                      -0.14825
                      -0.04961                       0.98699                      -0.15292
                      -0.06296                       0.98555                      -0.15726
                      -0.08341                       0.98333                      -0.16157
                      -0.11148                       0.97975                      -0.16630
                      -0.14702                       0.97407                      -0.17199
                      -0.18917                       0.96549                      -0.17903
                      -0.22805                       0.95572                      -0.18601
                      -0.26081                       0.94610                      -0.19203
                      -0.29406                       0.93505                      -0.19802
                      -0.31058                       0.92909                      -0.20083
        </DataArray>
        <DataArray type="Float32" Name="Force" NumberOfComponents="3" format="ascii">
                      -0.93843                      -1.25567                     -10.16315
                     438.06489                      -1.55828                    -215.36822
                     554.75690                     -35.82501                    -551.63649
                     503.30179                     -66.24690                    -775.06010
                    4951.34777                     387.41679                    1255.35136
                    5703.68888                     364.79469                     969.27277
                    6336.73468                     346.61174                     782.01318
                    8248.38453                     409.02410                     782.87580
                    8824.28664                     425.89113                     608.74957
                    9202.15018                     491.81429                     517.96121
                   10949.52974                     712.25306                     498.10751
                    9448.40104                     794.34942                     347.35826
                    3780.64221                     404.66847                     -20.85732
                    -409.24070                     -91.28956                    -295.84247
                  -10329.13148                   -2019.12228                    -896.50851
                  -19659.32905                   -4605.07682                   -1453.46631
                  -25979.50129                   -6983.89389                   -1916.59706
                  -23411.62420                   -7142.95205                   -1786.54442
                  -34494.92665                  -11136.10932                   -2425.76179
        </DataArray>
        <DataArray type="Float32" Name="Moment" NumberOfComponents="3" format="ascii">
                       0.00000                       0.00000                       0.00000
                       0.00000                       0.00000                       0.00000
                       0.00000                       0.00000                       0.00000
                       0.00000                       0.00000                       0.00000
                     111.88213                   -2328.71535                     277.38537
                     175.12004                   -4012.23728                     479.54780
                     211.71922                   -5305.43387                     635.94469
                     308.86692                   -8086.25272                     970.54864
                     451.24588                  -11282.55736                    1352.30997
                     594.67121                  -12724.55692                    1517.22771
                     838.42221                  -14048.88617                    1658.34337
                    1177.10617                  -14750.50968                    1713.75702
                    1171.05374                  -10876.95585                    1235.73262
                    1491.29893                  -10405.28319                    1147.88638
                    1794.72751                   -9636.24964                    1024.85356
                    2005.32847                   -8847.42742                     907.94722
                    1955.87231                   -7479.72990                     743.53280
                    1054.51874                   -3541.35416                     340.16872
                    -874.87159                    2766.84725                    -261.06528
        </DataArray>
      </PointData>
      <Lines>
        <DataArray type="Int32" Name="connectivity" format="ascii">
      0      1
      1      2
      2      3
      3      4
      4      5
      5      6
      6      7
      7      8
      8      9
      9     10
     10     11
     11     12
     12     13
     13     14
     14     15
     15     16
     16     17
     17     18
        </DataArray>
        <DataArray type="Int32" Name="offsets" format="ascii">
      2
      4
      6
      8
     10
     12
     14
     16
     18
     20
     22
     24
     26
     28
     30
     32
     34
     36
        </DataArray>
      </Lines>
    </Piece>
  </PolyData>
</VTKFile>
