<?xml version="1.0"?>
<VTKFile type="PolyData" version="0.1" byte_order="LittleEndian">
  <PolyData>
    <Piece NumberOfPoints="     19" NumberOfVerts="  0" NumberOfLines="     18"
           NumberOfStrips="  0" NumberOfPolys="      0">
      <Points>
        <DataArray type="Float32" NumberOfComponents="3" format="ascii">
                      -4.87483                      -0.89699                      88.82229
                      -5.03617                      -1.69472                      87.72394
                      -5.38481                      -3.21291                      85.47381
                      -5.74231                      -4.69462                      83.19749
                      -6.18778                      -6.52517                      80.33528
                      -6.64593                      -8.83915                      76.97497
                      -7.05509                     -11.25916                      73.68493
                      -7.45239                     -13.68162                      70.39449
                      -7.84332                     -16.10837                      67.10530
                      -8.24027                     -18.53835                      63.81793
                      -8.65966                     -20.96924                      60.53298
                      -9.11849                     -23.40306                      57.25501
                      -9.63798                     -25.84076                      53.98942
                     -10.24195                     -28.28348                      50.74345
                     -10.95416                     -30.73227                      47.52572
                     -11.65284                     -32.77882                      44.87475
                     -12.28741                     -34.42651                      42.78277
                     -12.98585                     -36.12243                      40.74668
                     -13.38020                     -36.93886                      39.71843
        </DataArray>
      </Points>
      <PointData>
        <DataArray type="Float32" Name="TranslationalVelocity" NumberOfComponents="3" format="ascii">
                      -0.26911                       3.97639                      -2.85765
                      -0.50690                       7.58513                      -5.44377
                      -0.96178                      14.98064                     -10.36342
                      -1.40931                      22.45932                     -15.16178
                      -1.96847                      31.85448                     -21.08473
                      -2.68603                      42.85423                     -28.56367
                      -3.45141                      53.60013                     -36.37506
                      -4.23876                      64.33180                     -44.18306
                      -5.05413                      75.04592                     -51.99323
                      -5.90301                      85.74501                     -59.80151
                      -6.79045                      96.43290                     -67.59931
                      -7.72232                     107.10103                     -75.39134
                      -8.70343                     117.73954                     -83.17791
                      -9.73753                     128.33352                     -90.95860
                     -10.82705                     138.86349                     -98.73154
                     -11.77898                     147.56840                    -105.20130
                     -12.56883                     154.46066                    -110.39084
                     -13.39179                     161.19126                    -115.71580
                     -13.80448                     164.60227                    -118.26661
        </DataArray>
        <DataArray type="Float32" Name="RotationalVelocity" NumberOfComponents="3" format="ascii">
                       3.24201                      -0.00176                      -0.30052
                       3.24143                      -0.00148                      -0.30063
                       3.23987                      -0.00058                      -0.30097
                       3.23788                       0.00073                      -0.30147
                       3.23503                       0.00290                      -0.30227
                       3.23134                       0.00638                      -0.30342
                       3.22761                       0.01099                      -0.30468
                       3.22400                       0.01698                      -0.30592
                       3.22061                       0.02466                      -0.30705
                       3.21745                       0.03428                      -0.30798
                       3.21450                       0.04599                      -0.30867
                       3.21171                       0.05979                      -0.30912
                       3.20905                       0.07545                      -0.30939
                       3.20648                       0.09245                      -0.30962
                       3.20400                       0.10994                      -0.31002
                       3.20204                       0.12404                      -0.31069
                       3.20060                       0.13431                      -0.31163
                       3.19932                       0.14301                      -0.31309
                       3.19877                       0.14656                      -0.31407
        </DataArray>
        <DataArray type="Float32" Name="TranslationalAcceleration" NumberOfComponents="3" format="ascii">
                       1.17979                       9.08916                      12.91161
                       1.41668                      11.22038                      15.50993
                       4.08871                      31.32336                      44.92870
                       6.56680                      49.39128                      72.25216
                       9.49063                      70.19446                     104.30637
                      12.77830                      94.99308                     139.81429
                      15.94847                     120.24518                     173.47420
                      19.11667                     145.44452                     206.89589
                      22.27022                     170.91370                     240.50716
                      25.35187                     196.73222                     274.46852
                      28.26845                     222.81034                     308.74361
                      30.89842                     249.00577                     343.14130
                      33.10543                     275.12543                     377.44042
                      34.74814                     300.99650                     411.46502
                      35.69044                     326.52479                     445.17135
                      35.83794                     347.55850                     473.12971
                      35.51800                     364.37557                     495.52088
                      34.79623                     381.71638                     517.86102
                      34.26333                     390.10960                     529.48666
        </DataArray>
        <DataArray type="Float32" Name="OrientationX" NumberOfComponents="3" format="ascii">
                       0.95243                       0.16165                      -0.25834
                       0.95248                       0.16192                      -0.25800
                       0.95255                       0.16295                      -0.25708
                       0.95261                       0.16457                      -0.25584
                       0.95262                       0.16733                      -0.25400
                       0.96104                       0.14629                      -0.23451
                       0.96618                       0.13339                      -0.22071
                       0.96969                       0.12390                      -0.21057
                       0.97240                       0.11466                      -0.20319
                       0.97401                       0.10607                      -0.20015
                       0.97398                       0.09951                      -0.20362
                       0.97232                       0.09397                      -0.21394
                       0.96837                       0.09047                      -0.23256
                       0.96114                       0.09050                      -0.26080
                       0.95110                       0.08979                      -0.29556
                       0.94052                       0.08774                      -0.32822
                       0.93046                       0.08507                      -0.35639
                       0.91819                       0.08370                      -0.38719
                       0.91105                       0.08398                      -0.40365
        </DataArray>
        <DataArray type="Float32" Name="OrientationY" NumberOfComponents="3" format="ascii">
                       0.28092                      -0.79429                       0.53870
                       0.28095                      -0.79427                       0.53871
                       0.28125                      -0.79412                       0.53876
                       0.28186                      -0.79384                       0.53886
                       0.28306                      -0.79332                       0.53900
                       0.25484                      -0.79751                       0.54684
                       0.23646                      -0.79977                       0.55177
                       0.22295                      -0.80127                       0.55521
                       0.21121                      -0.80257                       0.55792
                       0.20252                      -0.80359                       0.55967
                       0.19925                      -0.80415                       0.56004
                       0.20078                      -0.80435                       0.55920
                       0.20881                      -0.80403                       0.55672
                       0.22533                      -0.80298                       0.55177
                       0.24511                      -0.80166                       0.54522
                       0.26268                      -0.80049                       0.53872
                       0.27718                      -0.79955                       0.53281
                       0.29427                      -0.79845                       0.52524
                       0.30417                      -0.79784                       0.52052
        </DataArray>
        <DataArray type="Float32" Name="OrientationZ" NumberOfComponents="3" format="ascii">
                      -0.11811                      -0.58564                      -0.80192
                      -0.11769                      -0.58560                      -0.80201
                      -0.11636                      -0.58551                      -0.80227
                      -0.11442                      -0.58543                      -0.80261
                      -0.11131                      -0.58536                      -0.80310
                      -0.10703                      -0.58530                      -0.80372
                      -0.10292                      -0.58529                      -0.80426
                      -0.09993                      -0.58533                      -0.80461
                      -0.09910                      -0.58544                      -0.80464
                      -0.10147                      -0.58566                      -0.80418
                      -0.10801                      -0.58604                      -0.80305
                      -0.11954                      -0.58668                      -0.80095
                      -0.13662                      -0.58767                      -0.79749
                      -0.15949                      -0.58909                      -0.79217
                      -0.18798                      -0.59100                      -0.78446
                      -0.21547                      -0.59289                      -0.77592
                      -0.23962                      -0.59455                      -0.76753
                      -0.26519                      -0.59621                      -0.75776
                      -0.27834                      -0.59700                      -0.75241
        </DataArray>
        <DataArray type="Float32" Name="Force" NumberOfComponents="3" format="ascii">
                       2.23852                     -33.49734                      24.13359
                     420.87282                    -223.27198                     101.28778
                     647.63746                    -559.39428                     314.50586
                     647.22975                    -753.40555                     457.70316
                    4727.15297                    1168.70048                   -1508.10081
                    5279.52420                     996.47548                   -1429.93497
                    5780.99694                     872.46105                   -1375.88817
                    7578.41556                     973.32771                   -1650.59177
                    8150.44087                     850.71832                   -1623.71931
                    8730.41528                     763.05907                   -1657.66832
                   10931.56670                     771.54193                   -2032.73687
                   10628.94256                     586.00167                   -2013.38344
                    7544.41964                     276.76264                   -1493.25900
                    2677.68457                    -116.85689                    -451.86700
                    -546.71015                    -270.68525                     329.66619
                   -7091.30162                    -339.98341                    2204.46346
                  -12478.99630                    -208.58736                    4006.71493
                  -14044.09555                      77.51738                    4783.24120
                  -38351.84166                    3338.20914                   11457.03709
        </DataArray>
        <DataArray type="Float32" Name="Moment" NumberOfComponents="3" format="ascii">
                       0.00000                       0.00000                       0.00000
                       0.00000                       0.00000                       0.00000
                       0.00000                       0.00000                       0.00000
                       0.00000                       0.00000                       0.00000
                     259.15256                    1364.25482                    1869.54282
                     440.00438                    2409.64098                    3303.75994
                     551.95882                    3144.14226                    4312.86062
                     816.82390                    4792.70509                    6576.49204
                    1135.87951                    6720.60243                    9222.81226
                    1304.05926                    7533.91258                   10336.08415
                    1526.01867                    8278.25273                   11348.63758
                    1779.79126                    8715.91329                   11932.57003
                    1526.78701                    6531.74185                    8924.41571
                    1709.99791                    6250.28906                    8516.76648
                    1902.96937                    5878.11575                    7982.29218
                    2014.49876                    5403.82188                    7313.62910
                    1968.54151                    4726.01382                    6377.09681
                    1076.08607                    2321.11412                    3121.88500
                     369.20392                     756.32017                    1015.52394
        </DataArray>
      </PointData>
      <Lines>
        <DataArray type="Int32" Name="connectivity" format="ascii">
      0      1
      1      2
      2      3
      3      4
      4      5
      5      6
      6      7
      7      8
      8      9
      9     10
     10     11
     11     12
     12     13
     13     14
     14     15
     15     16
     16     17
     17     18
        </DataArray>
        <DataArray type="Int32" Name="offsets" format="ascii">
      2
      4
      6
      8
     10
     12
     14
     16
     18
     20
     22
     24
     26
     28
     30
     32
     34
     36
        </DataArray>
      </Lines>
    </Piece>
  </PolyData>
</VTKFile>
