<?xml version="1.0"?>
<VTKFile type="PolyData" version="0.1" byte_order="LittleEndian">
  <PolyData>
    <Piece NumberOfPoints="     19" NumberOfVerts="  0" NumberOfLines="     18"
           NumberOfStrips="  0" NumberOfPolys="      0">
      <Points>
        <DataArray type="Float32" NumberOfComponents="3" format="ascii">
                      -4.91275                      -0.19839                      88.54619
                      -5.09755                      -0.34066                      87.19911
                      -5.49011                      -0.52701                      84.49731
                      -5.89303                      -0.66255                      81.79163
                      -6.40202                      -0.79473                      78.40716
                      -6.95735                      -1.07872                      74.35199
                      -7.48690                      -1.47187                      70.30376
                      -8.02073                      -1.84625                      66.25361
                      -8.56047                      -2.20389                      62.20180
                      -9.11230                      -2.54387                      58.14907
                      -9.68434                      -2.86435                      54.09658
                     -10.28392                      -3.16933                      50.04605
                     -10.92109                      -3.46205                      45.99989
                     -11.60741                      -3.74638                      41.96115
                     -12.35345                      -4.02643                      37.93315
                     -13.03209                      -4.26006                      34.58805
                     -13.61554                      -4.45705                      31.92165
                     -14.23163                      -4.71181                      29.26674
                     -14.56550                      -4.80022                      27.94293
        </DataArray>
      </Points>
      <PointData>
        <DataArray type="Float32" Name="TranslationalVelocity" NumberOfComponents="3" format="ascii">
                      -0.02322                       4.99882                      -0.65428
                      -0.02637                       9.40140                      -1.11864
                       0.00967                      18.22592                      -1.73258
                       0.08625                      27.04774                      -2.18715
                       0.24163                      38.05154                      -2.64480
                       0.47612                      51.16275                      -3.60547
                       0.78578                      64.16708                      -4.92184
                       1.21116                      77.08211                      -6.18520
                       1.74782                      89.88998                      -7.40061
                       2.38736                     102.57338                      -8.56427
                       3.11744                     115.11652                      -9.67022
                       3.92338                     127.50586                     -10.73099
                       4.79064                     139.73168                     -11.75785
                       5.70648                     151.78918                     -12.76526
                       6.66172                     163.68192                     -13.76948
                       7.48526                     173.47119                     -14.61926
                       8.16516                     181.23417                     -15.34013
                       8.88494                     188.94395                     -16.24587
                       9.23754                     192.78084                     -16.58929
        </DataArray>
        <DataArray type="Float32" Name="RotationalVelocity" NumberOfComponents="3" format="ascii">
                       3.22748                      -0.02630                      -0.29786
                       3.22574                      -0.02840                      -0.29694
                       3.22100                      -0.03572                      -0.29394
                       3.21465                      -0.04656                      -0.28859
                       3.20473                      -0.06360                      -0.27750
                       3.19015                      -0.08724                      -0.25595
                       3.17312                      -0.11214                      -0.22399
                       3.15413                      -0.13642                      -0.18102
                       3.13369                      -0.15862                      -0.12704
                       3.11240                      -0.17774                      -0.06299
                       3.09094                      -0.19320                       0.00931
                       3.07011                      -0.20488                       0.08706
                       3.05085                      -0.21308                       0.16646
                       3.03426                      -0.21858                       0.24265
                       3.02162                      -0.22259                       0.30965
                       3.01503                      -0.22595                       0.35387
                       3.01318                      -0.22951                       0.37779
                       3.01498                      -0.23464                       0.38863
                       3.01741                      -0.23805                       0.38827
        </DataArray>
        <DataArray type="Float32" Name="TranslationalAcceleration" NumberOfComponents="3" format="ascii">
                       1.04962                       3.50473                      16.37537
                       1.79516                       2.87046                      19.04822
                       5.10420                       7.01076                      54.40505
                       8.26989                       9.76371                      86.70026
                      12.45399                      11.57162                     124.01265
                      18.46950                      13.18736                     165.68240
                      26.19049                      13.96988                     205.55433
                      35.81108                      12.70703                     244.62469
                      47.13923                       9.62003                     283.32850
                      59.47888                       4.92900                     321.78095
                      71.54557                      -1.13963                     359.93399
                      81.41381                      -8.30346                     397.76052
                      86.43248                     -16.31360                     435.40074
                      83.16092                     -24.95869                     473.33373
                      67.30199                     -34.09737                     512.53899
                      40.36648                     -42.10383                     547.42181
                       7.72386                     -48.68380                     577.66586
                     -37.27653                     -55.08883                     611.08867
                     -64.86363                     -58.75396                     629.17923
        </DataArray>
        <DataArray type="Float32" Name="OrientationX" NumberOfComponents="3" format="ascii">
                       0.96193                       0.22436                      -0.15604
                       0.96197                       0.22440                      -0.15578
                       0.96200                       0.22468                      -0.15514
                       0.96201                       0.22519                      -0.15434
                       0.96198                       0.22611                      -0.15319
                       0.96894                       0.19674                      -0.14980
                       0.97313                       0.17684                      -0.14746
                       0.97604                       0.16117                      -0.14618
                       0.97837                       0.14640                      -0.14617
                       0.97993                       0.13368                      -0.14790
                       0.98041                       0.12536                      -0.15192
                       0.97992                       0.12091                      -0.15852
                       0.97817                       0.12226                      -0.16806
                       0.97464                       0.13187                      -0.18078
                       0.96972                       0.14505                      -0.19647
                       0.96451                       0.15787                      -0.21164
                       0.95948                       0.16951                      -0.22509
                       0.95306                       0.18511                      -0.23962
                       0.94914                       0.19498                      -0.24722
        </DataArray>
        <DataArray type="Float32" Name="OrientationY" NumberOfComponents="3" format="ascii">
                       0.23772                      -0.96861                       0.07271
                       0.23764                      -0.96867                       0.07211
                       0.23762                      -0.96880                       0.07040
                       0.23774                      -0.96894                       0.06810
                       0.23808                      -0.96909                       0.06466
                       0.20817                      -0.97595                       0.06475
                       0.18766                      -0.98021                       0.06294
                       0.17141                      -0.98335                       0.06034
                       0.15615                      -0.98605                       0.05760
                       0.14306                      -0.98820                       0.05470
                       0.13450                      -0.98958                       0.05139
                       0.12993                      -0.99037                       0.04783
                       0.13130                      -0.99038                       0.04373
                       0.14100                      -0.98926                       0.03860
                       0.15442                      -0.98745                       0.03315
                       0.16755                      -0.98545                       0.02847
                       0.17952                      -0.98345                       0.02462
                       0.19546                      -0.98051                       0.01996
                       0.20547                      -0.97851                       0.01713
        </DataArray>
        <DataArray type="Float32" Name="OrientationZ" NumberOfComponents="3" format="ascii">
                      -0.13483                      -0.10703                      -0.98507
                      -0.13472                      -0.10639                      -0.98516
                      -0.13448                      -0.10459                      -0.98538
                      -0.13421                      -0.10221                      -0.98567
                      -0.13383                      -0.09868                      -0.98608
                      -0.13346                      -0.09392                      -0.98659
                      -0.13341                      -0.08892                      -0.98706
                      -0.13402                      -0.08395                      -0.98742
                      -0.13570                      -0.07918                      -0.98758
                      -0.13885                      -0.07477                      -0.98749
                      -0.14389                      -0.07082                      -0.98706
                      -0.15121                      -0.06747                      -0.98620
                      -0.16110                      -0.06484                      -0.98481
                      -0.17375                      -0.06311                      -0.98277
                      -0.18920                      -0.06248                      -0.97995
                      -0.20406                      -0.06292                      -0.97693
                      -0.21720                      -0.06403                      -0.97403
                      -0.23125                      -0.06586                      -0.97066
                      -0.23857                      -0.06706                      -0.96881
        </DataArray>
        <DataArray type="Float32" Name="Force" NumberOfComponents="3" format="ascii">
                       0.30524                     -30.62453                       3.28567
                     365.44364                    -214.02485                     -26.72682
                     521.18911                    -569.04109                      -9.32140
                     506.88386                    -806.74657                      18.60922
                    4047.05856                    1303.28741                    -691.15888
                    4553.59634                    1116.63645                    -737.75896
                    5005.45044                     977.75020                    -783.46209
                    6629.27792                    1094.62331                   -1019.92450
                    6944.52564                     907.39107                   -1054.31424
                    7296.72286                     785.04615                   -1113.19912
                    8963.02321                     748.37950                   -1390.76912
                    8570.87659                     556.33504                   -1377.77692
                    6608.93034                     336.35758                   -1120.54796
                    2879.22995                     -80.52326                    -501.66844
                    -215.04361                    -323.95042                      77.02141
                   -4447.22833                    -641.82048                    1001.91666
                   -9182.44711                    -900.47212                    2152.33866
                  -13531.80225                    -822.85705                    3323.73229
                  -27094.66435                    -351.08706                    6730.27068
        </DataArray>
        <DataArray type="Float32" Name="Moment" NumberOfComponents="3" format="ascii">
                       0.00000                       0.00000                       0.00000
                       0.00000                       0.00000                       0.00000
                       0.00000                       0.00000                       0.00000
                       0.00000                       0.00000                       0.00000
                     264.94638                     211.97120                    1951.08963
                     494.65043                     396.95240                    3653.88974
                     651.09440                     522.78537                    4812.19744
                     974.09181                     778.65553                    7167.05969
                    1408.42385                    1112.03721                   10234.03435
                    1605.50651                    1238.80639                   11397.29280
                    1797.19334                    1337.79950                   12302.16225
                    1982.96709                    1404.07118                   12902.59692
                    1546.77277                    1027.27450                    9431.14038
                    1611.46763                     991.27574                    9089.59935
                    1623.69167                     915.83832                    8385.34003
                    1616.59431                     843.98267                    7716.25997
                    1529.03023                     748.72023                    6836.48960
                     832.51116                     382.08937                    3483.96932
                     748.69546                     332.70332                    3031.44717
        </DataArray>
      </PointData>
      <Lines>
        <DataArray type="Int32" Name="connectivity" format="ascii">
      0      1
      1      2
      2      3
      3      4
      4      5
      5      6
      6      7
      7      8
      8      9
      9     10
     10     11
     11     12
     12     13
     13     14
     14     15
     15     16
     16     17
     17     18
        </DataArray>
        <DataArray type="Int32" Name="offsets" format="ascii">
      2
      4
      6
      8
     10
     12
     14
     16
     18
     20
     22
     24
     26
     28
     30
     32
     34
     36
        </DataArray>
      </Lines>
    </Piece>
  </PolyData>
</VTKFile>
