<?xml version="1.0"?>
<VTKFile type="PolyData" version="0.1" byte_order="LittleEndian">
  <PolyData>
    <Piece NumberOfPoints="     22" NumberOfVerts="  0" NumberOfLines="     21"
           NumberOfStrips="  0" NumberOfPolys="      0">
      <Points>
        <DataArray type="Float32" NumberOfComponents="3" format="ascii">
                       0.00010                      -0.00006                       2.19000
                       0.00101                      -0.00050                       6.57000
                       0.00307                      -0.00129                      10.95000
                       0.00638                      -0.00239                      15.33000
                       0.01101                      -0.00373                      19.71000
                       0.01695                      -0.00526                      24.08999
                       0.02420                      -0.00696                      28.46998
                       0.03275                      -0.00876                      32.84998
                       0.04263                      -0.01064                      37.22996
                       0.05389                      -0.01253                      41.60995
                       0.06662                      -0.01439                      45.98993
                       0.08093                      -0.01615                      50.36991
                       0.09691                      -0.01776                      54.74988
                       0.11468                      -0.01917                      59.12984
                       0.13427                      -0.02032                      63.50980
                       0.15566                      -0.02116                      67.88974
                       0.17869                      -0.02168                      72.26968
                       0.20303                      -0.02187                      76.64962
                       0.22809                      -0.02174                      81.02954
                       0.25301                      -0.02138                      85.40947
                       0.26504                      -0.02114                      87.59944
                       0.00000                       0.00000                       0.00000
        </DataArray>
      </Points>
      <PointData>
        <DataArray type="Float32" Name="TranslationalVelocity" NumberOfComponents="3" format="ascii">
                      -0.00032                      -0.00004                       0.00000
                      -0.00297                      -0.00038                       0.00000
                      -0.00826                      -0.00101                       0.00000
                      -0.01598                      -0.00191                       0.00001
                      -0.02572                      -0.00308                       0.00002
                      -0.03689                      -0.00452                       0.00003
                      -0.04880                      -0.00626                       0.00005
                      -0.06067                      -0.00831                       0.00007
                      -0.07168                      -0.01071                       0.00010
                      -0.08097                      -0.01349                       0.00012
                      -0.08774                      -0.01667                       0.00014
                      -0.09121                      -0.02029                       0.00015
                      -0.09073                      -0.02436                       0.00014
                      -0.08575                      -0.02890                       0.00012
                      -0.07588                      -0.03390                       0.00008
                      -0.06096                      -0.03936                       0.00000
                      -0.04101                      -0.04526                      -0.00010
                      -0.01634                      -0.05154                      -0.00024
                       0.01246                      -0.05817                      -0.00041
                       0.04446                      -0.06505                      -0.00059
                       0.06128                      -0.06856                      -0.00068
                       0.00000                      -0.00000                       0.00000
        </DataArray>
        <DataArray type="Float32" Name="RotationalVelocity" NumberOfComponents="3" format="ascii">
                       0.00004                      -0.00030                       0.00000
                       0.00011                      -0.00091                       0.00000
                       0.00018                      -0.00150                       0.00000
                       0.00024                      -0.00201                       0.00000
                       0.00030                      -0.00241                       0.00000
                       0.00036                      -0.00266                       0.00000
                       0.00043                      -0.00275                       0.00000
                       0.00051                      -0.00264                       0.00000
                       0.00059                      -0.00235                       0.00000
                       0.00068                      -0.00186                       0.00000
                       0.00078                      -0.00120                       0.00000
                       0.00088                      -0.00036                       0.00000
                       0.00098                       0.00061                       0.00000
                       0.00109                       0.00168                       0.00000
                       0.00120                       0.00283                       0.00000
                       0.00130                       0.00399                       0.00000
                       0.00139                       0.00511                       0.00000
                       0.00148                       0.00613                       0.00000
                       0.00154                       0.00698                       0.00000
                       0.00159                       0.00758                       0.00000
                       0.00161                       0.00777                       0.00000
                       0.00000                      -0.00000                       0.00000
        </DataArray>
        <DataArray type="Float32" Name="TranslationalAcceleration" NumberOfComponents="3" format="ascii">
                       0.00712                       0.00541                      -0.00000
                       0.06583                       0.04536                      -0.00001
                       0.18463                       0.11763                      -0.00007
                       0.35976                       0.21565                      -0.00019
                       0.58310                       0.33373                      -0.00042
                       0.84304                       0.46659                      -0.00075
                       1.12545                       0.60894                      -0.00120
                       1.41453                       0.75528                      -0.00173
                       1.69366                       0.89965                      -0.00232
                       1.94610                       1.03565                      -0.00293
                       2.15577                       1.15643                      -0.00349
                       2.30788                       1.25491                      -0.00395
                       2.38956                       1.32399                      -0.00422
                       2.39042                       1.35693                      -0.00421
                       2.30307                       1.34784                      -0.00384
                       2.12357                       1.29230                      -0.00302
                       1.85185                       1.18796                      -0.00170
                       1.49211                       1.03544                       0.00014
                       1.05307                       0.83917                       0.00245
                       0.54826                       0.60843                       0.00507
                       0.27686                       0.48462                       0.00644
                       0.00000                      -0.00000                       0.00000
        </DataArray>
        <DataArray type="Float32" Name="RotationalAcceleration" NumberOfComponents="3" format="ascii">
                      -0.00485                       0.00656                       0.00000
                      -0.01308                       0.02031                       0.00000
                      -0.01967                       0.03379                       0.00000
                      -0.02488                       0.04587                       0.00000
                      -0.02884                       0.05566                       0.00000
                      -0.03162                       0.06249                       0.00000
                      -0.03317                       0.06586                       0.00000
                      -0.03342                       0.06550                       0.00000
                      -0.03226                       0.06131                       0.00000
                      -0.02958                       0.05334                       0.00000
                      -0.02530                       0.04183                       0.00000
                      -0.01939                       0.02714                       0.00000
                      -0.01189                       0.00976                       0.00000
                      -0.00292                      -0.00965                       0.00000
                       0.00724                      -0.03038                       0.00000
                       0.01821                      -0.05158                       0.00000
                       0.02941                      -0.07233                       0.00000
                       0.04007                      -0.09161                       0.00000
                       0.04920                      -0.10836                       0.00000
                       0.05558                      -0.12144                       0.00000
                       0.05728                      -0.12625                       0.00000
                       0.00000                      -0.00000                       0.00000
        </DataArray>
        <DataArray type="Float32" Name="OrientationX" NumberOfComponents="3" format="ascii">
                       1.00000                       0.00000                      -0.00009
                       1.00000                       0.00000                      -0.00033
                       1.00000                       0.00000                      -0.00061
                       1.00000                       0.00000                      -0.00091
                       1.00000                       0.00000                      -0.00121
                       1.00000                       0.00000                      -0.00151
                       1.00000                       0.00000                      -0.00180
                       1.00000                       0.00000                      -0.00210
                       1.00000                       0.00000                      -0.00241
                       1.00000                       0.00000                      -0.00274
                       1.00000                       0.00000                      -0.00308
                       0.99999                       0.00000                      -0.00345
                       0.99999                       0.00000                      -0.00385
                       0.99999                       0.00000                      -0.00426
                       0.99999                       0.00000                      -0.00468
                       0.99999                       0.00000                      -0.00508
                       0.99999                       0.00000                      -0.00542
                       0.99998                       0.00000                      -0.00567
                       0.99998                      -0.00000                      -0.00575
                       0.99998                      -0.00000                      -0.00558
                       0.99999                      -0.00000                      -0.00539
                       1.00000                      -0.00000                       0.00000
        </DataArray>
        <DataArray type="Float32" Name="OrientationY" NumberOfComponents="3" format="ascii">
                       0.00000                       1.00000                       0.00005
                       0.00000                       1.00000                       0.00014
                       0.00000                       1.00000                       0.00022
                       0.00000                       1.00000                       0.00028
                       0.00000                       1.00000                       0.00033
                       0.00000                       1.00000                       0.00037
                       0.00000                       1.00000                       0.00040
                       0.00000                       1.00000                       0.00042
                       0.00000                       1.00000                       0.00043
                       0.00000                       1.00000                       0.00043
                       0.00000                       1.00000                       0.00042
                       0.00000                       1.00000                       0.00039
                       0.00000                       1.00000                       0.00035
                       0.00000                       1.00000                       0.00029
                       0.00000                       1.00000                       0.00023
                       0.00000                       1.00000                       0.00016
                       0.00000                       1.00000                       0.00008
                       0.00000                       1.00000                       0.00001
                      -0.00000                       1.00000                      -0.00006
                      -0.00000                       1.00000                      -0.00010
                      -0.00000                       1.00000                      -0.00011
                      -0.00000                       1.00000                      -0.00000
        </DataArray>
        <DataArray type="Float32" Name="OrientationZ" NumberOfComponents="3" format="ascii">
                       0.00009                      -0.00005                       1.00000
                       0.00033                      -0.00014                       1.00000
                       0.00061                      -0.00022                       1.00000
                       0.00091                      -0.00028                       1.00000
                       0.00121                      -0.00033                       1.00000
                       0.00151                      -0.00037                       1.00000
                       0.00180                      -0.00040                       1.00000
                       0.00210                      -0.00042                       1.00000
                       0.00241                      -0.00043                       1.00000
                       0.00274                      -0.00043                       1.00000
                       0.00308                      -0.00042                       1.00000
                       0.00345                      -0.00039                       0.99999
                       0.00385                      -0.00035                       0.99999
                       0.00426                      -0.00029                       0.99999
                       0.00468                      -0.00023                       0.99999
                       0.00508                      -0.00016                       0.99999
                       0.00542                      -0.00008                       0.99999
                       0.00567                      -0.00001                       0.99998
                       0.00575                       0.00006                       0.99998
                       0.00558                       0.00010                       0.99998
                       0.00539                       0.00011                       0.99999
                       0.00000                      -0.00000                       1.00000
        </DataArray>
      </PointData>
      <Lines>
        <DataArray type="Int32" Name="connectivity" format="ascii">
      0      1
      1      2
      2      3
      3      4
      4      5
      5      6
      6      7
      7      8
      8      9
      9     10
     10     11
     11     12
     12     13
     13     14
     14     15
     15     16
     16     17
     17     18
     18     19
     19     20
     21      0
        </DataArray>
        <DataArray type="Int32" Name="offsets" format="ascii">
      2
      4
      6
      8
     10
     12
     14
     16
     18
     20
     22
     24
     26
     28
     30
     32
     34
     36
     38
     40
     42
        </DataArray>
      </Lines>
    </Piece>
  </PolyData>
</VTKFile>
