<?xml version="1.0"?>
<VTKFile type="PolyData" version="0.1" byte_order="LittleEndian">
  <PolyData>
    <Piece NumberOfPoints="     19" NumberOfVerts="  0" NumberOfLines="     18"
           NumberOfStrips="  0" NumberOfPolys="      0">
      <Points>
        <DataArray type="Float32" NumberOfComponents="3" format="ascii">
                      -4.81964                      -1.47412                      89.63850
                      -4.91247                      -2.79049                      89.28168
                      -5.12834                      -5.39705                      88.47642
                      -5.35621                      -7.99062                      87.62487
                      -5.64337                     -11.22359                      86.52846
                      -5.91111                     -15.14086                      85.33375
                      -6.13079                     -19.09163                      84.24868
                      -6.34403                     -23.04084                      83.15400
                      -6.55592                     -26.98935                      82.05249
                      -6.77846                     -30.93680                      80.94467
                      -7.02765                     -34.88200                      79.83064
                      -7.31998                     -38.82478                      78.71639
                      -7.67638                     -42.76381                      77.60806
                      -8.12066                     -46.69680                      76.51330
                      -8.67693                     -50.62043                      75.44073
                      -9.24912                     -53.87944                      74.57237
                      -9.78510                     -56.47978                      73.90579
                     -10.38714                     -59.08639                      73.31196
                     -10.73508                     -60.37224                      72.98750
        </DataArray>
      </Points>
      <PointData>
        <DataArray type="Float32" Name="TranslationalVelocity" NumberOfComponents="3" format="ascii">
                      -0.32470                       1.20461                      -4.66199
                      -0.72080                       2.38115                      -8.90130
                      -1.50851                       5.03975                     -17.29402
                      -2.30569                       7.85252                     -25.64286
                      -3.33048                      11.47412                     -36.04753
                      -4.62508                      15.40859                     -48.65251
                      -5.98574                      18.97688                     -61.36621
                      -7.38439                      22.57793                     -74.08067
                      -8.79200                      26.20605                     -86.80561
                     -10.17038                      29.86451                     -99.54919
                     -11.47469                      33.55805                    -112.31977
                     -12.65716                      37.27036                    -125.13200
                     -13.66885                      40.98341                    -138.00037
                     -14.46247                      44.67163                    -150.94032
                     -14.99473                      48.30251                    -163.96756
                     -15.20664                      51.25114                    -174.90442
                     -15.22393                      53.51697                    -183.71668
                     -15.12263                      55.53714                    -192.63064
                     -14.99489                      56.63594                    -197.07442
        </DataArray>
        <DataArray type="Float32" Name="RotationalVelocity" NumberOfComponents="3" format="ascii">
                       3.22095                      -0.00109                      -0.29845
                       3.22067                      -0.00079                      -0.29956
                       3.22009                      -0.00023                      -0.30379
                       3.21953                       0.00033                      -0.31033
                       3.21895                       0.00086                      -0.32070
                       3.21865                       0.00034                      -0.33464
                       3.21910                      -0.00320                      -0.34781
                       3.22063                      -0.01194                      -0.35780
                       3.22353                      -0.02827                      -0.36232
                       3.22806                      -0.05441                      -0.35939
                       3.23436                      -0.09207                      -0.34748
                       3.24243                      -0.14220                      -0.32565
                       3.25210                      -0.20467                      -0.29369
                       3.26301                      -0.27793                      -0.25229
                       3.27452                      -0.35873                      -0.20315
                       3.28396                      -0.42818                      -0.15835
                       3.29091                      -0.48220                      -0.12151
                       3.29686                      -0.53182                      -0.08548
                       3.29930                      -0.55399                      -0.06832
        </DataArray>
        <DataArray type="Float32" Name="TranslationalAcceleration" NumberOfComponents="3" format="ascii">
                       0.04372                      15.91085                       3.94916
                       0.46792                      18.45098                       5.16557
                       1.73902                      52.35781                      15.88883
                       3.39964                      83.18147                      26.41902
                       6.01246                     118.84067                      39.23112
                       9.63104                     159.61719                      52.63463
                      13.55713                     199.66418                      64.55154
                      17.63765                     239.60656                      76.57953
                      21.56560                     280.00026                      88.95654
                      25.09764                     321.02254                     101.88508
                      28.10386                     362.58037                     115.51780
                      30.61159                     404.43847                     129.89622
                      32.86335                     446.29996                     145.02230
                      35.36051                     487.91611                     160.85058
                      38.90426                     529.18948                     177.29446
                      43.50182                     563.43279                     191.36991
                      48.81661                     590.93036                     202.70632
                      55.97990                     619.00803                     213.66710
                      60.54615                     633.09442                     219.54765
        </DataArray>
        <DataArray type="Float32" Name="OrientationX" NumberOfComponents="3" format="ascii">
                       0.94650                       0.01974                      -0.32209
                       0.94653                       0.02016                      -0.32199
                       0.94652                       0.02143                      -0.32193
                       0.94646                       0.02328                      -0.32199
                       0.94629                       0.02625                      -0.32225
                       0.95556                       0.02177                      -0.29400
                       0.96126                       0.01972                      -0.27495
                       0.96531                       0.01782                      -0.26050
                       0.96869                       0.01419                      -0.24786
                       0.97112                       0.00822                      -0.23847
                       0.97202                      -0.00034                      -0.23488
                       0.97147                      -0.01242                      -0.23685
                       0.96877                      -0.02806                      -0.24638
                       0.96288                      -0.04685                      -0.26582
                       0.95426                      -0.07012                      -0.29065
                       0.94475                      -0.09278                      -0.31438
                       0.93530                      -0.11279                      -0.33539
                       0.92320                      -0.13316                      -0.36051
                       0.91589                      -0.14312                      -0.37506
        </DataArray>
        <DataArray type="Float32" Name="OrientationY" NumberOfComponents="3" format="ascii">
                       0.31550                      -0.26624                       0.91081
                       0.31549                      -0.26660                       0.91071
                       0.31569                      -0.26751                       0.91037
                       0.31615                      -0.26860                       0.90989
                       0.31709                      -0.27009                       0.90912
                       0.28859                      -0.27277                       0.91777
                       0.26959                      -0.27529                       0.92279
                       0.25506                      -0.27777                       0.92617
                       0.24180                      -0.28030                       0.92896
                       0.23100                      -0.28283                       0.93094
                       0.22503                      -0.28532                       0.93164
                       0.22337                      -0.28779                       0.93128
                       0.22796                      -0.29028                       0.92939
                       0.24115                      -0.29306                       0.92518
                       0.25830                      -0.29622                       0.91953
                       0.27469                      -0.29921                       0.91379
                       0.28932                      -0.30191                       0.90837
                       0.30784                      -0.30537                       0.90110
                       0.31904                      -0.30755                       0.89645
        </DataArray>
        <DataArray type="Float32" Name="OrientationZ" NumberOfComponents="3" format="ascii">
                      -0.06777                      -0.96371                      -0.25822
                      -0.06749                      -0.96360                      -0.25870
                      -0.06661                      -0.96332                      -0.25997
                      -0.06530                      -0.96297                      -0.26158
                      -0.06317                      -0.96248                      -0.26391
                      -0.06021                      -0.96183                      -0.26693
                      -0.05749                      -0.96116                      -0.26994
                      -0.05586                      -0.96048                      -0.27268
                      -0.05629                      -0.95981                      -0.27496
                      -0.05980                      -0.95913                      -0.27656
                      -0.06733                      -0.95843                      -0.27726
                      -0.07973                      -0.95761                      -0.27680
                      -0.09760                      -0.95653                      -0.27482
                      -0.12124                      -0.95494                      -0.27089
                      -0.15057                      -0.95254                      -0.26456
                      -0.17885                      -0.94967                      -0.25719
                      -0.20371                      -0.94664                      -0.24975
                      -0.23008                      -0.94288                      -0.24092
                      -0.24365                      -0.94071                      -0.23602
        </DataArray>
        <DataArray type="Float32" Name="Force" NumberOfComponents="3" format="ascii">
                       4.22000                     -12.47881                      45.46400
                     502.77000                     -91.35372                     209.59342
                     711.21196                    -202.32539                     571.77596
                     705.54276                    -263.97297                     806.74151
                    4701.14513                     245.68675                   -2054.06115
                    5316.16382                     180.31286                   -1891.17515
                    6015.97248                     142.69196                   -1840.55166
                    8146.28474                     145.11269                   -2253.08483
                    9078.28585                      87.76484                   -2244.10721
                   10155.50181                      18.20873                   -2346.73734
                   12883.51804                    -127.81661                   -2792.65803
                   13105.56714                    -328.79818                   -2739.73178
                   10192.80143                    -458.86128                   -2097.21860
                    5305.43811                    -408.52704                    -959.73859
                    2381.24635                    -289.69743                    -313.75989
                   -4770.24578                     530.04182                    1400.53010
                  -11210.65896                    1643.87388                    2968.41447
                  -13882.67367                    2451.28200                    3698.16758
                  -36974.62964                    8246.70927                    5331.05137
        </DataArray>
        <DataArray type="Float32" Name="Moment" NumberOfComponents="3" format="ascii">
                       0.00000                       0.00000                       0.00000
                       0.00000                       0.00000                       0.00000
                       0.00000                       0.00000                       0.00000
                       0.00000                       0.00000                       0.00000
                     149.15125                    2293.64015                     615.70643
                     258.17828                    4185.24663                    1124.78836
                     322.76637                    5508.72919                    1482.05836
                     460.59257                    8130.97353                    2189.01018
                     656.26218                   11538.33198                    3106.08846
                     780.81848                   12940.53235                    3479.39838
                     958.03493                   14078.82122                    3775.38278
                    1199.09409                   14822.24300                    3957.05945
                    1117.91909                   11225.09394                    2977.26060
                    1354.39957                   10873.28854                    2858.74793
                    1555.72870                    9977.93982                    2594.30806
                    1720.41150                    9219.08562                    2370.73430
                    1738.27949                    8120.85228                    2067.63632
                     972.35304                    3990.55633                    1005.06020
                     656.41509                    2533.02008                     634.32605
        </DataArray>
      </PointData>
      <Lines>
        <DataArray type="Int32" Name="connectivity" format="ascii">
      0      1
      1      2
      2      3
      3      4
      4      5
      5      6
      6      7
      7      8
      8      9
      9     10
     10     11
     11     12
     12     13
     13     14
     14     15
     15     16
     16     17
     17     18
        </DataArray>
        <DataArray type="Int32" Name="offsets" format="ascii">
      2
      4
      6
      8
     10
     12
     14
     16
     18
     20
     22
     24
     26
     28
     30
     32
     34
     36
        </DataArray>
      </Lines>
    </Piece>
  </PolyData>
</VTKFile>
