<?xml version="1.0"?>
<VTKFile type="PolyData" version="0.1" byte_order="LittleEndian">
  <PolyData>
    <Piece NumberOfPoints="     19" NumberOfVerts="  0" NumberOfLines="     18"
           NumberOfStrips="  0" NumberOfPolys="      0">
      <Points>
        <DataArray type="Float32" NumberOfComponents="3" format="ascii">
                      -4.73085                      -0.95125                      91.16788
                      -4.69549                      -1.82855                      92.21571
                      -4.65196                      -3.65925                      94.24931
                      -4.61828                      -5.52983                      96.24984
                      -4.57605                      -7.89751                      98.72460
                      -4.45067                     -10.64546                     101.76871
                      -4.28040                     -13.31300                     104.87962
                      -4.10527                     -15.99732                     107.97680
                      -3.93313                     -18.69674                     111.06247
                      -3.77861                     -21.41151                     114.13717
                      -3.65968                     -24.14225                     117.20068
                      -3.59396                     -26.88477                     120.25622
                      -3.60189                     -29.63495                     123.30599
                      -3.70476                     -32.38750                     126.35182
                      -3.92144                     -35.13625                     129.39473
                      -4.20590                     -37.41829                     131.92861
                      -4.50490                     -39.22923                     133.95964
                      -4.86555                     -40.98972                     136.02619
                      -5.08168                     -41.89460                     137.03042
        </DataArray>
      </Points>
      <PointData>
        <DataArray type="Float32" Name="TranslationalVelocity" NumberOfComponents="3" format="ascii">
                      -0.23781                      -3.91388                      -3.21316
                      -0.52325                      -7.37570                      -6.10067
                      -1.11028                     -14.08323                     -12.12810
                      -1.72420                     -20.67761                     -18.28794
                      -2.54879                     -28.83797                     -26.08587
                      -3.58598                     -38.90812                     -35.13577
                      -4.64267                     -49.22511                     -43.92354
                      -5.66664                     -59.50742                     -52.77570
                      -6.53964                     -69.75513                     -61.69161
                      -7.11740                     -79.96157                     -70.67427
                      -7.23900                     -90.12020                     -79.72195
                      -6.73359                    -100.24226                     -88.80942
                      -5.43219                    -110.34379                     -97.90026
                      -3.17688                    -120.45116                    -106.94027
                       0.16892                    -130.60266                    -115.85882
                       3.88871                    -139.13714                    -123.12645
                       7.48032                    -146.05517                    -128.77400
                      11.68529                    -153.18803                    -134.12754
                      13.95821                    -156.70255                    -136.81322
        </DataArray>
        <DataArray type="Float32" Name="RotationalVelocity" NumberOfComponents="3" format="ascii">
                       3.29267                      -0.01130                      -0.29929
                       3.29211                      -0.01226                      -0.30045
                       3.29212                      -0.01552                      -0.30544
                       3.29312                      -0.02000                      -0.31346
                       3.29488                      -0.02529                      -0.32625
                       3.29681                      -0.02621                      -0.34292
                       3.29799                      -0.01362                      -0.35710
                       3.29845                       0.02073                      -0.36464
                       3.29870                       0.08504                      -0.36143
                       3.29963                       0.18609                      -0.34376
                       3.30238                       0.32829                      -0.30862
                       3.30824                       0.51269                      -0.25395
                       3.31850                       0.73592                      -0.17893
                       3.33437                       0.98922                      -0.08427
                       3.35681                       1.25740                       0.02753
                       3.38082                       1.47684                       0.13036
                       3.40381                       1.63725                       0.21657
                       3.43007                       1.77210                       0.30339
                       3.44435                       1.82605                       0.34606
        </DataArray>
        <DataArray type="Float32" Name="TranslationalAcceleration" NumberOfComponents="3" format="ascii">
                       1.16189                       8.44641                     -11.11682
                      -0.63023                      12.28758                     -14.59469
                      -1.39056                      36.35355                     -41.07989
                      -2.32495                      59.44234                     -65.01131
                      -4.72512                      87.44419                     -92.50013
                      -9.96649                     119.14975                    -124.39452
                     -16.97458                     149.83234                    -155.97388
                     -24.16290                     181.13342                    -186.89350
                     -29.29088                     213.36517                    -217.46239
                     -29.91463                     246.71576                    -247.69155
                     -23.81781                     281.28580                    -277.37814
                      -9.32988                     317.07571                    -306.28043
                      14.23389                     354.11243                    -334.11445
                      46.19953                     392.49124                    -360.65912
                      84.14025                     432.42420                    -385.91804
                     117.08039                     467.26962                    -406.11571
                     141.82269                     496.34767                    -422.06153
                     165.64994                     526.06047                    -438.88872
                     172.61175                     542.10037                    -446.66979
        </DataArray>
        <DataArray type="Float32" Name="OrientationX" NumberOfComponents="3" format="ascii">
                       0.95790                      -0.20407                      -0.20195
                       0.95789                      -0.20374                      -0.20235
                       0.95780                      -0.20277                      -0.20370
                       0.95766                      -0.20145                      -0.20569
                       0.95741                      -0.19945                      -0.20876
                       0.96572                      -0.17352                      -0.19305
                       0.97096                      -0.15488                      -0.18233
                       0.97503                      -0.14003                      -0.17238
                       0.97890                      -0.12694                      -0.16010
                       0.98243                      -0.11697                      -0.14541
                       0.98523                      -0.11234                      -0.12924
                       0.98739                      -0.11299                      -0.11087
                       0.98845                      -0.12068                      -0.09167
                       0.98776                      -0.13739                      -0.07384
                       0.98561                      -0.15971                      -0.05533
                       0.98251                      -0.18183                      -0.04004
                       0.97897                      -0.20195                      -0.02897
                       0.97387                      -0.22607                      -0.02185
                       0.97056                      -0.24000                      -0.02049
        </DataArray>
        <DataArray type="Float32" Name="OrientationY" NumberOfComponents="3" format="ascii">
                       0.28594                       0.74136                       0.60714
                       0.28596                       0.74092                       0.60768
                       0.28614                       0.73971                       0.60907
                       0.28646                       0.73815                       0.61079
                       0.28702                       0.73588                       0.61326
                       0.25727                       0.73872                       0.62298
                       0.23635                       0.73902                       0.63086
                       0.21882                       0.73824                       0.63806
                       0.20110                       0.73708                       0.64519
                       0.18408                       0.73555                       0.65198
                       0.16996                       0.73356                       0.65803
                       0.15818                       0.73139                       0.66336
                       0.15092                       0.72895                       0.66772
                       0.15112                       0.72596                       0.67093
                       0.15494                       0.72284                       0.67342
                       0.16079                       0.72015                       0.67493
                       0.16807                       0.71777                       0.67569
                       0.18100                       0.71436                       0.67597
                       0.19033                       0.71198                       0.67591
        </DataArray>
        <DataArray type="Float32" Name="OrientationZ" NumberOfComponents="3" format="ascii">
                       0.02582                      -0.63932                       0.76850
                       0.02612                      -0.63995                       0.76797
                       0.02718                      -0.64165                       0.76651
                       0.02879                      -0.64385                       0.76461
                       0.03131                      -0.64706                       0.76179
                       0.03451                      -0.65130                       0.75804
                       0.03704                      -0.65564                       0.75417
                       0.03791                      -0.65985                       0.75044
                       0.03611                      -0.66378                       0.74706
                       0.03069                      -0.66730                       0.74416
                       0.02088                      -0.67028                       0.74182
                       0.00613                      -0.67254                       0.74004
                      -0.01376                      -0.67384                       0.73875
                      -0.03857                      -0.67388                       0.73783
                      -0.06755                      -0.67230                       0.73719
                      -0.09389                      -0.66957                       0.73680
                      -0.11566                      -0.66635                       0.73661
                      -0.13721                      -0.66226                       0.73661
                      -0.14763                      -0.65991                       0.73670
        </DataArray>
        <DataArray type="Float32" Name="Force" NumberOfComponents="3" format="ascii">
                       2.42988                      32.32270                      26.80792
                     508.08281                     189.91841                     140.69982
                     709.31269                     488.77009                     381.43119
                     691.57903                     681.08681                     540.59692
                    5145.55129                   -1524.61022                   -1482.92482
                    5821.17648                   -1320.46135                   -1368.28497
                    6542.38447                   -1191.97868                   -1319.31195
                    8771.38187                   -1349.71339                   -1575.62101
                    9702.20203                   -1228.22212                   -1502.83097
                   11128.70997                   -1240.68793                   -1507.94668
                   14324.04649                   -1420.98995                   -1613.40173
                   15391.18160                   -1461.41869                   -1384.27395
                   14211.08209                   -1427.98910                    -974.63601
                   11253.14860                   -1144.16248                    -417.76082
                    7144.60842                    -728.90550                       4.31718
                    2690.01168                    -107.26880                     232.15996
                    1862.68347                     -94.36211                     197.86023
                   -6608.64080                    1318.26081                     -88.90141
                  -17943.56434                    2417.29125                   -1441.66132
        </DataArray>
        <DataArray type="Float32" Name="Moment" NumberOfComponents="3" format="ascii">
                       0.00000                       0.00000                       0.00000
                       0.00000                       0.00000                       0.00000
                       0.00000                       0.00000                       0.00000
                       0.00000                       0.00000                       0.00000
                     -73.74746                    1478.44421                   -1775.89748
                    -156.89485                    2832.58712                   -3401.07106
                    -227.55698                    3801.96484                   -4563.45922
                    -350.07957                    5673.58800                   -6808.99737
                    -479.73703                    8085.21819                   -9704.98325
                    -467.46351                    9119.43320                  -10953.06402
                    -358.42440                    9892.01183                  -11894.45680
                    -138.00920                   10314.19098                  -12423.46295
                     137.59726                    7781.34898                   -9394.55907
                     420.55956                    7414.24679                   -8977.58635
                     703.08986                    6842.32766                   -8313.62368
                     899.42543                    6199.93755                   -7556.88038
                     955.66449                    5295.36944                   -6471.32680
                     492.48419                    2280.45979                   -2794.22295
                     622.03939                    2666.40774                   -3271.30901
        </DataArray>
      </PointData>
      <Lines>
        <DataArray type="Int32" Name="connectivity" format="ascii">
      0      1
      1      2
      2      3
      3      4
      4      5
      5      6
      6      7
      7      8
      8      9
      9     10
     10     11
     11     12
     12     13
     13     14
     14     15
     15     16
     16     17
     17     18
        </DataArray>
        <DataArray type="Int32" Name="offsets" format="ascii">
      2
      4
      6
      8
     10
     12
     14
     16
     18
     20
     22
     24
     26
     28
     30
     32
     34
     36
        </DataArray>
      </Lines>
    </Piece>
  </PolyData>
</VTKFile>
