<?xml version="1.0"?>
<VTKFile type="PolyData" version="0.1" byte_order="LittleEndian">
  <PolyData>
    <Piece NumberOfPoints="     19" NumberOfVerts="  0" NumberOfLines="     18"
           NumberOfStrips="  0" NumberOfPolys="      0">
      <Points>
        <DataArray type="Float32" NumberOfComponents="3" format="ascii">
                      -4.88766                       1.25754                      89.24088
                      -5.01261                       2.41978                      88.53209
                      -5.27781                       4.79356                      87.19633
                      -5.54880                       7.19071                      85.89822
                      -5.88771                      10.20085                      84.29638
                      -6.24579                      13.73846                      82.24360
                      -6.58396                      17.20695                      80.07467
                      -6.92513                      20.67275                      77.90092
                      -7.27717                      24.13493                      75.72159
                      -7.65427                      27.59387                      73.53963
                      -8.07412                      31.04999                      71.35966
                      -8.55526                      34.49979                      69.18183
                      -9.11981                      37.93885                      67.00765
                      -9.79194                      41.36067                      64.83854
                     -10.59501                      44.75683                      62.67574
                     -11.38637                      47.55849                      60.87899
                     -12.10577                      49.77238                      59.43880
                     -12.90371                      51.93314                      57.95522
                     -13.34549                      53.02224                      57.25053
        </DataArray>
      </Points>
      <PointData>
        <DataArray type="Float32" Name="TranslationalVelocity" NumberOfComponents="3" format="ascii">
                       0.36951                       2.60372                       4.15388
                       0.71854                       4.94695                       7.93517
                       1.43709                       9.36957                      15.65178
                       2.17988                      13.66856                      23.43360
                       3.15064                      18.97025                      33.18605
                       4.35903                      25.73103                      44.61716
                       5.61958                      32.84691                      55.79038
                       6.94058                      39.96263                      66.91895
                       8.29995                      47.08147                      78.00008
                       9.67014                      54.19663                      89.03583
                      11.02065                      61.29666                     100.02850
                      12.32067                      68.38382                     110.96814
                      13.54301                      75.45599                     121.84119
                      14.66715                      82.51047                     132.62661
                      15.68249                      89.54361                     143.29661
                      16.44506                      95.38524                     152.06887
                      17.01116                     100.06631                     158.98006
                      17.55409                     104.88339                     165.70424
                      17.81118                     107.17280                     169.08463
        </DataArray>
        <DataArray type="Float32" Name="RotationalVelocity" NumberOfComponents="3" format="ascii">
                       3.25423                       0.00212                      -0.29915
                       3.25308                       0.00118                      -0.29999
                       3.24996                      -0.00208                      -0.30383
                       3.24589                      -0.00704                      -0.31006
                       3.23980                      -0.01518                      -0.31988
                       3.23150                      -0.02744                      -0.33240
                       3.22278                      -0.04205                      -0.34278
                       3.21428                      -0.05880                      -0.34816
                       3.20658                      -0.07756                      -0.34606
                       3.20016                      -0.09818                      -0.33469
                       3.19539                      -0.12037                      -0.31317
                       3.19247                      -0.14364                      -0.28181
                       3.19145                      -0.16719                      -0.24232
                       3.19213                      -0.18981                      -0.19809
                       3.19411                      -0.20980                      -0.15447
                       3.19627                      -0.22297                      -0.12356
                       3.19796                      -0.22991                      -0.10658
                       3.19921                      -0.23254                      -0.10024
                       3.19956                      -0.23189                      -0.10226
        </DataArray>
        <DataArray type="Float32" Name="TranslationalAcceleration" NumberOfComponents="3" format="ascii">
                       0.37539                     -13.73092                       8.24349
                       0.74588                     -16.44526                      10.19820
                       2.37620                     -47.48941                      28.32056
                       4.18708                     -76.22247                      44.46194
                       6.59361                    -109.86876                      62.83688
                       9.56474                    -147.33742                      84.66808
                      12.52095                    -183.11651                     106.81281
                      15.39168                    -218.71087                     128.67468
                      18.19793                    -254.48297                     150.57824
                      20.90422                    -290.50215                     172.62766
                      23.36105                    -326.65025                     194.77470
                      25.26955                    -362.69970                     216.93036
                      26.13192                    -398.45656                     238.95575
                      25.22206                    -433.86273                     260.72268
                      21.56245                    -469.11553                     282.14793
                      15.45685                    -498.76442                     299.75962
                       8.04588                    -523.01711                     313.76135
                      -1.75785                    -547.83254                     328.18647
                      -8.00519                    -560.98321                     335.03271
        </DataArray>
        <DataArray type="Float32" Name="OrientationX" NumberOfComponents="3" format="ascii">
                       0.98399                       0.15747                       0.08350
                       0.98400                       0.15735                       0.08360
                       0.98400                       0.15708                       0.08412
                       0.98397                       0.15676                       0.08504
                       0.98389                       0.15636                       0.08669
                       0.98817                       0.14011                       0.06239
                       0.99046                       0.12968                       0.04662
                       0.99178                       0.12323                       0.03446
                       0.99251                       0.12001                       0.02264
                       0.99251                       0.12159                       0.01172
                       0.99150                       0.13004                       0.00328
                       0.98932                       0.14568                      -0.00360
                       0.98545                       0.16981                      -0.00769
                       0.97905                       0.20350                      -0.00724
                       0.96986                       0.24356                      -0.00657
                       0.95987                       0.28036                      -0.00671
                       0.95024                       0.31143                      -0.00728
                       0.93877                       0.34450                      -0.00584
                       0.93225                       0.36179                      -0.00385
        </DataArray>
        <DataArray type="Float32" Name="OrientationY" NumberOfComponents="3" format="ascii">
                       0.15284                      -0.50448                      -0.84979
                       0.15288                      -0.50462                      -0.84970
                       0.15323                      -0.50496                      -0.84944
                       0.15389                      -0.50537                      -0.84907
                       0.15517                      -0.50594                      -0.84850
                       0.12616                      -0.51125                      -0.85012
                       0.10742                      -0.51460                      -0.85067
                       0.09379                      -0.51688                      -0.85091
                       0.08211                      -0.51848                      -0.85114
                       0.07367                      -0.51930                      -0.85141
                       0.07090                      -0.51910                      -0.85177
                       0.07317                      -0.51797                      -0.85226
                       0.08219                      -0.51558                      -0.85289
                       0.09995                      -0.51119                      -0.85364
                       0.12111                      -0.50530                      -0.85440
                       0.13989                      -0.49941                      -0.85500
                       0.15534                      -0.49398                      -0.85548
                       0.17338                      -0.48699                      -0.85603
                       0.18376                      -0.48262                      -0.85634
        </DataArray>
        <DataArray type="Float32" Name="OrientationZ" NumberOfComponents="3" format="ascii">
                      -0.09170                       0.84894                      -0.52047
                      -0.09152                       0.84888                      -0.52060
                      -0.09096                       0.84873                      -0.52094
                      -0.09012                       0.84854                      -0.52140
                      -0.08881                       0.84828                      -0.52205
                      -0.08722                       0.84794                      -0.52287
                      -0.08633                       0.84756                      -0.52362
                      -0.08705                       0.84714                      -0.52419
                      -0.09041                       0.84662                      -0.52446
                      -0.09743                       0.84590                      -0.52437
                      -0.10906                       0.84476                      -0.52391
                      -0.12603                       0.84290                      -0.52310
                      -0.14880                       0.83985                      -0.52203
                      -0.17741                       0.83503                      -0.52082
                      -0.21142                       0.82786                      -0.51957
                      -0.24306                       0.81975                      -0.51859
                      -0.27002                       0.81179                      -0.51778
                      -0.29774                       0.80260                      -0.51690
                      -0.31167                       0.79762                      -0.51640
        </DataArray>
        <DataArray type="Float32" Name="Force" NumberOfComponents="3" format="ascii">
                      -0.93667                      -6.35009                     -10.19270
                     406.26545                     -70.79433                    -186.89444
                     544.50998                    -231.37172                    -472.45052
                     510.34111                    -360.68500                    -676.42680
                    4529.59204                     950.06513                     777.31414
                    5185.93601                     861.67979                     537.69231
                    5666.33608                     795.91851                     360.45132
                    7278.92712                     911.15783                     272.33214
                    7542.50496                     842.79052                      69.00932
                    7695.26590                     820.84827                     -96.63818
                    9243.67997                     989.77166                    -316.95060
                    8298.98440                     947.77389                    -461.08180
                    4724.00017                     564.97892                    -431.68776
                     -87.45321                    -182.91583                    -272.64543
                   -4455.48429                   -1057.10236                      97.36842
                  -11437.45713                   -2789.52022                     869.81755
                  -16961.85451                   -4478.19553                    1685.35914
                  -17556.27607                   -5088.93434                    2037.06663
                  -37044.57045                   -9858.49024                    6941.85721
        </DataArray>
        <DataArray type="Float32" Name="Moment" NumberOfComponents="3" format="ascii">
                       0.00000                       0.00000                       0.00000
                       0.00000                       0.00000                       0.00000
                       0.00000                       0.00000                       0.00000
                       0.00000                       0.00000                       0.00000
                     198.59612                   -1900.77615                    1165.94013
                     346.91072                   -3383.19793                    2075.86467
                     446.98788                   -4407.01986                    2704.51269
                     661.40297                   -6470.38547                    3970.29294
                     977.21747                   -9207.91917                    5646.76412
                    1177.92258                  -10300.03401                    6308.71158
                    1438.43477                  -11234.80153                    6867.13510
                    1746.43233                  -11795.35690                    7188.05941
                    1522.94068                   -8699.60039                    5279.93007
                    1723.43012                   -8236.27014                    4972.84955
                    1906.75873                   -7615.74052                    4569.41027
                    2063.15830                   -7132.75441                    4254.13576
                    2015.71431                   -6241.19328                    3703.04992
                    1083.61673                   -3024.06765                    1784.42507
                     282.65717                    -750.97011                     441.88204
        </DataArray>
      </PointData>
      <Lines>
        <DataArray type="Int32" Name="connectivity" format="ascii">
      0      1
      1      2
      2      3
      3      4
      4      5
      5      6
      6      7
      7      8
      8      9
      9     10
     10     11
     11     12
     12     13
     13     14
     14     15
     15     16
     16     17
     17     18
        </DataArray>
        <DataArray type="Int32" Name="offsets" format="ascii">
      2
      4
      6
      8
     10
     12
     14
     16
     18
     20
     22
     24
     26
     28
     30
     32
     34
     36
        </DataArray>
      </Lines>
    </Piece>
  </PolyData>
</VTKFile>
