<?xml version="1.0"?>
<VTKFile type="PolyData" version="0.1" byte_order="LittleEndian">
  <PolyData>
    <Piece NumberOfPoints="     22" NumberOfVerts="  0" NumberOfLines="     21"
           NumberOfStrips="  0" NumberOfPolys="      0">
      <Points>
        <DataArray type="Float32" NumberOfComponents="3" format="ascii">
                       0.00008                       0.00000                       2.19000
                       0.00078                       0.00003                       6.57000
                       0.00232                       0.00008                      10.95000
                       0.00476                       0.00015                      15.33000
                       0.00810                       0.00024                      19.71000
                       0.01231                       0.00034                      24.09000
                       0.01736                       0.00045                      28.46999
                       0.02318                       0.00058                      32.84999
                       0.02976                       0.00071                      37.22998
                       0.03707                       0.00086                      41.60998
                       0.04511                       0.00100                      45.98997
                       0.05391                       0.00116                      50.36996
                       0.06349                       0.00131                      54.74995
                       0.07388                       0.00146                      59.12994
                       0.08510                       0.00160                      63.50992
                       0.09710                       0.00174                      67.88991
                       0.10980                       0.00188                      72.26989
                       0.12301                       0.00200                      76.64987
                       0.13642                       0.00211                      81.02985
                       0.14956                       0.00222                      85.40983
                       0.15582                       0.00227                      87.59982
                       0.00000                       0.00000                       0.00000
        </DataArray>
      </Points>
      <PointData>
        <DataArray type="Float32" Name="TranslationalVelocity" NumberOfComponents="3" format="ascii">
                       0.00015                       0.00002                      -0.00000
                       0.00148                       0.00013                      -0.00000
                       0.00445                       0.00034                      -0.00000
                       0.00921                       0.00061                      -0.00000
                       0.01581                       0.00094                      -0.00001
                       0.02423                       0.00131                      -0.00002
                       0.03443                       0.00169                      -0.00003
                       0.04639                       0.00207                      -0.00005
                       0.06009                       0.00243                      -0.00007
                       0.07558                       0.00275                      -0.00009
                       0.09294                       0.00300                      -0.00012
                       0.11228                       0.00316                      -0.00016
                       0.13372                       0.00320                      -0.00021
                       0.15736                       0.00310                      -0.00027
                       0.18327                       0.00284                      -0.00033
                       0.21138                       0.00242                      -0.00041
                       0.24150                       0.00181                      -0.00050
                       0.27317                       0.00104                      -0.00059
                       0.30566                       0.00010                      -0.00069
                       0.33783                      -0.00096                      -0.00079
                       0.35330                      -0.00152                      -0.00083
                       0.00000                      -0.00000                       0.00000
        </DataArray>
        <DataArray type="Float32" Name="RotationalVelocity" NumberOfComponents="3" format="ascii">
                      -0.00001                       0.00014                       0.00000
                      -0.00004                       0.00048                       0.00000
                      -0.00006                       0.00088                       0.00000
                      -0.00007                       0.00130                       0.00000
                      -0.00008                       0.00172                       0.00000
                      -0.00009                       0.00213                       0.00000
                      -0.00009                       0.00253                       0.00000
                      -0.00009                       0.00293                       0.00000
                      -0.00008                       0.00333                       0.00000
                      -0.00007                       0.00375                       0.00000
                      -0.00005                       0.00418                       0.00000
                      -0.00002                       0.00465                       0.00000
                       0.00001                       0.00514                       0.00000
                       0.00004                       0.00566                       0.00000
                       0.00008                       0.00617                       0.00000
                       0.00012                       0.00666                       0.00000
                       0.00016                       0.00708                       0.00000
                       0.00020                       0.00736                       0.00000
                       0.00023                       0.00743                       0.00000
                       0.00025                       0.00719                       0.00000
                       0.00026                       0.00692                       0.00000
                       0.00000                      -0.00000                       0.00000
        </DataArray>
        <DataArray type="Float32" Name="TranslationalAcceleration" NumberOfComponents="3" format="ascii">
                      -0.00031                       0.00035                       0.00000
                      -0.00267                       0.00289                      -0.00000
                      -0.00702                       0.00749                      -0.00000
                      -0.01285                       0.01368                      -0.00000
                      -0.01948                       0.02107                      -0.00001
                      -0.02607                       0.02928                      -0.00002
                      -0.03162                       0.03793                      -0.00004
                      -0.03500                       0.04661                      -0.00007
                      -0.03497                       0.05488                      -0.00011
                      -0.03021                       0.06225                      -0.00017
                      -0.01942                       0.06822                      -0.00026
                      -0.00130                       0.07228                      -0.00039
                       0.02528                       0.07390                      -0.00055
                       0.06127                       0.07260                      -0.00076
                       0.10730                       0.06797                      -0.00103
                       0.16359                       0.05970                      -0.00137
                       0.22982                       0.04765                      -0.00177
                       0.30501                       0.03188                      -0.00222
                       0.38737                       0.01277                      -0.00271
                       0.47415                      -0.00899                      -0.00320
                       0.51802                      -0.02052                      -0.00345
                       0.00000                      -0.00000                       0.00000
        </DataArray>
        <DataArray type="Float32" Name="RotationalAcceleration" NumberOfComponents="3" format="ascii">
                      -0.00031                      -0.00028                       0.00000
                      -0.00083                      -0.00078                       0.00000
                      -0.00125                      -0.00119                       0.00000
                      -0.00156                      -0.00145                       0.00000
                      -0.00180                      -0.00154                       0.00000
                      -0.00194                      -0.00143                       0.00000
                      -0.00199                      -0.00106                       0.00000
                      -0.00195                      -0.00043                       0.00000
                      -0.00180                       0.00050                       0.00000
                      -0.00154                       0.00173                       0.00000
                      -0.00117                       0.00325                       0.00000
                      -0.00067                       0.00506                       0.00000
                      -0.00005                       0.00711                       0.00000
                       0.00066                       0.00935                       0.00000
                       0.00146                       0.01168                       0.00000
                       0.00232                       0.01401                       0.00000
                       0.00318                       0.01620                       0.00000
                       0.00400                       0.01807                       0.00000
                       0.00470                       0.01943                       0.00000
                       0.00519                       0.02005                       0.00000
                       0.00532                       0.01999                       0.00000
                       0.00000                      -0.00000                       0.00000
        </DataArray>
        <DataArray type="Float32" Name="OrientationX" NumberOfComponents="3" format="ascii">
                       1.00000                      -0.00000                      -0.00007
                       1.00000                      -0.00000                      -0.00025
                       1.00000                      -0.00000                      -0.00045
                       1.00000                      -0.00000                      -0.00066
                       1.00000                      -0.00000                      -0.00086
                       1.00000                      -0.00000                      -0.00106
                       1.00000                      -0.00000                      -0.00124
                       1.00000                      -0.00000                      -0.00142
                       1.00000                      -0.00000                      -0.00159
                       1.00000                      -0.00000                      -0.00175
                       1.00000                      -0.00000                      -0.00192
                       1.00000                      -0.00000                      -0.00210
                       1.00000                      -0.00000                      -0.00228
                       1.00000                      -0.00000                      -0.00247
                       1.00000                      -0.00000                      -0.00265
                       1.00000                      -0.00000                      -0.00282
                       1.00000                      -0.00000                      -0.00297
                       1.00000                      -0.00000                      -0.00305
                       1.00000                      -0.00000                      -0.00305
                       1.00000                      -0.00000                      -0.00292
                       1.00000                      -0.00000                      -0.00279
                       1.00000                      -0.00000                       0.00000
        </DataArray>
        <DataArray type="Float32" Name="OrientationY" NumberOfComponents="3" format="ascii">
                      -0.00000                       1.00000                      -0.00000
                      -0.00000                       1.00000                      -0.00001
                      -0.00000                       1.00000                      -0.00001
                      -0.00000                       1.00000                      -0.00002
                      -0.00000                       1.00000                      -0.00002
                      -0.00000                       1.00000                      -0.00002
                      -0.00000                       1.00000                      -0.00003
                      -0.00000                       1.00000                      -0.00003
                      -0.00000                       1.00000                      -0.00003
                      -0.00000                       1.00000                      -0.00003
                      -0.00000                       1.00000                      -0.00003
                      -0.00000                       1.00000                      -0.00003
                      -0.00000                       1.00000                      -0.00003
                      -0.00000                       1.00000                      -0.00003
                      -0.00000                       1.00000                      -0.00003
                      -0.00000                       1.00000                      -0.00003
                      -0.00000                       1.00000                      -0.00003
                      -0.00000                       1.00000                      -0.00003
                      -0.00000                       1.00000                      -0.00003
                      -0.00000                       1.00000                      -0.00002
                      -0.00000                       1.00000                      -0.00002
                      -0.00000                       1.00000                      -0.00000
        </DataArray>
        <DataArray type="Float32" Name="OrientationZ" NumberOfComponents="3" format="ascii">
                       0.00007                       0.00000                       1.00000
                       0.00025                       0.00001                       1.00000
                       0.00045                       0.00001                       1.00000
                       0.00066                       0.00002                       1.00000
                       0.00086                       0.00002                       1.00000
                       0.00106                       0.00002                       1.00000
                       0.00124                       0.00003                       1.00000
                       0.00142                       0.00003                       1.00000
                       0.00159                       0.00003                       1.00000
                       0.00175                       0.00003                       1.00000
                       0.00192                       0.00003                       1.00000
                       0.00210                       0.00003                       1.00000
                       0.00228                       0.00003                       1.00000
                       0.00247                       0.00003                       1.00000
                       0.00265                       0.00003                       1.00000
                       0.00282                       0.00003                       1.00000
                       0.00297                       0.00003                       1.00000
                       0.00305                       0.00003                       1.00000
                       0.00305                       0.00003                       1.00000
                       0.00292                       0.00002                       1.00000
                       0.00279                       0.00002                       1.00000
                       0.00000                      -0.00000                       1.00000
        </DataArray>
      </PointData>
      <Lines>
        <DataArray type="Int32" Name="connectivity" format="ascii">
      0      1
      1      2
      2      3
      3      4
      4      5
      5      6
      6      7
      7      8
      8      9
      9     10
     10     11
     11     12
     12     13
     13     14
     14     15
     15     16
     16     17
     17     18
     18     19
     19     20
     21      0
        </DataArray>
        <DataArray type="Int32" Name="offsets" format="ascii">
      2
      4
      6
      8
     10
     12
     14
     16
     18
     20
     22
     24
     26
     28
     30
     32
     34
     36
     38
     40
     42
        </DataArray>
      </Lines>
    </Piece>
  </PolyData>
</VTKFile>
