<?xml version="1.0"?>
<VTKFile type="PolyData" version="0.1" byte_order="LittleEndian">
  <PolyData>
    <Piece NumberOfPoints="     19" NumberOfVerts="  0" NumberOfLines="     18"
           NumberOfStrips="  0" NumberOfPolys="      0">
      <Points>
        <DataArray type="Float32" NumberOfComponents="3" format="ascii">
                      -4.78698                      -1.51227                      89.78195
                      -4.86744                      -2.85814                      89.55617
                      -5.05740                      -5.53315                      89.01113
                      -5.25743                      -8.20011                      88.41904
                      -5.50655                     -11.52849                      87.64661
                      -5.72279                     -15.54789                      86.84433
                      -5.88351                     -19.58969                      86.15516
                      -6.02912                     -23.63119                      85.45700
                      -6.16313                     -27.67297                      84.75265
                      -6.29571                     -31.71486                      84.04245
                      -6.44081                     -35.75613                      83.32599
                      -6.61260                     -39.79673                      82.60863
                      -6.82944                     -43.83582                      81.89539
                      -7.11227                     -47.87191                      81.19235
                      -7.48202                     -51.90284                      80.50601
                      -7.87664                     -55.25570                      79.95311
                      -8.25528                     -57.93386                      79.53375
                      -8.68548                     -60.61642                      79.18285
                      -8.94113                     -61.94642                      78.97584
        </DataArray>
      </Points>
      <PointData>
        <DataArray type="Float32" Name="TranslationalVelocity" NumberOfComponents="3" format="ascii">
                      -0.43782                       0.83759                      -4.76301
                      -0.83820                       1.58836                      -9.09536
                      -1.62610                       3.39532                     -17.68995
                      -2.40083                       5.34914                     -26.23483
                      -3.34933                       7.88171                     -36.86098
                      -4.46095                      10.48165                     -49.63523
                      -5.52934                      12.69232                     -62.41550
                      -6.53252                      14.91489                     -75.13050
                      -7.45541                      17.14210                     -87.78667
                      -8.28340                      19.37575                    -100.38901
                      -9.00431                      21.61986                    -112.94129
                      -9.61006                      23.85981                    -125.44864
                     -10.09805                      26.08164                    -137.91212
                     -10.47285                      28.26721                    -150.32807
                     -10.74796                      30.39571                    -162.68730
                     -10.91742                      32.10495                    -172.93042
                     -11.02917                      33.39665                    -181.08452
                     -11.12673                      34.47142                    -189.22403
                     -11.18391                      35.10308                    -193.24376
        </DataArray>
        <DataArray type="Float32" Name="RotationalVelocity" NumberOfComponents="3" format="ascii">
                       3.22113                      -0.00049                      -0.29796
                       3.21831                      -0.00051                      -0.29689
                       3.21113                      -0.00042                      -0.29382
                       3.20230                      -0.00027                      -0.28951
                       3.18982                      -0.00003                      -0.28240
                       3.17379                       0.00064                      -0.27108
                       3.15778                       0.00242                      -0.25634
                       3.14269                       0.00621                      -0.23787
                       3.12910                       0.01297                      -0.21541
                       3.11737                       0.02352                      -0.18901
                       3.10759                       0.03831                      -0.15916
                       3.09963                       0.05727                      -0.12690
                       3.09321                       0.07960                      -0.09401
                       3.08784                       0.10360                      -0.06311
                       3.08293                       0.12645                      -0.03784
                       3.07868                       0.14191                      -0.02415
                       3.07485                       0.14958                      -0.02073
                       3.07034                       0.15095                      -0.02624
                       3.06776                       0.14858                      -0.03303
        </DataArray>
        <DataArray type="Float32" Name="TranslationalAcceleration" NumberOfComponents="3" format="ascii">
                       0.29989                      17.69590                       3.17247
                       0.23227                      19.40387                       3.00332
                       0.83216                      54.94173                       9.62108
                       1.47936                      86.96215                      16.42952
                       2.26603                     123.51583                      25.14390
                       3.01639                     164.34139                      34.37119
                       3.57235                     203.57096                      42.78865
                       4.07113                     242.14738                      51.70058
                       4.59576                     280.74273                      60.93420
                       5.24958                     319.61619                      70.25700
                       6.12883                     358.72366                      79.41683
                       7.29104                     397.84142                      88.14440
                       8.73317                     436.65485                      96.27839
                      10.36257                     474.86666                     103.81656
                      11.96633                     512.30714                     110.97995
                      13.00937                     542.94168                     117.02096
                      13.47455                     567.23056                     122.14435
                      13.66267                     591.64193                     127.36407
                      13.27383                     603.84095                     130.78338
        </DataArray>
        <DataArray type="Float32" Name="OrientationX" NumberOfComponents="3" format="ascii">
                       0.94645                      -0.00328                      -0.32283
                       0.94648                      -0.00272                      -0.32276
                       0.94648                      -0.00098                      -0.32275
                       0.94644                       0.00153                      -0.32288
                       0.94628                       0.00552                      -0.32329
                       0.95561                       0.00551                      -0.29459
                       0.96133                       0.00727                      -0.27530
                       0.96540                       0.00901                      -0.26060
                       0.96886                       0.00922                      -0.24745
                       0.97145                       0.00723                      -0.23712
                       0.97272                       0.00259                      -0.23198
                       0.97281                      -0.00553                      -0.23156
                       0.97119                      -0.01736                      -0.23768
                       0.96701                      -0.03279                      -0.25260
                       0.96097                      -0.05280                      -0.27157
                       0.95444                      -0.07286                      -0.28936
                       0.94803                      -0.09098                      -0.30491
                       0.93961                      -0.11006                      -0.32407
                       0.93441                      -0.11971                      -0.33549
        </DataArray>
        <DataArray type="Float32" Name="OrientationY" NumberOfComponents="3" format="ascii">
                       0.31745                      -0.17261                       0.93243
                       0.31746                      -0.17289                       0.93238
                       0.31769                      -0.17358                       0.93217
                       0.31818                      -0.17437                       0.93186
                       0.31920                      -0.17540                       0.93131
                       0.29088                      -0.17689                       0.94027
                       0.27214                      -0.17845                       0.94557
                       0.25792                      -0.18007                       0.94924
                       0.24497                      -0.18178                       0.95234
                       0.23439                      -0.18353                       0.95466
                       0.22844                      -0.18528                       0.95577
                       0.22647                      -0.18701                       0.95590
                       0.23026                      -0.18873                       0.95465
                       0.24205                      -0.19063                       0.95135
                       0.25702                      -0.19278                       0.94698
                       0.27092                      -0.19482                       0.94268
                       0.28304                      -0.19667                       0.93873
                       0.29860                      -0.19910                       0.93338
                       0.30817                      -0.20069                       0.92992
        </DataArray>
        <DataArray type="Float32" Name="OrientationZ" NumberOfComponents="3" format="ascii">
                      -0.05878                      -0.98498                      -0.16233
                      -0.05834                      -0.98494                      -0.16277
                      -0.05693                      -0.98482                      -0.16398
                      -0.05487                      -0.98468                      -0.16551
                      -0.05157                      -0.98448                      -0.16774
                      -0.04693                      -0.98421                      -0.17064
                      -0.04226                      -0.98392                      -0.17352
                      -0.03838                      -0.98361                      -0.17617
                      -0.03620                      -0.98330                      -0.17838
                      -0.03662                      -0.98299                      -0.17999
                      -0.04050                      -0.98268                      -0.18082
                      -0.04859                      -0.98234                      -0.18067
                      -0.06143                      -0.98187                      -0.17930
                      -0.07935                      -0.98111                      -0.17640
                      -0.10235                      -0.97982                      -0.17169
                      -0.12505                      -0.97813                      -0.16621
                      -0.14537                      -0.97624                      -0.16070
                      -0.16725                      -0.97378                      -0.15422
                      -0.17865                      -0.97231                      -0.15063
        </DataArray>
        <DataArray type="Float32" Name="Force" NumberOfComponents="3" format="ascii">
                       4.40328                      -8.08532                      47.46664
                     512.02266                     -66.55492                     219.89897
                     715.96372                    -137.74061                     584.63371
                     704.96074                    -174.93770                     822.39320
                    4680.38223                      98.25367                   -2061.24992
                    5212.70341                      64.28058                   -1862.34241
                    5730.69689                      50.67898                   -1750.64031
                    7487.23476                      58.46647                   -2049.70318
                    7936.21574                      37.23948                   -1908.07173
                    8446.39580                       8.10764                   -1856.86134
                   10455.51948                     -63.16772                   -2105.41352
                   10230.06471                    -167.23178                   -1937.58128
                    7753.61950                    -240.40893                   -1405.42163
                    3639.69362                    -210.00589                    -481.05515
                    1429.32677                    -131.17378                     -99.95075
                   -3911.15506                     316.16110                    1131.16040
                   -8628.58080                     944.34827                    2130.47728
                  -10653.04344                    1437.53769                    2515.52243
                  -33576.30232                    5471.38154                    4534.75756
        </DataArray>
        <DataArray type="Float32" Name="Moment" NumberOfComponents="3" format="ascii">
                       0.00000                       0.00000                       0.00000
                       0.00000                       0.00000                       0.00000
                       0.00000                       0.00000                       0.00000
                       0.00000                       0.00000                       0.00000
                     121.71074                    2344.93922                     388.13909
                     198.29252                    4221.85540                     700.74301
                     229.80930                    5471.43724                     910.66922
                     302.19379                    7981.65229                    1331.53667
                     398.93800                   11247.20879                    1878.80689
                     446.81251                   12495.50806                    2086.99721
                     535.40448                   13519.53052                    2253.20772
                     674.73900                   14124.83046                    2343.38716
                     639.90912                   10514.79138                    1731.69532
                     797.99015                   10070.48186                    1641.34850
                     947.80463                    9200.53329                    1479.26651
                    1069.58971                    8441.88934                    1338.74397
                    1099.57999                    7424.09769                    1162.59442
                     635.41706                    3707.02781                     572.49869
                     535.15614                    2913.87231                     446.69582
        </DataArray>
      </PointData>
      <Lines>
        <DataArray type="Int32" Name="connectivity" format="ascii">
      0      1
      1      2
      2      3
      3      4
      4      5
      5      6
      6      7
      7      8
      8      9
      9     10
     10     11
     11     12
     12     13
     13     14
     14     15
     15     16
     16     17
     17     18
        </DataArray>
        <DataArray type="Int32" Name="offsets" format="ascii">
      2
      4
      6
      8
     10
     12
     14
     16
     18
     20
     22
     24
     26
     28
     30
     32
     34
     36
        </DataArray>
      </Lines>
    </Piece>
  </PolyData>
</VTKFile>
