<?xml version="1.0"?>
<VTKFile type="PolyData" version="0.1" byte_order="LittleEndian">
  <PolyData>
    <Piece NumberOfPoints="     19" NumberOfVerts="  0" NumberOfLines="     18"
           NumberOfStrips="  0" NumberOfPolys="      0">
      <Points>
        <DataArray type="Float32" NumberOfComponents="3" format="ascii">
                      -4.88451                       1.19763                      89.13889
                      -5.01704                       2.29769                      88.33832
                      -5.29622                       4.55128                      86.81076
                      -5.57816                       6.82800                      85.31239
                      -5.92421                       9.68383                      83.44777
                      -6.27775                      13.01535                      81.06918
                      -6.59437                      16.25382                      78.56132
                      -6.89567                      19.47421                      76.02770
                      -7.18871                      22.67511                      73.46736
                      -7.48777                      25.85734                      70.88323
                      -7.81163                      29.02229                      68.28016
                      -8.18080                      32.16727                      65.65927
                      -8.62033                      35.28899                      63.02320
                      -9.15830                      38.38216                      60.37470
                      -9.82307                      41.43961                      57.71655
                     -10.50052                      43.95193                      55.49568
                     -11.13201                      45.92960                      53.71060
                     -11.84422                      47.84488                      51.88175
                     -12.24912                      48.81459                      50.99878
        </DataArray>
      </Points>
      <PointData>
        <DataArray type="Float32" Name="TranslationalVelocity" NumberOfComponents="3" format="ascii">
                       0.36899                       2.82202                       3.97252
                       0.69146                       5.48002                       7.57106
                       1.33802                      10.55286                      14.93610
                       1.96611                      15.52066                      22.36448
                       2.70853                      21.68306                      31.65948
                       3.49772                      29.48844                      42.46244
                       4.17692                      37.66156                      52.91445
                       4.76863                      45.86499                      63.25285
                       5.28010                      54.09792                      73.46811
                       5.72363                      62.34832                      83.55783
                       6.11491                      70.59830                      93.52106
                       6.47130                      78.84126                     103.34296
                       6.81100                      87.06492                     113.00533
                       7.15129                      95.25505                     122.48182
                       7.50656                     103.39580                     131.73898
                       7.82104                     110.12815                     139.24721
                       8.09124                     115.49319                     145.08917
                       8.41242                     120.95460                     150.67867
                       8.54750                     123.56273                     153.47977
        </DataArray>
        <DataArray type="Float32" Name="RotationalVelocity" NumberOfComponents="3" format="ascii">
                       3.27114                       0.00568                      -0.29975
                       3.26924                       0.00686                      -0.29798
                       3.26466                       0.00958                      -0.29145
                       3.25887                       0.01302                      -0.28196
                       3.24987                       0.01804                      -0.26750
                       3.23653                       0.02359                      -0.24737
                       3.22087                       0.02550                      -0.22416
                       3.20367                       0.01988                      -0.19660
                       3.18591                       0.00259                      -0.16263
                       3.16874                      -0.02999                      -0.12002
                       3.15338                      -0.08037                      -0.06686
                       3.14104                      -0.14930                      -0.00212
                       3.13285                      -0.23516                       0.07383
                       3.12980                      -0.33329                       0.15863
                       3.13262                      -0.43542                       0.24744
                       3.13963                      -0.51512                       0.31921
                       3.14850                      -0.56821                       0.37058
                       3.16016                      -0.60500                       0.41200
                       3.16697                      -0.61508                       0.42747
        </DataArray>
        <DataArray type="Float32" Name="TranslationalAcceleration" NumberOfComponents="3" format="ascii">
                       3.08385                     -14.85468                      10.36250
                       1.55212                     -16.66360                      11.31471
                       3.87652                     -47.81132                      31.67853
                       5.56773                     -76.12361                      50.19982
                       7.27194                    -108.52860                      71.97037
                       9.18650                    -143.24788                      98.63665
                      11.05186                    -174.80092                     126.59056
                      12.53235                    -204.80440                     155.48011
                      13.06100                    -233.64585                     185.73962
                      11.88044                    -261.41925                     217.56830
                       8.15758                    -288.01331                     251.00669
                       1.10336                    -313.15038                     286.04395
                      -9.91517                    -336.53345                     322.63336
                     -25.25699                    -357.93054                     360.76590
                     -44.89071                    -377.27552                     400.52825
                     -64.18918                    -391.93697                     435.09994
                     -81.01971                    -402.85415                     463.85820
                     -98.64569                    -412.83834                     494.05570
                    -107.50253                    -418.20165                     509.46877
        </DataArray>
        <DataArray type="Float32" Name="OrientationX" NumberOfComponents="3" format="ascii">
                       0.98276                       0.17087                       0.07065
                       0.98278                       0.17063                       0.07086
                       0.98284                       0.16995                       0.07178
                       0.98289                       0.16894                       0.07334
                       0.98294                       0.16740                       0.07616
                       0.98757                       0.14704                       0.05556
                       0.99014                       0.13301                       0.04395
                       0.99167                       0.12349                       0.03666
                       0.99256                       0.11784                       0.03056
                       0.99267                       0.11805                       0.02600
                       0.99166                       0.12665                       0.02406
                       0.98931                       0.14395                       0.02338
                       0.98492                       0.17130                       0.02437
                       0.97739                       0.20963                       0.02766
                       0.96666                       0.25452                       0.02817
                       0.95527                       0.29470                       0.02482
                       0.94466                       0.32752                       0.01892
                       0.93237                       0.36131                       0.01174
                       0.92556                       0.37851                       0.00798
        </DataArray>
        <DataArray type="Float32" Name="OrientationY" NumberOfComponents="3" format="ascii">
                       0.15710                      -0.57012                      -0.80640
                       0.15722                      -0.57085                      -0.80586
                       0.15780                      -0.57291                      -0.80429
                       0.15879                      -0.57562                      -0.80215
                       0.16062                      -0.57965                      -0.79888
                       0.13265                      -0.58993                      -0.79648
                       0.11557                      -0.59832                      -0.79288
                       0.10457                      -0.60550                      -0.78895
                       0.09681                      -0.61174                      -0.78511
                       0.09382                      -0.61679                      -0.78151
                       0.09811                      -0.62032                      -0.77819
                       0.10887                      -0.62228                      -0.77518
                       0.12733                      -0.62222                      -0.77242
                       0.15461                      -0.61927                      -0.76980
                       0.18403                      -0.61398                      -0.76757
                       0.20754                      -0.60819                      -0.76618
                       0.22435                      -0.60288                      -0.76563
                       0.24074                      -0.59636                      -0.76577
                       0.24890                      -0.59247                      -0.76618
        </DataArray>
        <DataArray type="Float32" Name="OrientationZ" NumberOfComponents="3" format="ascii">
                      -0.09751                       0.80360                      -0.58713
                      -0.09706                       0.80313                      -0.58785
                      -0.09557                       0.80181                      -0.58989
                      -0.09330                       0.80007                      -0.59260
                      -0.08959                       0.79749                      -0.59665
                      -0.08434                       0.79395                      -0.60210
                      -0.07916                       0.79014                      -0.60779
                      -0.07523                       0.78621                      -0.61337
                      -0.07382                       0.78223                      -0.61860
                      -0.07622                       0.77822                      -0.62334
                      -0.08363                       0.77406                      -0.62756
                      -0.09704                       0.76944                      -0.63130
                      -0.11715                       0.76387                      -0.63465
                      -0.14424                       0.75668                      -0.63768
                      -0.17807                       0.74716                      -0.64035
                      -0.21070                       0.73706                      -0.64215
                      -0.23936                       0.72750                      -0.64300
                      -0.26968                       0.71681                      -0.64301
                      -0.28528                       0.71113                      -0.64258
        </DataArray>
        <DataArray type="Float32" Name="Force" NumberOfComponents="3" format="ascii">
                      -0.89903                      -7.28328                      -9.81920
                     395.25103                     -80.48475                    -175.43767
                     543.62236                    -265.26081                    -451.16348
                     516.15543                    -414.09883                    -647.90014
                    4515.38351                    1007.28402                     695.06029
                    5217.40698                     893.08236                     483.22202
                    5801.81439                     807.66960                     339.50793
                    7627.92948                     910.58173                     296.77022
                    8296.21881                     863.47744                     176.03672
                    8731.33843                     852.44854                      79.59998
                   10514.19731                    1026.13818                     -29.00214
                    9238.66639                     965.11178                    -142.89656
                    3972.87083                     401.48243                    -213.94432
                     561.77532                     -74.02590                    -236.39763
                   -8250.60149                   -1731.31280                      67.85627
                  -16648.13327                   -3779.44060                     694.67000
                  -22530.55562                   -5595.53046                    1431.76842
                  -21614.57557                   -5934.44019                    1790.43603
                  -35925.18469                   -9281.94315                    4855.41711
        </DataArray>
        <DataArray type="Float32" Name="Moment" NumberOfComponents="3" format="ascii">
                       0.00000                       0.00000                       0.00000
                       0.00000                       0.00000                       0.00000
                       0.00000                       0.00000                       0.00000
                       0.00000                       0.00000                       0.00000
                     206.50869                   -1869.56666                    1367.82192
                     346.68859                   -3354.43761                    2456.37319
                     426.38044                   -4426.65275                    3244.37995
                     593.12745                   -6529.33571                    4788.75372
                     821.59771                   -9282.12969                    6809.68855
                     940.56462                  -10342.15946                    7585.06100
                    1116.03766                  -11203.36141                    8207.78160
                    1339.05830                  -11566.23105                    8456.51657
                    1177.10207                   -8389.42723                    6114.98741
                    1334.34931                   -7683.48431                    5576.96510
                    1515.19216                   -7021.97376                    5069.73962
                    1656.18156                   -6444.60452                    4628.57389
                    1610.70330                   -5482.69373                    3919.25156
                     866.16367                   -2597.42697                    1847.30701
                    -298.22714                     841.89339                    -597.15954
        </DataArray>
      </PointData>
      <Lines>
        <DataArray type="Int32" Name="connectivity" format="ascii">
      0      1
      1      2
      2      3
      3      4
      4      5
      5      6
      6      7
      7      8
      8      9
      9     10
     10     11
     11     12
     12     13
     13     14
     14     15
     15     16
     16     17
     17     18
        </DataArray>
        <DataArray type="Int32" Name="offsets" format="ascii">
      2
      4
      6
      8
     10
     12
     14
     16
     18
     20
     22
     24
     26
     28
     30
     32
     34
     36
        </DataArray>
      </Lines>
    </Piece>
  </PolyData>
</VTKFile>
