<?xml version="1.0"?>
<VTKFile type="PolyData" version="0.1" byte_order="LittleEndian">
  <PolyData>
    <Piece NumberOfPoints="     19" NumberOfVerts="  0" NumberOfLines="     18"
           NumberOfStrips="  0" NumberOfPolys="      0">
      <Points>
        <DataArray type="Float32" NumberOfComponents="3" format="ascii">
                      -4.95200                       0.56123                      88.64768
                      -5.12641                       1.08593                      87.39748
                      -5.49520                       2.22234                      84.93533
                      -5.87230                       3.39956                      82.49051
                      -6.34568                       4.89462                      79.44379
                      -6.86017                       6.55528                      75.72447
                      -7.35106                       8.09377                      71.95091
                      -7.84805                       9.62728                      68.17549
                      -8.36072                      11.15385                      64.39837
                      -8.90546                      12.67428                      60.62216
                      -9.50245                      14.18994                      56.85110
                     -10.17259                      15.69617                      53.08829
                     -10.94037                      17.18787                      49.33886
                     -11.83213                      18.65775                      45.60946
                     -12.87316                      20.09661                      41.90806
                     -13.87823                      21.26220                      38.85282
                     -14.77817                      22.16074                      36.42862
                     -15.76294                      22.98118                      34.00635
                     -16.30373                      23.41506                      32.82359
        </DataArray>
      </Points>
      <PointData>
        <DataArray type="Float32" Name="TranslationalVelocity" NumberOfComponents="3" format="ascii">
                       0.26514                       4.47099                       1.87352
                       0.41483                       8.56569                       3.57115
                       0.73788                      16.63615                       7.24778
                       1.06811                      24.65112                      11.05634
                       1.47743                      34.63709                      15.89311
                       1.90932                      46.80378                      21.26584
                       2.27906                      59.13294                      26.24441
                       2.61828                      71.46417                      31.20865
                       2.92453                      83.80040                      36.15327
                       3.19723                      96.13869                      41.08230
                       3.43695                     108.47206                      46.00204
                       3.64321                     120.79733                      50.89969
                       3.81602                     133.10558                      55.76155
                       3.95522                     145.38308                      60.56748
                       4.06030                     157.61109                      65.29149
                       4.12020                     167.74384                      69.13767
                       4.14775                     175.81105                      72.11801
                       4.14210                     183.89377                      74.85890
                       4.14445                     187.85630                      76.31200
        </DataArray>
        <DataArray type="Float32" Name="RotationalVelocity" NumberOfComponents="3" format="ascii">
                       3.23422                       0.00448                      -0.29673
                       3.23400                       0.00482                      -0.29660
                       3.23340                       0.00612                      -0.29609
                       3.23265                       0.00824                      -0.29535
                       3.23158                       0.01188                      -0.29430
                       3.23021                       0.01751                      -0.29309
                       3.22886                       0.02427                      -0.29209
                       3.22761                       0.03183                      -0.29138
                       3.22649                       0.03992                      -0.29094
                       3.22552                       0.04827                      -0.29069
                       3.22469                       0.05662                      -0.29048
                       3.22398                       0.06475                      -0.29016
                       3.22335                       0.07248                      -0.28958
                       3.22278                       0.07967                      -0.28859
                       3.22221                       0.08623                      -0.28708
                       3.22172                       0.09120                      -0.28542
                       3.22132                       0.09486                      -0.28382
                       3.22090                       0.09827                      -0.28201
                       3.22068                       0.09989                      -0.28105
        </DataArray>
        <DataArray type="Float32" Name="TranslationalAcceleration" NumberOfComponents="3" format="ascii">
                       0.96764                      -5.93353                      14.42995
                       1.56817                      -7.24872                      17.56088
                       4.50115                     -21.67588                      49.86671
                       7.27866                     -35.48000                      79.34353
                      10.69991                     -52.01316                     113.55365
                      14.95790                     -69.61049                     152.89286
                      19.50262                     -85.57050                     191.63325
                      24.32980                    -101.47718                     230.18435
                      29.38745                    -117.46649                     269.05941
                      34.54315                    -133.56603                     308.43489
                      39.59564                    -149.71840                     348.25239
                      44.28845                    -165.75967                     388.34359
                      48.32004                    -181.52551                     428.49654
                      51.35732                    -196.88053                     468.55748
                      53.04988                    -211.77085                     508.52505
                      53.14561                    -223.85557                     541.93639
                      52.24267                    -233.33011                     568.95967
                      50.23204                    -242.33756                     596.73074
                      48.92964                    -247.24686                     610.73207
        </DataArray>
        <DataArray type="Float32" Name="OrientationX" NumberOfComponents="3" format="ascii">
                       0.97260                       0.22897                      -0.04037
                       0.97260                       0.22895                      -0.04025
                       0.97259                       0.22911                      -0.03978
                       0.97253                       0.22947                      -0.03898
                       0.97240                       0.23029                      -0.03759
                       0.97788                       0.20353                      -0.04832
                       0.98088                       0.18652                      -0.05560
                       0.98258                       0.17503                      -0.06248
                       0.98344                       0.16663                      -0.07130
                       0.98317                       0.16298                      -0.08261
                       0.98128                       0.16672                      -0.09641
                       0.97752                       0.17758                      -0.11371
                       0.97112                       0.19729                      -0.13420
                       0.96101                       0.22763                      -0.15700
                       0.94706                       0.26335                      -0.18361
                       0.93237                       0.29541                      -0.20838
                       0.91854                       0.32198                      -0.22938
                       0.90244                       0.35111                      -0.24965
                       0.89346                       0.36692                      -0.25904
        </DataArray>
        <DataArray type="Float32" Name="OrientationY" NumberOfComponents="3" format="ascii">
                       0.19421                      -0.89552                      -0.40040
                       0.19425                      -0.89556                      -0.40030
                       0.19461                      -0.89561                      -0.40001
                       0.19531                      -0.89564                      -0.39961
                       0.19667                      -0.89560                      -0.39902
                       0.16818                      -0.90229                      -0.39696
                       0.14991                      -0.90623                      -0.39532
                       0.13682                      -0.90881                      -0.39414
                       0.12579                      -0.91074                      -0.39336
                       0.11813                      -0.91187                      -0.39312
                       0.11625                      -0.91187                      -0.39367
                       0.11953                      -0.91087                      -0.39499
                       0.12965                      -0.90845                      -0.39738
                       0.14851                      -0.90380                      -0.40136
                       0.17078                      -0.89755                      -0.40649
                       0.19044                      -0.89131                      -0.41146
                       0.20655                      -0.88560                      -0.41599
                       0.22508                      -0.87835                      -0.42171
                       0.23559                      -0.87389                      -0.42523
        </DataArray>
        <DataArray type="Float32" Name="OrientationZ" NumberOfComponents="3" format="ascii">
                      -0.12783                       0.38159                      -0.91545
                      -0.12770                       0.38151                      -0.91550
                      -0.12727                       0.38130                      -0.91565
                      -0.12661                       0.38102                      -0.91586
                      -0.12556                       0.38061                      -0.91617
                      -0.12439                       0.38005                      -0.91656
                      -0.12412                       0.37943                      -0.91686
                      -0.12576                       0.37872                      -0.91693
                      -0.13048                       0.37787                      -0.91662
                      -0.13940                       0.37675                      -0.91577
                      -0.15355                       0.37509                      -0.91418
                      -0.17372                       0.37252                      -0.91162
                      -0.20032                       0.36850                      -0.90779
                      -0.23326                       0.36240                      -0.90236
                      -0.27185                       0.35362                      -0.89501
                      -0.30728                       0.34395                      -0.88729
                      -0.33708                       0.33472                      -0.87996
                      -0.36735                       0.32438                      -0.87168
                      -0.38240                       0.31889                      -0.86723
        </DataArray>
        <DataArray type="Float32" Name="Force" NumberOfComponents="3" format="ascii">
                      -0.59013                     -15.63476                      -6.43463
                     350.00731                    -142.31247                    -108.13910
                     500.21479                    -424.15635                    -246.32004
                     493.21360                    -641.20261                    -335.42496
                    3893.13189                    1211.11259                     -28.89058
                    4503.42978                    1085.70269                    -158.87850
                    5061.26358                     998.72785                    -269.16841
                    6828.98573                    1185.77303                    -442.77741
                    7492.03917                    1130.56200                    -595.54872
                    7994.12043                    1106.69127                    -755.81797
                    9953.10545                    1303.27217                   -1128.84058
                    9219.85946                    1191.30950                   -1260.96638
                    5228.83830                     623.17167                    -895.22571
                    2671.99150                     369.64120                    -537.90482
                   -4873.17456                   -1189.10591                     986.87517
                  -12703.14676                   -2865.39303                    3222.84898
                  -18888.96075                   -4384.04942                    5452.48337
                  -19040.88737                   -4763.34746                    6104.56260
                  -36205.58652                   -7482.48531                   13016.50235
        </DataArray>
        <DataArray type="Float32" Name="Moment" NumberOfComponents="3" format="ascii">
                       0.00000                       0.00000                       0.00000
                       0.00000                       0.00000                       0.00000
                       0.00000                       0.00000                       0.00000
                       0.00000                       0.00000                       0.00000
                     269.26606                    -818.69445                    1964.55506
                     490.66898                   -1506.27039                    3614.91022
                     651.17831                   -2003.84968                    4809.19938
                     983.34086                   -2986.85627                    7167.22896
                    1461.66523                   -4279.41425                   10263.99650
                    1754.76336                   -4807.55421                   11520.38147
                    2115.27674                   -5257.53457                   12580.67274
                    2512.90740                   -5513.10073                   13165.17554
                    2154.97407                   -4089.85090                    9739.81382
                    2370.24351                   -3847.11453                    9130.27425
                    2571.92782                   -3559.02960                    8411.79342
                    2735.87311                   -3324.80634                    7827.64592
                    2622.68152                   -2883.96461                    6766.87712
                    1372.00884                   -1372.33361                    3208.64333
                     -96.14848                      91.94357                    -214.58497
        </DataArray>
      </PointData>
      <Lines>
        <DataArray type="Int32" Name="connectivity" format="ascii">
      0      1
      1      2
      2      3
      3      4
      4      5
      5      6
      6      7
      7      8
      8      9
      9     10
     10     11
     11     12
     12     13
     13     14
     14     15
     15     16
     16     17
     17     18
        </DataArray>
        <DataArray type="Int32" Name="offsets" format="ascii">
      2
      4
      6
      8
     10
     12
     14
     16
     18
     20
     22
     24
     26
     28
     30
     32
     34
     36
        </DataArray>
      </Lines>
    </Piece>
  </PolyData>
</VTKFile>
