<?xml version="1.0"?>
<VTKFile type="PolyData" version="0.1" byte_order="LittleEndian">
  <PolyData>
    <Piece NumberOfPoints="     19" NumberOfVerts="  0" NumberOfLines="     18"
           NumberOfStrips="  0" NumberOfPolys="      0">
      <Points>
        <DataArray type="Float32" NumberOfComponents="3" format="ascii">
                      -4.90989                       1.17146                      89.08749
                      -5.04787                       2.23098                      88.23493
                      -5.33714                       4.40987                      86.60453
                      -5.62657                       6.61740                      85.00814
                      -5.97661                       9.39405                      83.03073
                      -6.32663                      12.63669                      80.53683
                      -6.63263                      15.79690                      77.93548
                      -6.92013                      18.95484                      75.32853
                      -7.20164                      22.10952                      72.71564
                      -7.49767                      25.26178                      70.10011
                      -7.83327                      28.41261                      67.48698
                      -8.23457                      31.55848                      64.87746
                      -8.73089                      34.69495                      62.27428
                      -9.35237                      37.81527                      59.68043
                     -10.12649                      40.91051                      57.09896
                     -10.91175                      43.46118                      54.95963
                     -11.63693                      45.47297                      53.25089
                     -12.44946                      47.42477                      51.50782
                     -12.90055                      48.41341                      50.67275
        </DataArray>
      </Points>
      <PointData>
        <DataArray type="Float32" Name="TranslationalVelocity" NumberOfComponents="3" format="ascii">
                       0.11096                       3.26904                       3.72814
                       0.46166                       6.10955                       7.20368
                       1.20899                      11.52530                      14.30598
                       2.02860                      16.79273                      21.42923
                       3.18327                      23.25119                      30.26509
                       4.74578                      31.25193                      40.40050
                       6.49639                      39.43232                      50.08391
                       8.40863                      47.47906                      59.57652
                      10.40241                      55.40975                      68.89673
                      12.37893                      63.23885                      78.07530
                      14.22904                      70.97903                      87.14916
                      15.84268                      78.65237                      96.14621
                      17.11931                      86.27182                     105.09344
                      17.97784                      93.84067                     114.01107
                      18.36692                     101.34900                     122.91043
                      18.31516                     107.53945                     130.30963
                      18.05114                     112.45201                     136.19757
                      17.59452                     117.41500                     141.96344
                      17.32159                     119.77090                     144.90376
        </DataArray>
        <DataArray type="Float32" Name="RotationalVelocity" NumberOfComponents="3" format="ascii">
                       3.29019                      -0.01752                      -0.30592
                       3.28226                      -0.02195                      -0.30932
                       3.25902                      -0.03531                      -0.32259
                       3.22823                      -0.05453                      -0.34195
                       3.18355                      -0.08516                      -0.36989
                       3.12640                      -0.12816                      -0.40230
                       3.07091                      -0.17206                      -0.42668
                       3.02088                      -0.21005                      -0.43803
                       2.97853                      -0.23522                      -0.43318
                       2.94462                      -0.24132                      -0.41091
                       2.91872                      -0.22345                      -0.37196
                       2.89943                      -0.17882                      -0.31896
                       2.88461                      -0.10743                      -0.25646
                       2.87162                      -0.01282                      -0.19089
                       2.85754                       0.09724                      -0.13057
                       2.84297                       0.19195                      -0.09104
                       2.82816                       0.26253                      -0.07176
                       2.80971                       0.32110                      -0.06770
                       2.79893                       0.34347                      -0.07263
        </DataArray>
        <DataArray type="Float32" Name="TranslationalAcceleration" NumberOfComponents="3" format="ascii">
                      -0.22676                     -14.48799                       7.76383
                       0.86769                     -15.86387                      11.57813
                       2.24760                     -45.76222                      32.26117
                       2.45161                     -73.12423                      50.85127
                       0.17305                    -104.49529                      72.36723
                      -6.49398                    -137.94773                      98.02877
                     -17.07290                    -168.20856                     124.01275
                     -30.25119                    -196.93387                     149.81431
                     -43.77466                    -224.64133                     175.55997
                     -55.00706                    -251.64354                     201.04191
                     -61.26627                    -278.10293                     225.77276
                     -60.17943                    -304.06663                     249.06844
                     -50.04162                    -329.58089                     270.06225
                     -30.17425                    -354.75776                     287.76179
                      -1.28452                    -379.86993                     301.12355
                      28.01077                    -401.08275                     308.14225
                      52.94510                    -418.57242                     310.83688
                      77.53759                    -436.71912                     311.04052
                      88.76127                    -446.32570                     309.58534
        </DataArray>
        <DataArray type="Float32" Name="OrientationX" NumberOfComponents="3" format="ascii">
                       0.98203                       0.17861                       0.06091
                       0.98209                       0.17814                       0.06133
                       0.98226                       0.17664                       0.06291
                       0.98249                       0.17447                       0.06542
                       0.98277                       0.17125                       0.06957
                       0.98769                       0.14789                       0.05099
                       0.99052                       0.13140                       0.04016
                       0.99229                       0.11977                       0.03198
                       0.99342                       0.11220                       0.02286
                       0.99378                       0.11059                       0.01281
                       0.99309                       0.11732                       0.00287
                       0.99114                       0.13256                      -0.00805
                       0.98733                       0.15759                      -0.01881
                       0.98075                       0.19332                      -0.02757
                       0.97115                       0.23546                      -0.03773
                       0.96073                       0.27341                      -0.04744
                       0.95085                       0.30463                      -0.05554
                       0.93946                       0.33714                      -0.06127
                       0.93320                       0.35385                      -0.06260
        </DataArray>
        <DataArray type="Float32" Name="OrientationY" NumberOfComponents="3" format="ascii">
                       0.15884                      -0.60804                      -0.77785
                       0.15888                      -0.60820                      -0.77772
                       0.15924                      -0.60866                      -0.77729
                       0.15992                      -0.60932                      -0.77663
                       0.16125                      -0.61029                      -0.77559
                       0.13238                      -0.61650                      -0.77615
                       0.11377                      -0.62043                      -0.77596
                       0.10020                      -0.62306                      -0.77573
                       0.08842                      -0.62482                      -0.77575
                       0.07962                      -0.62562                      -0.77606
                       0.07611                      -0.62530                      -0.77667
                       0.07714                      -0.62402                      -0.77759
                       0.08436                      -0.62154                      -0.77882
                       0.09973                      -0.61725                      -0.78042
                       0.11791                      -0.61168                      -0.78227
                       0.13385                      -0.60632                      -0.78387
                       0.14686                      -0.60156                      -0.78521
                       0.16241                      -0.59554                      -0.78674
                       0.17156                      -0.59180                      -0.78762
        </DataArray>
        <DataArray type="Float32" Name="OrientationZ" NumberOfComponents="3" format="ascii">
                      -0.10190                       0.77355                      -0.62549
                      -0.10125                       0.77354                      -0.62561
                      -0.09900                       0.77352                      -0.62599
                      -0.09564                       0.77349                      -0.62655
                      -0.09036                       0.77345                      -0.62739
                      -0.08335                       0.77334                      -0.62849
                      -0.07704                       0.77317                      -0.62950
                      -0.07299                       0.77295                      -0.63026
                      -0.07276                       0.77266                      -0.63063
                      -0.07781                       0.77225                      -0.63053
                      -0.08932                       0.77152                      -0.62990
                      -0.10811                       0.77008                      -0.62872
                      -0.13443                       0.76737                      -0.62696
                      -0.16789                       0.76265                      -0.62464
                      -0.20727                       0.75525                      -0.62180
                      -0.24308                       0.74674                      -0.61910
                      -0.27261                       0.73846                      -0.61674
                      -0.30172                       0.72916                      -0.61424
                      -0.31575                       0.72427                      -0.61297
        </DataArray>
        <DataArray type="Float32" Name="Force" NumberOfComponents="3" format="ascii">
                      -0.92086                      -8.15269                      -9.93251
                     394.91828                     -87.38146                    -171.97404
                     543.84824                    -285.74053                    -439.26288
                     509.95483                    -441.71177                    -623.64903
                    4299.69634                     994.92283                     608.50323
                    4611.92038                     809.57004                     385.93297
                    4457.80935                     608.25263                     202.86170
                    4938.15378                     541.83602                      94.08568
                    4082.62882                     328.74225                     -67.39935
                    2935.61661                     164.99115                    -159.88998
                    3206.50087                     158.92926                    -259.82348
                    1504.52925                      23.53712                    -230.50342
                     552.40474                     -65.05465                    -199.92421
                   -2862.00950                    -507.24475                     142.48568
                   -7769.21782                   -1446.58767                     809.36546
                  -12291.90770                   -2626.80201                    1608.00656
                  -15372.70293                   -3691.56146                    2294.35846
                  -13995.21140                   -3765.49801                    2309.73918
                  -31256.25411                   -7340.51265                    7335.68714
        </DataArray>
        <DataArray type="Float32" Name="Moment" NumberOfComponents="3" format="ascii">
                       0.00000                       0.00000                       0.00000
                       0.00000                       0.00000                       0.00000
                       0.00000                       0.00000                       0.00000
                       0.00000                       0.00000                       0.00000
                     198.39801                   -1699.15290                    1376.28653
                     317.40447                   -2947.46091                    2389.87596
                     370.84562                   -3726.57519                    3024.42551
                     506.49963                   -5373.87699                    4363.96930
                     718.35259                   -7647.82373                    6210.80448
                     850.46201                   -8470.56252                    6873.86797
                    1072.23969                   -9306.86468                    7539.75109
                    1350.93620                   -9689.89104                    7828.30422
                    1224.76853                   -7060.11961                    5681.46082
                    1484.66492                   -6838.75243                    5475.66515
                    1738.19854                   -6459.20197                    5140.62109
                    1898.64518                   -5985.05363                    4736.56048
                    1845.07736                   -5158.27312                    4062.89778
                     990.60319                   -2486.30110                    1948.93831
                     441.15879                   -1054.43113                     824.58619
        </DataArray>
      </PointData>
      <Lines>
        <DataArray type="Int32" Name="connectivity" format="ascii">
      0      1
      1      2
      2      3
      3      4
      4      5
      5      6
      6      7
      7      8
      8      9
      9     10
     10     11
     11     12
     12     13
     13     14
     14     15
     15     16
     16     17
     17     18
        </DataArray>
        <DataArray type="Int32" Name="offsets" format="ascii">
      2
      4
      6
      8
     10
     12
     14
     16
     18
     20
     22
     24
     26
     28
     30
     32
     34
     36
        </DataArray>
      </Lines>
    </Piece>
  </PolyData>
</VTKFile>
