<?xml version="1.0"?>
<VTKFile type="PolyData" version="0.1" byte_order="LittleEndian">
  <PolyData>
    <Piece NumberOfPoints="     19" NumberOfVerts="  0" NumberOfLines="     18"
           NumberOfStrips="  0" NumberOfPolys="      0">
      <Points>
        <DataArray type="Float32" NumberOfComponents="3" format="ascii">
                      -4.83697                       1.41745                      90.38342
                      -4.86574                       2.74173                      90.72118
                      -4.93858                       5.36764                      91.48891
                      -5.01700                       7.98386                      92.29864
                      -5.11425                      11.24961                      93.33304
                      -5.18242                      15.20741                      94.42499
                      -5.23221                      19.19932                      95.38180
                      -5.28913                      23.19394                      96.32941
                      -5.36627                      27.19158                      97.26695
                      -5.48422                      31.19098                      98.19712
                      -5.66780                      35.18946                      99.12354
                      -5.94305                      39.18423                     100.04341
                      -6.33954                      43.17029                     100.95362
                      -6.88840                      47.14039                     101.84862
                      -7.61914                      51.08502                     102.72037
                      -8.39366                      54.34307                     103.42000
                      -9.12777                      56.92698                     103.94962
                      -9.96475                      59.49775                     104.40146
                     -10.43743                      60.75989                     104.65503
        </DataArray>
      </Points>
      <PointData>
        <DataArray type="Float32" Name="TranslationalVelocity" NumberOfComponents="3" format="ascii">
                       0.20699                      -1.22012                       4.85596
                       0.60868                      -2.34408                       9.29604
                       1.40065                      -4.89623                      18.10033
                       2.18316                      -7.58755                      26.87194
                       3.14929                     -11.02683                      37.82057
                       4.30437                     -14.66820                      51.08820
                       5.45049                     -17.86210                      64.46868
                       6.57534                     -21.02296                      77.85638
                       7.67678                     -24.14392                      91.25201
                       8.75133                     -27.22841                     104.65040
                       9.79380                     -30.28259                     118.04077
                      10.79743                     -33.29195                     131.41089
                      11.75273                     -36.24129                     144.73958
                      12.64706                     -39.10872                     157.99639
                      13.46413                     -41.86650                     171.14138
                      14.06939                     -44.05089                     181.96925
                      14.49760                     -45.68458                     190.53324
                      14.87520                     -47.04940                     199.02959
                      15.03088                     -47.81982                     203.18766
        </DataArray>
        <DataArray type="Float32" Name="RotationalVelocity" NumberOfComponents="3" format="ascii">
                       3.35289                      -0.00369                      -0.30433
                       3.35286                      -0.00379                      -0.30390
                       3.35281                      -0.00430                      -0.30239
                       3.35275                      -0.00509                      -0.30021
                       3.35262                      -0.00634                      -0.29691
                       3.35235                      -0.00818                      -0.29246
                       3.35197                      -0.01056                      -0.28777
                       3.35151                      -0.01381                      -0.28293
                       3.35101                      -0.01840                      -0.27783
                       3.35053                      -0.02481                      -0.27220
                       3.35012                      -0.03352                      -0.26564
                       3.34982                      -0.04490                      -0.25766
                       3.34964                      -0.05912                      -0.24767
                       3.34957                      -0.07614                      -0.23504
                       3.34955                      -0.09560                      -0.21913
                       3.34949                      -0.11311                      -0.20300
                       3.34935                      -0.12754                      -0.18786
                       3.34906                      -0.14184                      -0.17056
                       3.34883                      -0.14876                      -0.16107
        </DataArray>
        <DataArray type="Float32" Name="TranslationalAcceleration" NumberOfComponents="3" format="ascii">
                      -0.34334                     -16.45569                      -4.12352
                      -0.49597                     -19.90930                      -5.02214
                      -1.63548                     -56.72534                     -15.35862
                      -2.87397                     -90.45470                     -25.36921
                      -4.50795                    -129.75563                     -37.37834
                      -6.35583                    -174.81814                     -49.46480
                      -8.03185                    -219.06023                     -59.70157
                      -9.58410                    -263.17376                     -69.75678
                     -10.93260                    -307.70417                     -79.75725
                     -12.01056                    -352.79917                     -89.76834
                     -12.76753                    -398.31144                     -99.79477
                     -13.16677                    -443.91925                    -109.72914
                     -13.19736                    -489.20843                    -119.44697
                     -12.87706                    -533.77785                    -128.81387
                     -12.25679                    -577.34744                    -137.71706
                     -11.56815                    -612.81759                    -144.71167
                     -10.95932                    -640.75749                    -149.95315
                     -10.36113                    -668.64195                    -154.40160
                     -10.07151                    -682.42307                    -156.97715
        </DataArray>
        <DataArray type="Float32" Name="OrientationX" NumberOfComponents="3" format="ascii">
                       0.98936                      -0.01451                       0.14477
                       0.98936                      -0.01462                       0.14477
                       0.98931                      -0.01515                       0.14501
                       0.98922                      -0.01608                       0.14554
                       0.98903                      -0.01762                       0.14668
                       0.99288                      -0.01193                       0.11856
                       0.99484                      -0.00778                       0.10113
                       0.99595                      -0.00265                       0.08983
                       0.99662                       0.00560                       0.08200
                       0.99669                       0.01799                       0.07933
                       0.99580                       0.03513                       0.08452
                       0.99358                       0.05804                       0.09713
                       0.98912                       0.08673                       0.11882
                       0.98112                       0.12049                       0.15125
                       0.96900                       0.15964                       0.18858
                       0.95544                       0.19540                       0.22126
                       0.94231                       0.22523                       0.24764
                       0.92688                       0.25443                       0.27598
                       0.91828                       0.26831                       0.29116
        </DataArray>
        <DataArray type="Float32" Name="OrientationY" NumberOfComponents="3" format="ascii">
                       0.14387                       0.24545                      -0.95867
                       0.14391                       0.24517                      -0.95874
                       0.14430                       0.24437                      -0.95889
                       0.14505                       0.24329                      -0.95905
                       0.14656                       0.24169                      -0.95922
                       0.11794                       0.24013                      -0.96355
                       0.10006                       0.23849                      -0.96597
                       0.08789                       0.23715                      -0.96749
                       0.07836                       0.23629                      -0.96852
                       0.07287                       0.23599                      -0.96902
                       0.07390                       0.23632                      -0.96886
                       0.08077                       0.23735                      -0.96806
                       0.09509                       0.23934                      -0.96627
                       0.11860                       0.24288                      -0.96278
                       0.14556                       0.24788                      -0.95779
                       0.16884                       0.25307                      -0.95260
                       0.18743                       0.25796                      -0.94780
                       0.20791                       0.26417                      -0.94180
                       0.21917                       0.26798                      -0.93816
        </DataArray>
        <DataArray type="Float32" Name="OrientationZ" NumberOfComponents="3" format="ascii">
                      -0.02163                       0.96930                       0.24493
                      -0.02147                       0.96937                       0.24467
                      -0.02091                       0.96956                       0.24394
                      -0.01999                       0.96982                       0.24300
                      -0.01855                       0.97019                       0.24162
                      -0.01697                       0.97067                       0.23982
                      -0.01661                       0.97111                       0.23804
                      -0.01874                       0.97147                       0.23643
                      -0.02480                       0.97167                       0.23506
                      -0.03615                       0.97159                       0.23389
                      -0.05401                       0.97104                       0.23273
                      -0.07924                       0.96969                       0.23114
                      -0.11225                       0.96705                       0.22849
                      -0.15274                       0.96254                       0.22400
                      -0.19964                       0.95555                       0.21696
                      -0.24213                       0.94751                       0.20880
                      -0.27735                       0.93954                       0.20086
                      -0.31253                       0.93031                       0.19195
                      -0.32974                       0.92531                       0.18728
        </DataArray>
        <DataArray type="Float32" Name="Force" NumberOfComponents="3" format="ascii">
                      -1.00497                       2.77462                     -11.06919
                     456.02912                      64.65469                    -215.94493
                     582.72211                     155.15123                    -564.63907
                     531.14639                     212.73392                    -799.42646
                    4988.13670                    -222.62873                    1254.67093
                    5702.11836                    -146.82747                     967.86512
                    6295.19890                     -90.52776                     771.34946
                    8206.74497                     -43.49827                     775.78418
                    8767.96882                      64.41232                     599.33987
                    9235.53473                     203.10099                     515.87769
                   11224.04397                     474.72833                     533.20164
                   10154.66973                     698.42356                     456.82180
                    5244.55354                     560.57000                     154.31171
                    1683.79915                     272.20603                     -29.43878
                   -7672.25193                   -1300.23891                   -1073.74390
                  -17233.05421                   -3755.25541                   -2261.96630
                  -24515.82799                   -6241.87048                   -3449.56323
                  -23437.22839                   -6828.39369                   -3607.32447
                  -35769.28388                  -11267.80545                   -5078.78005
        </DataArray>
        <DataArray type="Float32" Name="Moment" NumberOfComponents="3" format="ascii">
                       0.00000                       0.00000                       0.00000
                       0.00000                       0.00000                       0.00000
                       0.00000                       0.00000                       0.00000
                       0.00000                       0.00000                       0.00000
                      41.66961                   -2210.82314                    -557.95225
                      70.03619                   -4105.27044                   -1035.39335
                      90.25084                   -5464.16903                   -1377.85270
                     150.70204                   -8122.34130                   -2049.64350
                     286.26496                  -11621.03592                   -2938.94060
                     472.73930                  -13067.70104                   -3318.49440
                     777.30760                  -14278.71071                   -3649.70012
                    1201.62037                  -14948.64312                   -3856.15002
                    1263.19602                  -11025.78406                   -2878.42929
                    1610.44759                  -10255.66156                   -2716.91593
                    1959.87717                   -9459.50608                   -2549.07484
                    2218.82204                   -8741.15694                   -2392.52172
                    2181.89487                   -7430.84359                   -2060.72351
                    1164.38945                   -3479.89941                    -977.99308
                    -498.74915                    1404.20374                     397.26180
        </DataArray>
      </PointData>
      <Lines>
        <DataArray type="Int32" Name="connectivity" format="ascii">
      0      1
      1      2
      2      3
      3      4
      4      5
      5      6
      6      7
      7      8
      8      9
      9     10
     10     11
     11     12
     12     13
     13     14
     14     15
     15     16
     16     17
     17     18
        </DataArray>
        <DataArray type="Int32" Name="offsets" format="ascii">
      2
      4
      6
      8
     10
     12
     14
     16
     18
     20
     22
     24
     26
     28
     30
     32
     34
     36
        </DataArray>
      </Lines>
    </Piece>
  </PolyData>
</VTKFile>
