<?xml version="1.0"?>
<VTKFile type="PolyData" version="0.1" byte_order="LittleEndian">
  <PolyData>
    <Piece NumberOfPoints="     19" NumberOfVerts="  0" NumberOfLines="     18"
           NumberOfStrips="  0" NumberOfPolys="      0">
      <Points>
        <DataArray type="Float32" NumberOfComponents="3" format="ascii">
                      -4.61557                      -0.49580                      91.46272
                      -4.55247                      -0.90621                      92.76513
                      -4.45012                      -1.81356                      95.34499
                      -4.35600                      -2.75778                      97.91523
                      -4.23723                      -3.95313                     101.12557
                      -4.02320                      -5.23357                     105.02318
                      -3.76488                      -6.36761                     108.96278
                      -3.49560                      -7.47487                     112.90983
                      -3.21989                      -8.55263                     116.86536
                      -2.94898                      -9.60188                     120.82972
                      -2.69806                     -10.62513                     124.80275
                      -2.48314                     -11.61954                     128.78528
                      -2.32472                     -12.58279                     132.77738
                      -2.24642                     -13.51130                     136.77861
                      -2.27244                     -14.40060                     140.78765
                      -2.39736                     -15.10605                     144.13331
                      -2.57233                     -15.63761                     146.81325
                      -2.80941                     -16.09263                     149.50577
                      -2.97579                     -16.34737                     150.84284
        </DataArray>
      </Points>
      <PointData>
        <DataArray type="Float32" Name="TranslationalVelocity" NumberOfComponents="3" format="ascii">
                      -0.11763                      -4.61630                      -1.48849
                      -0.26060                      -8.82535                      -2.80795
                      -0.59789                     -17.15883                      -5.72479
                      -0.99326                     -25.46090                      -8.75932
                      -1.57683                     -35.83103                     -12.59884
                      -2.36184                     -48.44066                     -16.69977
                      -3.23875                     -61.19437                     -20.31487
                      -4.22185                     -73.96766                     -23.83088
                      -5.27727                     -86.76067                     -27.24018
                      -6.37144                     -99.56947                     -30.54884
                      -7.47737                    -112.38772                     -33.76931
                      -8.58019                    -125.21192                     -36.89783
                      -9.68642                    -138.03464                     -39.93405
                     -10.83087                    -150.84513                     -42.87541
                     -12.08393                    -163.62841                     -45.71768
                     -13.29655                    -174.24442                     -48.00234
                     -14.43653                    -182.70896                     -49.74960
                     -15.79238                    -191.17363                     -51.27342
                     -16.57239                    -195.35816                     -52.13886
        </DataArray>
        <DataArray type="Float32" Name="RotationalVelocity" NumberOfComponents="3" format="ascii">
                       3.21666                      -0.01014                      -0.30304
                       3.21682                      -0.01352                      -0.30429
                       3.21723                      -0.02573                      -0.30824
                       3.21748                      -0.04333                      -0.31379
                       3.21728                      -0.06941                      -0.32204
                       3.21609                      -0.10227                      -0.33212
                       3.21401                      -0.13267                      -0.33997
                       3.21140                      -0.15806                      -0.34321
                       3.20872                      -0.17754                      -0.33967
                       3.20637                      -0.19175                      -0.32771
                       3.20447                      -0.20285                      -0.30649
                       3.20275                      -0.21436                      -0.27616
                       3.20037                      -0.23109                      -0.23814
                       3.19572                      -0.25903                      -0.19536
                       3.18629                      -0.30528                      -0.15249
                       3.17249                      -0.36287                      -0.12115
                       3.15542                      -0.42580                      -0.10266
                       3.13117                      -0.50671                      -0.09343
                       3.11576                      -0.55475                      -0.09336
        </DataArray>
        <DataArray type="Float32" Name="TranslationalAcceleration" NumberOfComponents="3" format="ascii">
                      -3.38851                       7.38043                     -16.73013
                      -2.60868                       6.78398                     -18.46108
                      -7.30684                      19.81445                     -52.28930
                     -10.86167                      31.60155                     -83.07360
                     -13.26328                      44.78539                    -118.95706
                     -13.06154                      57.03275                    -160.58049
                      -9.82800                      65.99345                    -202.15188
                      -4.57507                      73.02399                    -244.27750
                       0.99948                      78.00606                    -287.36650
                       4.70659                      80.76871                    -331.40280
                       3.97417                      81.17553                    -376.12083
                      -4.00782                      79.14015                    -421.17783
                     -22.16295                      74.80344                    -466.29751
                     -53.38814                      68.61435                    -511.43403
                    -100.40399                      61.44400                    -556.89426
                    -153.70861                      55.73290                    -595.66664
                    -206.04558                      52.05079                    -627.72048
                    -268.43352                      49.67335                    -660.99409
                    -302.59177                      49.67990                    -678.78053
        </DataArray>
        <DataArray type="Float32" Name="OrientationX" NumberOfComponents="3" format="ascii">
                       0.96529                      -0.23234                      -0.11929
                       0.96528                      -0.23228                      -0.11950
                       0.96516                      -0.23241                      -0.12022
                       0.96493                      -0.23275                      -0.12136
                       0.96451                      -0.23345                      -0.12334
                       0.97155                      -0.20538                      -0.11796
                       0.97548                      -0.18732                      -0.11555
                       0.97794                      -0.17509                      -0.11395
                       0.97974                      -0.16638                      -0.11147
                       0.98074                      -0.16308                      -0.10749
                       0.98053                      -0.16802                      -0.10161
                       0.97914                      -0.18082                      -0.09269
                       0.97588                      -0.20301                      -0.08025
                       0.96967                      -0.23588                      -0.06401
                       0.96105                      -0.27312                      -0.04228
                       0.95219                      -0.30486                      -0.01970
                       0.94417                      -0.32946                       0.00142
                       0.93469                      -0.35462                       0.02451
                       0.92929                      -0.36754                       0.03659
        </DataArray>
        <DataArray type="Float32" Name="OrientationY" NumberOfComponents="3" format="ascii">
                       0.25708                       0.92579                       0.27717
                       0.25706                       0.92600                       0.27648
                       0.25730                       0.92655                       0.27443
                       0.25782                       0.92723                       0.27160
                       0.25884                       0.92822                       0.26724
                       0.23012                       0.93639                       0.26497
                       0.21177                       0.94183                       0.26096
                       0.19920                       0.94588                       0.25619
                       0.18977                       0.94913                       0.25126
                       0.18517                       0.95137                       0.24617
                       0.18811                       0.95219                       0.24073
                       0.19799                       0.95158                       0.23515
                       0.21628                       0.94899                       0.22945
                       0.24429                       0.94350                       0.22390
                       0.27562                       0.93587                       0.21948
                       0.30171                       0.92834                       0.21714
                       0.32135                       0.92188                       0.21649
                       0.34127                       0.91452                       0.21724
                       0.35147                       0.91039                       0.21829
        </DataArray>
        <DataArray type="Float32" Name="OrientationZ" NumberOfComponents="3" format="ascii">
                       0.04604                      -0.29821                       0.95339
                       0.04643                      -0.29760                       0.95356
                       0.04761                      -0.29580                       0.95406
                       0.04932                      -0.29337                       0.95473
                       0.05210                      -0.28968                       0.95570
                       0.05604                      -0.28458                       0.95701
                       0.05994                      -0.27903                       0.95841
                       0.06293                      -0.27324                       0.95989
                       0.06400                      -0.26733                       0.96148
                       0.06212                      -0.26133                       0.96325
                       0.05630                      -0.25516                       0.96526
                       0.04568                      -0.24859                       0.96753
                       0.02958                      -0.24127                       0.97001
                       0.00758                      -0.23275                       0.97251
                      -0.02038                      -0.22258                       0.97470
                      -0.04791                      -0.21271                       0.97594
                      -0.07263                      -0.20395                       0.97628
                      -0.09945                      -0.19469                       0.97581
                      -0.11355                      -0.19000                       0.97520
        </DataArray>
        <DataArray type="Float32" Name="Force" NumberOfComponents="3" format="ascii">
                       0.88957                      30.34426                       9.44853
                     493.30123                     221.29769                      45.20318
                     675.31071                     571.01782                     144.95550
                     650.93838                     796.82142                     215.72307
                    5153.29496                   -1798.14973                    -843.30933
                    6116.87118                   -1637.78906                    -870.29825
                    7356.86526                   -1642.69112                    -973.67234
                   10365.39009                   -2051.27018                   -1320.59924
                   12091.45808                   -2162.66256                   -1480.10957
                   13983.74006                   -2397.29520                   -1649.00700
                   17087.83578                   -2842.65852                   -1879.67961
                   16270.66340                   -2699.31282                   -1601.80089
                   11236.19413                   -1890.54535                    -921.31016
                    3585.44463                    -455.23412                    -164.04445
                   -4083.48342                    1040.27450                     227.98967
                  -15190.70421                    3167.95113                     185.64095
                  -23496.26805                    4919.73836                    -325.76546
                  -21384.12067                    4608.96579                    -869.93133
                  -34645.84378                    7613.43131                   -1889.91044
        </DataArray>
        <DataArray type="Float32" Name="Moment" NumberOfComponents="3" format="ascii">
                       0.00000                       0.00000                       0.00000
                       0.00000                       0.00000                       0.00000
                       0.00000                       0.00000                       0.00000
                       0.00000                       0.00000                       0.00000
                    -123.41356                     709.52598                   -2267.04528
                    -250.45008                    1341.59299                   -4284.98759
                    -358.22851                    1797.68247                   -5739.58576
                    -551.07315                    2639.69626                   -8425.58286
                    -784.85715                    3705.26667                  -11825.68452
                    -845.72335                    4125.41123                  -13169.26122
                    -817.87999                    4420.97098                  -14121.08192
                    -684.45669                    4597.19968                  -14699.60752
                    -322.79356                    3421.38999                  -10957.50871
                     -64.62564                    3250.15106                  -10431.87593
                     223.54167                    2978.54821                   -9586.74573
                     480.98620                    2844.32730                   -9179.92933
                     626.71628                    2465.03678                   -7975.54650
                     423.54502                    1218.79235                   -3954.06565
                    -241.76638                    -609.01997                    1978.64854
        </DataArray>
      </PointData>
      <Lines>
        <DataArray type="Int32" Name="connectivity" format="ascii">
      0      1
      1      2
      2      3
      3      4
      4      5
      5      6
      6      7
      7      8
      8      9
      9     10
     10     11
     11     12
     12     13
     13     14
     14     15
     15     16
     16     17
     17     18
        </DataArray>
        <DataArray type="Int32" Name="offsets" format="ascii">
      2
      4
      6
      8
     10
     12
     14
     16
     18
     20
     22
     24
     26
     28
     30
     32
     34
     36
        </DataArray>
      </Lines>
    </Piece>
  </PolyData>
</VTKFile>
