<?xml version="1.0"?>
<VTKFile type="PolyData" version="0.1" byte_order="LittleEndian">
  <PolyData>
    <Piece NumberOfPoints="     19" NumberOfVerts="  0" NumberOfLines="     18"
           NumberOfStrips="  0" NumberOfPolys="      0">
      <Points>
        <DataArray type="Float32" NumberOfComponents="3" format="ascii">
                      -4.76769                       1.47744                      90.12830
                      -4.81839                       2.83996                      90.22693
                      -4.93596                       5.55833                      90.52053
                      -5.06156                       8.27379                      90.85976
                      -5.22313                      11.66640                      91.31103
                      -5.37912                      15.74931                      91.70616
                      -5.53020                      19.84182                      91.97142
                      -5.70237                      23.93410                      92.23710
                      -5.90885                      28.02573                      92.50259
                      -6.16956                      32.11509                      92.77095
                      -6.50794                      36.19907                      93.04641
                      -6.94812                      40.27336                      93.32695
                      -7.51716                      44.33126                      93.61082
                      -8.24322                      48.36341                      93.89459
                      -9.15237                      52.35787                      94.17304
                     -10.07368                      55.64566                      94.39521
                     -10.92285                      58.24343                      94.55509
                     -11.87470                      60.81083                      94.64810
                     -12.40001                      62.07358                      94.72956
        </DataArray>
      </Points>
      <PointData>
        <DataArray type="Float32" Name="TranslationalVelocity" NumberOfComponents="3" format="ascii">
                       0.45474                      -0.27072                       4.79822
                       0.85511                      -0.57459                       9.20589
                       1.64963                      -1.49230                      18.01310
                       2.42347                      -2.56087                      26.83334
                       3.34383                      -3.99393                      37.89374
                       4.37333                      -5.26030                      51.27371
                       5.32399                      -6.11321                      64.77077
                       6.22227                      -6.97162                      78.36243
                       7.11426                      -7.82872                      92.05348
                       8.05650                      -8.68598                     105.84427
                       9.11106                      -9.54451                     119.73065
                      10.33838                     -10.37977                     133.70542
                      11.79208                     -11.16150                     147.75597
                      13.51293                     -11.84658                     161.86410
                      15.52328                     -12.37892                     176.00591
                      17.42390                     -12.64837                     187.79518
                      19.06759                     -12.69409                     197.21488
                      20.77735                     -12.39843                     206.62595
                      21.68805                     -12.31490                     211.30509
        </DataArray>
        <DataArray type="Float32" Name="RotationalVelocity" NumberOfComponents="3" format="ascii">
                       3.23350                      -0.00715                      -0.29818
                       3.23608                      -0.00681                      -0.29678
                       3.24274                      -0.00546                      -0.29054
                       3.25142                      -0.00261                      -0.28045
                       3.26476                       0.00404                      -0.26439
                       3.28378                       0.01862                      -0.24330
                       3.30483                       0.04265                      -0.22454
                       3.32643                       0.07805                      -0.21236
                       3.34708                       0.12619                      -0.21057
                       3.36536                       0.18747                      -0.22217
                       3.38014                       0.26103                      -0.24911
                       3.39068                       0.34449                      -0.29190
                       3.39680                       0.43363                      -0.34937
                       3.39907                       0.52214                      -0.41832
                       3.39891                       0.60128                      -0.49325
                       3.39859                       0.65263                      -0.55472
                       3.39963                       0.67781                      -0.59881
                       3.40329                       0.68357                      -0.63409
                       3.40659                       0.67753                      -0.64707
        </DataArray>
        <DataArray type="Float32" Name="TranslationalAcceleration" NumberOfComponents="3" format="ascii">
                      -0.63323                     -15.05491                      -0.28171
                      -0.28668                     -18.89636                      -0.69403
                      -0.99561                     -54.18201                      -3.24206
                      -1.65253                     -86.82868                      -6.47001
                      -2.11953                    -125.23264                     -11.04991
                      -1.76433                    -169.42353                     -15.42989
                      -0.11011                    -213.05250                     -18.90281
                       3.21123                    -257.03298                     -22.96698
                       8.58572                    -301.87521                     -27.73737
                      16.36802                    -347.69536                     -33.33931
                      26.86099                    -394.30339                     -39.84436
                      40.31709                    -441.31243                     -47.14739
                      56.92392                    -488.21749                     -54.99749
                      76.79933                    -534.49215                     -62.93626
                      99.98648                    -579.69363                     -70.25428
                     121.87983                    -616.30480                     -75.16027
                     140.98988                    -644.88832                     -77.68352
                     161.72315                    -672.95649                     -77.89140
                     172.36800                    -686.76093                     -77.69767
        </DataArray>
        <DataArray type="Float32" Name="OrientationX" NumberOfComponents="3" format="ascii">
                       0.98948                       0.02720                       0.14207
                       0.98948                       0.02727                       0.14209
                       0.98943                       0.02745                       0.14237
                       0.98935                       0.02766                       0.14292
                       0.98918                       0.02807                       0.14399
                       0.99292                       0.03157                       0.11454
                       0.99481                       0.03590                       0.09524
                       0.99581                       0.04254                       0.08092
                       0.99625                       0.05295                       0.06838
                       0.99593                       0.06820                       0.05899
                       0.99449                       0.08912                       0.05527
                       0.99157                       0.11644                       0.05679
                       0.98648                       0.15021                       0.06556
                       0.97822                       0.18979                       0.08400
                       0.96620                       0.23444                       0.10724
                       0.95298                       0.27415                       0.12914
                       0.94022                       0.30654                       0.14835
                       0.92535                       0.33802                       0.17166
                       0.91709                       0.35297                       0.18538
        </DataArray>
        <DataArray type="Float32" Name="OrientationY" NumberOfComponents="3" format="ascii">
                       0.13973                       0.07434                      -0.98740
                       0.13974                       0.07433                      -0.98739
                       0.14001                       0.07436                      -0.98735
                       0.14054                       0.07445                      -0.98727
                       0.14157                       0.07466                      -0.98711
                       0.11195                       0.07420                      -0.99094
                       0.09238                       0.07430                      -0.99295
                       0.07758                       0.07493                      -0.99417
                       0.06426                       0.07601                      -0.99503
                       0.05366                       0.07754                      -0.99554
                       0.04820                       0.07965                      -0.99566
                       0.04735                       0.08230                      -0.99548
                       0.05306                       0.08579                      -0.99490
                       0.06768                       0.09092                      -0.99356
                       0.08642                       0.09736                      -0.99149
                       0.10420                       0.10371                      -0.98913
                       0.11994                       0.10964                      -0.98671
                       0.13952                       0.11739                      -0.98324
                       0.15122                       0.12228                      -0.98091
        </DataArray>
        <DataArray type="Float32" Name="OrientationZ" NumberOfComponents="3" format="ascii">
                      -0.03742                       0.99686                       0.06976
                      -0.03749                       0.99686                       0.06974
                      -0.03769                       0.99685                       0.06973
                      -0.03795                       0.99684                       0.06977
                      -0.03846                       0.99681                       0.06987
                      -0.03978                       0.99674                       0.07014
                      -0.04272                       0.99659                       0.07060
                      -0.04836                       0.99628                       0.07132
                      -0.05788                       0.99570                       0.07232
                      -0.07247                       0.99465                       0.07357
                      -0.09314                       0.99283                       0.07492
                      -0.12059                       0.98978                       0.07609
                      -0.15506                       0.98493                       0.07666
                      -0.19620                       0.97761                       0.07609
                      -0.24288                       0.96724                       0.07381
                      -0.28457                       0.95608                       0.07027
                      -0.31873                       0.94552                       0.06632
                      -0.35251                       0.93379                       0.06147
                      -0.36890                       0.92761                       0.05877
        </DataArray>
        <DataArray type="Float32" Name="Force" NumberOfComponents="3" format="ascii">
                      -0.89040                       0.64100                      -9.63807
                     440.70871                      31.32823                    -210.86460
                     558.20639                      59.37752                    -546.84725
                     506.57548                      73.32543                    -771.83916
                    4851.33117                      99.58553                    1249.01219
                    5686.66977                     157.99608                     981.53829
                    6502.22054                     221.57964                     810.88075
                    8779.51217                     367.28170                     829.83389
                    9842.51230                     525.28906                     654.89432
                   11126.26931                     770.80224                     548.11198
                   14097.27888                    1284.44629                     506.13729
                   14364.14734                    1718.62864                     390.01056
                   10773.63041                    1675.65782                     222.86181
                    5243.33576                    1050.14824                      -4.96023
                    1386.54998                     367.49009                    -229.56183
                   -6994.75940                   -2020.17062                    -555.29171
                  -14353.77845                   -4727.74125                    -867.04580
                  -16825.34122                   -6201.89553                   -1084.83529
                  -35631.05234                  -14341.74292                    2593.41928
        </DataArray>
        <DataArray type="Float32" Name="Moment" NumberOfComponents="3" format="ascii">
                       0.00000                       0.00000                       0.00000
                       0.00000                       0.00000                       0.00000
                       0.00000                       0.00000                       0.00000
                       0.00000                       0.00000                       0.00000
                      83.78382                   -2172.39618                    -152.21934
                     161.35799                   -4044.15103                    -283.87032
                     233.03605                   -5436.46901                    -383.09079
                     394.69033                   -8130.56546                    -577.20068
                     679.21610                  -11680.00291                    -839.54783
                     968.83774                  -13292.56018                    -973.55005
                    1369.82591                  -14601.81468                   -1097.66899
                    1882.95471                  -15464.69430                   -1202.46088
                    1851.23323                  -11775.58581                    -954.17954
                    2267.24755                  -11324.79636                    -962.63175
                    2568.86743                  -10267.20625                    -920.15945
                    2793.81494                   -9430.13431                    -885.26987
                    2760.08684                   -8232.65426                    -802.51339
                    1490.69232                   -3973.83361                    -402.00202
                     625.60586                   -1583.77210                    -163.12714
        </DataArray>
      </PointData>
      <Lines>
        <DataArray type="Int32" Name="connectivity" format="ascii">
      0      1
      1      2
      2      3
      3      4
      4      5
      5      6
      6      7
      7      8
      8      9
      9     10
     10     11
     11     12
     12     13
     13     14
     14     15
     15     16
     16     17
     17     18
        </DataArray>
        <DataArray type="Int32" Name="offsets" format="ascii">
      2
      4
      6
      8
     10
     12
     14
     16
     18
     20
     22
     24
     26
     28
     30
     32
     34
     36
        </DataArray>
      </Lines>
    </Piece>
  </PolyData>
</VTKFile>
