<?xml version="1.0"?>
<VTKFile type="PolyData" version="0.1" byte_order="LittleEndian">
  <PolyData>
    <Piece NumberOfPoints="     19" NumberOfVerts="  0" NumberOfLines="     18"
           NumberOfStrips="  0" NumberOfPolys="      0">
      <Points>
        <DataArray type="Float32" NumberOfComponents="3" format="ascii">
                      -4.87956                       0.85285                      88.79804
                      -5.04232                       1.62665                      87.68288
                      -5.38424                       3.24790                      85.50467
                      -5.73176                       4.89965                      83.34629
                      -6.16471                       6.97523                      80.65228
                      -6.62624                       9.32887                      77.31557
                      -7.05368                      11.54972                      73.88488
                      -7.46697                      13.74104                      70.43292
                      -7.86698                      15.90048                      66.95858
                      -8.26071                      18.02917                      63.46372
                      -8.65922                      20.12980                      59.95183
                      -9.07542                      22.20051                      56.42417
                      -9.52773                      24.23998                      52.88365
                     -10.03921                      26.24580                      49.33391
                     -10.63554                      28.21479                      45.77928
                     -11.22343                      29.82290                      42.81693
                     -11.76441                      31.07974                      40.44563
                     -12.36999                      32.26804                      38.05043
                     -12.71784                      32.88656                      36.87629
        </DataArray>
      </Points>
      <PointData>
        <DataArray type="Float32" Name="TranslationalVelocity" NumberOfComponents="3" format="ascii">
                       0.20181                       3.91370                       2.80128
                       0.43746                       7.62463                       5.34270
                       0.92839                      14.87077                      10.65724
                       1.43466                      22.03890                      16.05667
                       2.08860                      30.96110                      22.81765
                       2.85440                      41.94851                      30.45178
                       3.58002                      53.18186                      37.62433
                       4.24849                      64.42851                      44.67478
                       4.79671                      75.69173                      51.60066
                       5.15380                      86.96529                      58.41198
                       5.24667                      98.23563                      65.12549
                       5.00469                     109.49201                      71.74493
                       4.36721                     120.71338                      78.27757
                       3.28915                     131.86957                      84.72895
                       1.74683                     142.92061                      91.10257
                       0.10040                     152.00977                      96.35284
                      -1.42797                     159.19306                     100.49136
                      -3.13558                     166.35124                     104.44369
                      -4.04214                     169.81205                     106.51452
        </DataArray>
        <DataArray type="Float32" Name="RotationalVelocity" NumberOfComponents="3" format="ascii">
                       3.28501                       0.00368                      -0.30385
                       3.28331                       0.00305                      -0.30379
                       3.27761                       0.00056                      -0.30428
                       3.26974                      -0.00309                      -0.30511
                       3.25842                      -0.00809                      -0.30553
                       3.24441                      -0.01252                      -0.30280
                       3.23132                      -0.01228                      -0.29346
                       3.21970                      -0.00439                      -0.27453
                       3.20943                       0.01394                      -0.24349
                       3.19980                       0.04498                      -0.19882
                       3.18976                       0.09025                      -0.14044
                       3.17805                       0.15026                      -0.07009
                       3.16339                       0.22430                       0.00820
                       3.14468                       0.31018                       0.08768
                       3.12112                       0.40399                       0.15849
                       3.09767                       0.48412                       0.20207
                       3.07638                       0.54636                       0.21926
                       3.05316                       0.60377                       0.21426
                       3.04098                       0.62965                       0.20139
        </DataArray>
        <DataArray type="Float32" Name="TranslationalAcceleration" NumberOfComponents="3" format="ascii">
                       2.44855                     -12.25077                      14.27291
                       1.79474                     -12.51034                      16.16135
                       5.10839                     -36.16251                      45.42273
                       8.83216                     -57.67168                      71.71935
                      14.88837                     -82.11257                     101.92303
                      24.44438                    -107.25222                     137.10948
                      35.77879                    -128.76334                     172.63766
                      47.01738                    -147.98949                     209.08678
                      55.70678                    -164.84253                     247.44035
                      59.13728                    -179.05881                     288.32315
                      54.73004                    -190.32615                     332.07202
                      40.47908                    -198.31723                     378.80354
                      15.33935                    -202.88532                     428.42386
                     -20.35241                    -204.16255                     480.67568
                     -64.45898                    -202.66169                     535.15481
                    -104.54255                    -199.97046                     581.94539
                    -135.92065                    -197.43490                     619.93017
                    -164.28775                    -194.73018                     658.09525
                    -175.95501                    -194.31128                     677.40494
        </DataArray>
        <DataArray type="Float32" Name="OrientationX" NumberOfComponents="3" format="ascii">
                       0.97685                       0.21386                       0.00528
                       0.97687                       0.21377                       0.00541
                       0.97687                       0.21377                       0.00595
                       0.97685                       0.21382                       0.00689
                       0.97682                       0.21388                       0.00866
                       0.98208                       0.18839                      -0.00601
                       0.98517                       0.17104                      -0.01400
                       0.98719                       0.15843                      -0.01866
                       0.98861                       0.14884                      -0.02227
                       0.98922                       0.14432                      -0.02479
                       0.98869                       0.14776                      -0.02577
                       0.98688                       0.15927                      -0.02657
                       0.98317                       0.18064                      -0.02740
                       0.97654                       0.21344                      -0.02846
                       0.96704                       0.25236                      -0.03381
                       0.95689                       0.28723                      -0.04308
                       0.94728                       0.31571                      -0.05459
                       0.93577                       0.34582                      -0.06893
                       0.92916                       0.36157                      -0.07703
        </DataArray>
        <DataArray type="Float32" Name="OrientationY" NumberOfComponents="3" format="ascii">
                       0.17766                      -0.79726                      -0.57690
                       0.17778                      -0.79780                      -0.57612
                       0.17840                      -0.79928                      -0.57387
                       0.17940                      -0.80123                      -0.57083
                       0.18110                      -0.80414                      -0.56618
                       0.15280                      -0.81444                      -0.55977
                       0.13493                      -0.82243                      -0.55264
                       0.12276                      -0.82918                      -0.54533
                       0.11362                      -0.83515                      -0.53816
                       0.10924                      -0.84005                      -0.53139
                       0.11236                      -0.84349                      -0.52526
                       0.12245                      -0.84544                      -0.51984
                       0.14096                      -0.84537                      -0.51525
                       0.16920                      -0.84236                      -0.51167
                       0.20061                      -0.83692                      -0.50923
                       0.22651                      -0.83086                      -0.50829
                       0.24571                      -0.82520                      -0.50860
                       0.26479                      -0.81823                      -0.51028
                       0.27437                      -0.81412                      -0.51179
        </DataArray>
        <DataArray type="Float32" Name="OrientationZ" NumberOfComponents="3" format="ascii">
                      -0.11917                       0.56449                      -0.81679
                      -0.11884                       0.56376                      -0.81735
                      -0.11792                       0.56166                      -0.81892
                      -0.11654                       0.55885                      -0.82104
                      -0.11413                       0.55462                      -0.82424
                      -0.11035                       0.54882                      -0.82862
                      -0.10604                       0.54255                      -0.83330
                      -0.10187                       0.53606                      -0.83801
                      -0.09870                       0.52950                      -0.84255
                      -0.09751                       0.52296                      -0.84676
                      -0.09935                       0.51642                      -0.85055
                      -0.10526                       0.50976                      -0.85385
                      -0.11624                       0.50271                      -0.85660
                      -0.13318                       0.49485                      -0.85871
                      -0.15681                       0.48567                      -0.85996
                      -0.18179                       0.47662                      -0.86011
                      -0.20562                       0.46838                      -0.85927
                      -0.23286                       0.45925                      -0.85724
                      -0.24776                       0.45440                      -0.85565
        </DataArray>
        <DataArray type="Float32" Name="Force" NumberOfComponents="3" format="ascii">
                      -0.72089                     -11.44519                      -7.80460
                     362.21385                    -116.28363                    -133.03550
                     523.34046                    -375.14837                    -334.64432
                     510.23041                    -580.28035                    -473.43928
                    4289.47966                    1235.61653                     257.75712
                    5132.58131                    1144.44134                     103.69571
                    5980.02412                    1103.97021                      -3.15896
                    8174.07793                    1315.17243                     -92.41339
                    9098.51115                    1278.65360                    -190.99597
                    9727.42067                    1245.65485                    -269.17341
                   11587.74059                    1378.32114                    -414.11232
                   10301.40743                    1177.89658                    -470.75885
                    5381.48858                     542.83568                    -366.18716
                     573.02099                    -119.99417                    -173.74826
                   -7749.87101                   -1487.54355                     421.38878
                  -16374.61843                   -3109.30822                    1421.59064
                  -22408.04289                   -4518.31965                    2435.79378
                  -20739.49916                   -4646.58064                    2656.59061
                  -35523.99700                   -6977.20835                    5931.25589
        </DataArray>
        <DataArray type="Float32" Name="Moment" NumberOfComponents="3" format="ascii">
                       0.00000                       0.00000                       0.00000
                       0.00000                       0.00000                       0.00000
                       0.00000                       0.00000                       0.00000
                       0.00000                       0.00000                       0.00000
                     260.82293                   -1297.28697                    1878.33637
                     453.08125                   -2338.97122                    3388.17303
                     569.18551                   -3070.44993                    4450.13782
                     797.45575                   -4498.03640                    6522.56084
                    1085.32257                   -6347.40162                    9208.00350
                    1186.38821                   -7053.20308                   10233.70253
                    1301.83622                   -7622.43824                   11057.80320
                    1444.07856                   -7996.17009                   11592.72990
                    1178.53342                   -5910.26903                    8558.35357
                    1285.33654                   -5616.78404                    8118.10254
                    1450.68024                   -5366.45451                    7735.73032
                    1605.71365                   -5102.74806                    7334.69362
                    1581.54210                   -4424.42920                    6342.19442
                     858.71895                   -2109.49542                    3014.18680
                    -269.13179                     619.32761                    -883.36421
        </DataArray>
      </PointData>
      <Lines>
        <DataArray type="Int32" Name="connectivity" format="ascii">
      0      1
      1      2
      2      3
      3      4
      4      5
      5      6
      6      7
      7      8
      8      9
      9     10
     10     11
     11     12
     12     13
     13     14
     14     15
     15     16
     16     17
     17     18
        </DataArray>
        <DataArray type="Int32" Name="offsets" format="ascii">
      2
      4
      6
      8
     10
     12
     14
     16
     18
     20
     22
     24
     26
     28
     30
     32
     34
     36
        </DataArray>
      </Lines>
    </Piece>
  </PolyData>
</VTKFile>
