<?xml version="1.0"?>
<VTKFile type="PolyData" version="0.1" byte_order="LittleEndian">
  <PolyData>
    <Piece NumberOfPoints="     22" NumberOfVerts="  0" NumberOfLines="     21"
           NumberOfStrips="  0" NumberOfPolys="      0">
      <Points>
        <DataArray type="Float32" NumberOfComponents="3" format="ascii">
                       0.00016                       0.00004                       2.19000
                       0.00160                       0.00031                       6.57000
                       0.00478                       0.00079                      10.95000
                       0.00985                       0.00142                      15.33000
                       0.01684                       0.00214                      19.70999
                       0.02570                       0.00290                      24.08998
                       0.03637                       0.00363                      28.46997
                       0.04879                       0.00427                      32.84995
                       0.06292                       0.00473                      37.22993
                       0.07876                       0.00495                      41.60990
                       0.09635                       0.00483                      45.98986
                       0.11578                       0.00429                      50.36982
                       0.13714                       0.00325                      54.74977
                       0.16052                       0.00163                      59.12970
                       0.18594                      -0.00062                      63.50963
                       0.21336                      -0.00356                      67.88954
                       0.24257                      -0.00719                      72.26944
                       0.27313                      -0.01149                      76.64934
                       0.30434                      -0.01639                      81.02922
                       0.33509                      -0.02176                      85.40911
                       0.34982                      -0.02457                      87.59906
                       0.00000                       0.00000                       0.00000
        </DataArray>
      </Points>
      <PointData>
        <DataArray type="Float32" Name="TranslationalVelocity" NumberOfComponents="3" format="ascii">
                      -0.00101                       0.00071                       0.00000
                      -0.00933                       0.00598                       0.00000
                      -0.02624                       0.01560                       0.00002
                      -0.05125                       0.02882                       0.00004
                      -0.08326                       0.04503                       0.00009
                      -0.12069                       0.06373                       0.00016
                      -0.16158                       0.08444                       0.00026
                      -0.20378                       0.10668                       0.00038
                      -0.24501                       0.12995                       0.00051
                      -0.28299                       0.15371                       0.00064
                      -0.31553                       0.17736                       0.00077
                      -0.34065                       0.20028                       0.00088
                      -0.35661                       0.22180                       0.00097
                      -0.36200                       0.24128                       0.00100
                      -0.35584                       0.25814                       0.00097
                      -0.33757                       0.27187                       0.00086
                      -0.30714                       0.28216                       0.00067
                      -0.26502                       0.28891                       0.00038
                      -0.21224                       0.29239                       0.00001
                      -0.15039                       0.29327                      -0.00042
                      -0.11674                       0.29312                      -0.00064
                       0.00000                      -0.00000                       0.00000
        </DataArray>
        <DataArray type="Float32" Name="RotationalVelocity" NumberOfComponents="3" format="ascii">
                      -0.00064                      -0.00093                       0.00000
                      -0.00173                      -0.00288                       0.00000
                      -0.00263                      -0.00482                       0.00000
                      -0.00338                      -0.00656                       0.00000
                      -0.00400                      -0.00799                       0.00000
                      -0.00452                      -0.00902                       0.00000
                      -0.00492                      -0.00957                       0.00000
                      -0.00522                      -0.00961                       0.00000
                      -0.00539                      -0.00913                       0.00000
                      -0.00544                      -0.00813                       0.00000
                      -0.00534                      -0.00665                       0.00000
                      -0.00510                      -0.00475                       0.00000
                      -0.00471                      -0.00248                       0.00000
                      -0.00417                       0.00006                       0.00000
                      -0.00351                       0.00278                       0.00000
                      -0.00275                       0.00557                       0.00000
                      -0.00194                       0.00831                       0.00000
                      -0.00115                       0.01088                       0.00000
                      -0.00046                       0.01316                       0.00000
                       0.00001                       0.01500                       0.00000
                       0.00013                       0.01572                       0.00000
                       0.00000                      -0.00000                       0.00000
        </DataArray>
        <DataArray type="Float32" Name="TranslationalAcceleration" NumberOfComponents="3" format="ascii">
                      -0.00934                      -0.00853                       0.00000
                      -0.08667                      -0.07131                       0.00001
                      -0.24365                      -0.18428                       0.00006
                      -0.47584                      -0.33631                       0.00017
                      -0.77295                      -0.51738                       0.00038
                      -1.12017                      -0.71787                       0.00072
                      -1.49945                      -0.92793                       0.00120
                      -1.89062                      -1.13709                       0.00182
                      -2.27249                      -1.33402                       0.00256
                      -2.62384                      -1.50650                       0.00337
                      -2.92435                      -1.64160                       0.00419
                      -3.15540                      -1.72601                       0.00493
                      -3.30084                      -1.74656                       0.00545
                      -3.34766                      -1.69096                       0.00561
                      -3.28653                      -1.54868                       0.00523
                      -3.11236                      -1.31204                       0.00417
                      -2.82466                      -0.97753                       0.00228
                      -2.42790                      -0.54724                      -0.00048
                      -1.93175                      -0.03050                      -0.00406
                      -1.35125                       0.55422                      -0.00826
                      -1.03563                       0.86353                      -0.01048
                       0.00000                      -0.00000                       0.00000
        </DataArray>
        <DataArray type="Float32" Name="RotationalAcceleration" NumberOfComponents="3" format="ascii">
                       0.00765                      -0.00862                       0.00000
                       0.02052                      -0.02679                       0.00000
                       0.03065                      -0.04472                       0.00000
                       0.03839                      -0.06091                       0.00000
                       0.04392                      -0.07419                       0.00000
                       0.04725                      -0.08367                       0.00000
                       0.04827                      -0.08875                       0.00000
                       0.04680                      -0.08906                       0.00000
                       0.04265                      -0.08450                       0.00000
                       0.03561                      -0.07516                       0.00000
                       0.02557                      -0.06135                       0.00000
                       0.01247                      -0.04354                       0.00000
                      -0.00356                      -0.02238                       0.00000
                      -0.02223                       0.00136                       0.00000
                      -0.04303                       0.02675                       0.00000
                      -0.06516                       0.05280                       0.00000
                      -0.08751                       0.07840                       0.00000
                      -0.10862                       0.10240                       0.00000
                      -0.12664                       0.12358                       0.00000
                      -0.13925                       0.14071                       0.00000
                      -0.14267                       0.14736                       0.00000
                       0.00000                      -0.00000                       0.00000
        </DataArray>
        <DataArray type="Float32" Name="OrientationX" NumberOfComponents="3" format="ascii">
                       1.00000                      -0.00000                      -0.00015
                       1.00000                      -0.00000                      -0.00052
                       1.00000                      -0.00000                      -0.00094
                       1.00000                      -0.00000                      -0.00138
                       1.00000                      -0.00000                      -0.00181
                       1.00000                      -0.00000                      -0.00223
                       1.00000                      -0.00000                      -0.00264
                       1.00000                      -0.00000                      -0.00303
                       0.99999                      -0.00000                      -0.00342
                       0.99999                      -0.00000                      -0.00381
                       0.99999                       0.00000                      -0.00422
                       0.99999                       0.00000                      -0.00465
                       0.99999                       0.00000                      -0.00510
                       0.99998                       0.00000                      -0.00557
                       0.99998                       0.00000                      -0.00604
                       0.99998                       0.00000                      -0.00648
                       0.99998                       0.00000                      -0.00684
                       0.99997                       0.00000                      -0.00709
                       0.99997                       0.00000                      -0.00712
                       0.99998                       0.00000                      -0.00686
                       0.99998                       0.00000                      -0.00658
                       1.00000                      -0.00000                       0.00000
        </DataArray>
        <DataArray type="Float32" Name="OrientationY" NumberOfComponents="3" format="ascii">
                      -0.00000                       1.00000                      -0.00003
                      -0.00000                       1.00000                      -0.00009
                      -0.00000                       1.00000                      -0.00013
                      -0.00000                       1.00000                      -0.00016
                      -0.00000                       1.00000                      -0.00017
                      -0.00000                       1.00000                      -0.00017
                      -0.00000                       1.00000                      -0.00016
                      -0.00000                       1.00000                      -0.00013
                      -0.00000                       1.00000                      -0.00008
                      -0.00000                       1.00000                      -0.00001
                       0.00000                       1.00000                       0.00007
                       0.00000                       1.00000                       0.00018
                       0.00000                       1.00000                       0.00030
                       0.00000                       1.00000                       0.00044
                       0.00000                       1.00000                       0.00059
                       0.00000                       1.00000                       0.00075
                       0.00000                       1.00000                       0.00091
                       0.00000                       1.00000                       0.00105
                       0.00000                       1.00000                       0.00118
                       0.00000                       1.00000                       0.00127
                       0.00000                       1.00000                       0.00129
                      -0.00000                       1.00000                      -0.00000
        </DataArray>
        <DataArray type="Float32" Name="OrientationZ" NumberOfComponents="3" format="ascii">
                       0.00015                       0.00003                       1.00000
                       0.00052                       0.00009                       1.00000
                       0.00094                       0.00013                       1.00000
                       0.00138                       0.00016                       1.00000
                       0.00181                       0.00017                       1.00000
                       0.00223                       0.00017                       1.00000
                       0.00264                       0.00016                       1.00000
                       0.00303                       0.00013                       1.00000
                       0.00342                       0.00008                       0.99999
                       0.00381                       0.00001                       0.99999
                       0.00422                      -0.00007                       0.99999
                       0.00465                      -0.00018                       0.99999
                       0.00510                      -0.00030                       0.99999
                       0.00557                      -0.00044                       0.99998
                       0.00604                      -0.00059                       0.99998
                       0.00648                      -0.00075                       0.99998
                       0.00684                      -0.00091                       0.99998
                       0.00709                      -0.00105                       0.99997
                       0.00712                      -0.00118                       0.99997
                       0.00686                      -0.00127                       0.99998
                       0.00658                      -0.00129                       0.99998
                       0.00000                      -0.00000                       1.00000
        </DataArray>
      </PointData>
      <Lines>
        <DataArray type="Int32" Name="connectivity" format="ascii">
      0      1
      1      2
      2      3
      3      4
      4      5
      5      6
      6      7
      7      8
      8      9
      9     10
     10     11
     11     12
     12     13
     13     14
     14     15
     15     16
     16     17
     17     18
     18     19
     19     20
     21      0
        </DataArray>
        <DataArray type="Int32" Name="offsets" format="ascii">
      2
      4
      6
      8
     10
     12
     14
     16
     18
     20
     22
     24
     26
     28
     30
     32
     34
     36
     38
     40
     42
        </DataArray>
      </Lines>
    </Piece>
  </PolyData>
</VTKFile>
