<?xml version="1.0"?>
<VTKFile type="PolyData" version="0.1" byte_order="LittleEndian">
  <PolyData>
    <Piece NumberOfPoints="     22" NumberOfVerts="  0" NumberOfLines="     21"
           NumberOfStrips="  0" NumberOfPolys="      0">
      <Points>
        <DataArray type="Float32" NumberOfComponents="3" format="ascii">
                       0.00009                       0.00006                       2.19000
                       0.00093                       0.00052                       6.57000
                       0.00282                       0.00135                      10.95000
                       0.00586                       0.00246                      15.33000
                       0.01010                       0.00380                      19.71000
                       0.01554                       0.00528                      24.08999
                       0.02217                       0.00684                      28.46999
                       0.02999                       0.00842                      32.84998
                       0.03901                       0.00992                      37.22997
                       0.04929                       0.01127                      41.60996
                       0.06090                       0.01238                      45.98994
                       0.07392                       0.01315                      50.36992
                       0.08846                       0.01350                      54.74990
                       0.10460                       0.01333                      59.12987
                       0.12239                       0.01257                      63.50983
                       0.14180                       0.01117                      67.88979
                       0.16269                       0.00910                      72.26974
                       0.18475                       0.00638                      76.64968
                       0.20745                       0.00306                      81.02962
                       0.23002                      -0.00072                      85.40956
                       0.24091                      -0.00272                      87.59953
                       0.00000                       0.00000                       0.00000
        </DataArray>
      </Points>
      <PointData>
        <DataArray type="Float32" Name="TranslationalVelocity" NumberOfComponents="3" format="ascii">
                       0.00078                       0.00032                      -0.00000
                       0.00720                       0.00270                      -0.00000
                       0.02017                       0.00707                      -0.00001
                       0.03929                       0.01316                      -0.00002
                       0.06363                       0.02075                      -0.00005
                       0.09193                       0.02970                      -0.00009
                       0.12263                       0.03987                      -0.00014
                       0.15397                       0.05118                      -0.00020
                       0.18414                       0.06351                      -0.00026
                       0.21126                       0.07674                      -0.00033
                       0.23358                       0.09075                      -0.00039
                       0.24944                       0.10538                      -0.00044
                       0.25742                       0.12045                      -0.00047
                       0.25637                       0.13579                      -0.00046
                       0.24546                       0.15120                      -0.00041
                       0.22427                       0.16649                      -0.00031
                       0.19280                       0.18153                      -0.00016
                       0.15153                       0.19619                       0.00006
                       0.10146                       0.21045                       0.00033
                       0.04415                       0.22438                       0.00063
                       0.01342                       0.23130                       0.00079
                       0.00000                      -0.00000                       0.00000
        </DataArray>
        <DataArray type="Float32" Name="RotationalVelocity" NumberOfComponents="3" format="ascii">
                      -0.00029                       0.00072                       0.00000
                      -0.00078                       0.00222                       0.00000
                      -0.00120                       0.00369                       0.00000
                      -0.00157                       0.00500                       0.00000
                      -0.00189                       0.00606                       0.00000
                      -0.00219                       0.00680                       0.00000
                      -0.00246                       0.00715                       0.00000
                      -0.00270                       0.00709                       0.00000
                      -0.00292                       0.00661                       0.00000
                      -0.00312                       0.00571                       0.00000
                      -0.00328                       0.00442                       0.00000
                      -0.00340                       0.00277                       0.00000
                      -0.00348                       0.00083                       0.00000
                      -0.00352                      -0.00134                       0.00000
                      -0.00351                      -0.00366                       0.00000
                      -0.00347                      -0.00602                       0.00000
                      -0.00339                      -0.00833                       0.00000
                      -0.00330                      -0.01047                       0.00000
                      -0.00321                      -0.01233                       0.00000
                      -0.00316                      -0.01376                       0.00000
                      -0.00315                      -0.01428                       0.00000
                       0.00000                      -0.00000                       0.00000
        </DataArray>
        <DataArray type="Float32" Name="TranslationalAcceleration" NumberOfComponents="3" format="ascii">
                       0.01088                      -0.00276                      -0.00000
                       0.10021                      -0.02326                      -0.00004
                       0.28007                      -0.06064                      -0.00016
                       0.54399                      -0.11199                      -0.00043
                       0.87883                      -0.17492                      -0.00088
                       1.26615                      -0.24742                      -0.00154
                       1.68354                      -0.32759                      -0.00238
                       2.10593                      -0.41355                      -0.00335
                       2.50676                      -0.50329                      -0.00438
                       2.85925                      -0.59463                      -0.00537
                       3.13748                      -0.68522                      -0.00624
                       3.31753                      -0.77254                      -0.00685
                       3.37845                      -0.85400                      -0.00710
                       3.30334                      -0.92705                      -0.00687
                       3.08023                      -0.98934                      -0.00604
                       2.70300                      -1.03895                      -0.00454
                       2.17225                      -1.07462                      -0.00230
                       1.49605                      -1.09606                       0.00065
                       0.69073                      -1.10431                       0.00418
                      -0.21840                      -1.10210                       0.00803
                      -0.70129                      -1.09858                       0.01000
                       0.00000                      -0.00000                       0.00000
        </DataArray>
        <DataArray type="Float32" Name="RotationalAcceleration" NumberOfComponents="3" format="ascii">
                       0.00248                       0.01002                       0.00000
                       0.00673                       0.03083                       0.00000
                       0.01023                       0.05104                       0.00000
                       0.01313                       0.06896                       0.00000
                       0.01553                       0.08323                       0.00000
                       0.01750                       0.09278                       0.00000
                       0.01904                       0.09686                       0.00000
                       0.02014                       0.09500                       0.00000
                       0.02076                       0.08701                       0.00000
                       0.02086                       0.07296                       0.00000
                       0.02041                       0.05318                       0.00000
                       0.01937                       0.02824                       0.00000
                       0.01773                      -0.00106                       0.00000
                       0.01553                      -0.03369                       0.00000
                       0.01284                      -0.06842                       0.00000
                       0.00977                      -0.10381                       0.00000
                       0.00651                      -0.13824                       0.00000
                       0.00332                      -0.16991                       0.00000
                       0.00055                      -0.19685                       0.00000
                      -0.00137                      -0.21695                       0.00000
                      -0.00185                      -0.22373                       0.00000
                       0.00000                      -0.00000                       0.00000
        </DataArray>
        <DataArray type="Float32" Name="OrientationX" NumberOfComponents="3" format="ascii">
                       1.00000                      -0.00000                      -0.00009
                       1.00000                      -0.00000                      -0.00030
                       1.00000                      -0.00000                      -0.00056
                       1.00000                      -0.00000                      -0.00083
                       1.00000                      -0.00000                      -0.00111
                       1.00000                      -0.00000                      -0.00138
                       1.00000                      -0.00000                      -0.00165
                       1.00000                      -0.00000                      -0.00192
                       1.00000                      -0.00000                      -0.00220
                       1.00000                      -0.00000                      -0.00249
                       1.00000                      -0.00000                      -0.00281
                       1.00000                      -0.00000                      -0.00314
                       0.99999                      -0.00000                      -0.00350
                       0.99999                       0.00000                      -0.00387
                       0.99999                       0.00000                      -0.00425
                       0.99999                       0.00000                      -0.00461
                       0.99999                       0.00000                      -0.00492
                       0.99999                       0.00000                      -0.00513
                       0.99999                       0.00000                      -0.00520
                       0.99999                       0.00000                      -0.00506
                       0.99999                       0.00000                      -0.00487
                       1.00000                      -0.00000                       0.00000
        </DataArray>
        <DataArray type="Float32" Name="OrientationY" NumberOfComponents="3" format="ascii">
                      -0.00000                       1.00000                      -0.00006
                      -0.00000                       1.00000                      -0.00015
                      -0.00000                       1.00000                      -0.00022
                      -0.00000                       1.00000                      -0.00028
                      -0.00000                       1.00000                      -0.00032
                      -0.00000                       1.00000                      -0.00035
                      -0.00000                       1.00000                      -0.00036
                      -0.00000                       1.00000                      -0.00035
                      -0.00000                       1.00000                      -0.00033
                      -0.00000                       1.00000                      -0.00028
                      -0.00000                       1.00000                      -0.00022
                      -0.00000                       1.00000                      -0.00013
                      -0.00000                       1.00000                      -0.00002
                       0.00000                       1.00000                       0.00010
                       0.00000                       1.00000                       0.00024
                       0.00000                       1.00000                       0.00040
                       0.00000                       1.00000                       0.00055
                       0.00000                       1.00000                       0.00069
                       0.00000                       1.00000                       0.00082
                       0.00000                       1.00000                       0.00090
                       0.00000                       1.00000                       0.00093
                      -0.00000                       1.00000                      -0.00000
        </DataArray>
        <DataArray type="Float32" Name="OrientationZ" NumberOfComponents="3" format="ascii">
                       0.00009                       0.00006                       1.00000
                       0.00030                       0.00015                       1.00000
                       0.00056                       0.00022                       1.00000
                       0.00083                       0.00028                       1.00000
                       0.00111                       0.00032                       1.00000
                       0.00138                       0.00035                       1.00000
                       0.00165                       0.00036                       1.00000
                       0.00192                       0.00035                       1.00000
                       0.00220                       0.00033                       1.00000
                       0.00249                       0.00028                       1.00000
                       0.00281                       0.00022                       1.00000
                       0.00314                       0.00013                       1.00000
                       0.00350                       0.00002                       0.99999
                       0.00387                      -0.00010                       0.99999
                       0.00425                      -0.00024                       0.99999
                       0.00461                      -0.00040                       0.99999
                       0.00492                      -0.00055                       0.99999
                       0.00513                      -0.00069                       0.99999
                       0.00520                      -0.00082                       0.99999
                       0.00506                      -0.00090                       0.99999
                       0.00487                      -0.00093                       0.99999
                       0.00000                      -0.00000                       1.00000
        </DataArray>
      </PointData>
      <Lines>
        <DataArray type="Int32" Name="connectivity" format="ascii">
      0      1
      1      2
      2      3
      3      4
      4      5
      5      6
      6      7
      7      8
      8      9
      9     10
     10     11
     11     12
     12     13
     13     14
     14     15
     15     16
     16     17
     17     18
     18     19
     19     20
     21      0
        </DataArray>
        <DataArray type="Int32" Name="offsets" format="ascii">
      2
      4
      6
      8
     10
     12
     14
     16
     18
     20
     22
     24
     26
     28
     30
     32
     34
     36
     38
     40
     42
        </DataArray>
      </Lines>
    </Piece>
  </PolyData>
</VTKFile>
