<?xml version="1.0"?>
<VTKFile type="PolyData" version="0.1" byte_order="LittleEndian">
  <PolyData>
    <Piece NumberOfPoints="     19" NumberOfVerts="  0" NumberOfLines="     18"
           NumberOfStrips="  0" NumberOfPolys="      0">
      <Points>
        <DataArray type="Float32" NumberOfComponents="3" format="ascii">
                      -4.60233                       0.90874                      91.20177
                      -4.56032                       1.76473                      92.26672
                      -4.49538                       3.40525                      94.45643
                      -4.43751                       5.01480                      96.67294
                      -4.36472                       7.01252                      99.45678
                      -4.22532                       9.53165                     102.69707
                      -4.06881                      12.16227                     105.84579
                      -3.93222                      14.80547                     108.98574
                      -3.83801                      17.46269                     112.11651
                      -3.81713                      20.13230                     115.23890
                      -3.90481                      22.81116                     118.35239
                      -4.13623                      25.49982                     121.44959
                      -4.54815                      28.19740                     124.51941
                      -5.17590                      30.90272                     127.54491
                      -6.04937                      33.61415                     130.50309
                      -6.98955                      35.87719                     132.89264
                      -7.88033                      37.69462                     134.73712
                      -8.88518                      39.55384                     136.47995
                      -9.45245                      40.45186                     137.34360
        </DataArray>
      </Points>
      <PointData>
        <DataArray type="Float32" Name="TranslationalVelocity" NumberOfComponents="3" format="ascii">
                       0.36910                      -3.65779                       3.01080
                       0.63195                      -7.10234                       5.76975
                       1.13167                     -14.20952                      11.07830
                       1.62690                     -21.45100                      16.31811
                       2.24971                     -30.63268                      22.87573
                       3.01016                     -41.47769                      31.24185
                       3.69276                     -52.18454                      40.11066
                       4.14381                     -63.02850                      49.17622
                       4.21466                     -74.01191                      58.45098
                       3.74100                     -85.14509                      67.92312
                       2.55746                     -96.44375                      77.55625
                       0.50895                    -107.91318                      87.30484
                      -2.53636                    -119.56456                      97.09229
                      -6.67413                    -131.41192                     106.81139
                     -11.95036                    -143.47094                     116.32129
                     -17.22550                    -153.70124                     123.95367
                     -21.96881                    -161.98214                     129.80972
                     -27.21194                    -170.23092                     135.49124
                     -29.90721                    -174.51237                     138.07547
        </DataArray>
        <DataArray type="Float32" Name="RotationalVelocity" NumberOfComponents="3" format="ascii">
                       3.21933                      -0.00395                      -0.30464
                       3.22880                      -0.00367                      -0.30456
                       3.24650                      -0.00082                      -0.30360
                       3.26547                       0.00310                      -0.30035
                       3.29443                       0.00661                      -0.29007
                       3.33979                       0.00554                      -0.26144
                       3.39608                      -0.00337                      -0.20506
                       3.45901                      -0.02041                      -0.11090
                       3.52199                      -0.04478                       0.03024
                       3.57701                      -0.07498                       0.22468
                       3.61594                      -0.10940                       0.47446
                       3.63161                      -0.14696                       0.77596
                       3.61903                      -0.18763                       1.11837
                       3.57654                      -0.23303                       1.48227
                       3.50699                      -0.28699                       1.83820
                       3.43445                      -0.34271                       2.10144
                       3.37218                      -0.39861                       2.26737
                       3.31287                      -0.46857                       2.37317
                       3.28667                      -0.51015                       2.39708
        </DataArray>
        <DataArray type="Float32" Name="TranslationalAcceleration" NumberOfComponents="3" format="ascii">
                      -2.53432                      -7.72028                     -12.52073
                      -2.04417                     -11.76194                     -14.49368
                      -6.65403                     -33.44362                     -42.00679
                     -12.12805                     -53.76940                     -67.66603
                     -20.31891                     -78.38460                     -98.09561
                     -31.54875                    -108.89298                    -132.27503
                     -43.31534                    -140.86841                    -165.55424
                     -53.87028                    -173.53832                    -200.08349
                     -61.23304                    -206.83724                    -236.58900
                     -63.55776                    -240.54512                    -275.46783
                     -59.44507                    -274.44711                    -316.81222
                     -48.33382                    -308.55047                    -360.41851
                     -30.80219                    -343.20903                    -405.88781
                      -8.90527                    -379.30431                    -452.67152
                      13.50936                    -418.36692                    -500.16242
                      28.18630                    -455.03876                    -539.87486
                      33.79186                    -488.27958                    -571.51511
                      28.74893                    -526.71776                    -603.18822
                      23.58381                    -547.73776                    -618.58398
        </DataArray>
        <DataArray type="Float32" Name="OrientationX" NumberOfComponents="3" format="ascii">
                       0.98466                      -0.15228                       0.08516
                       0.98465                      -0.15235                       0.08517
                       0.98454                      -0.15300                       0.08523
                       0.98433                      -0.15428                       0.08539
                       0.98390                      -0.15658                       0.08610
                       0.98832                      -0.13602                       0.06868
                       0.99056                      -0.12299                       0.06056
                       0.99180                      -0.11274                       0.06017
                       0.99251                      -0.10198                       0.06724
                       0.99231                      -0.09084                       0.08411
                       0.99029                      -0.08039                       0.11344
                       0.98543                      -0.06947                       0.15524
                       0.97591                      -0.05896                       0.21007
                       0.95944                      -0.05022                       0.27741
                       0.93564                      -0.03938                       0.35075
                       0.91053                      -0.02813                       0.41248
                       0.88775                      -0.01778                       0.45998
                       0.86291                      -0.00852                       0.50528
                       0.84997                      -0.00483                       0.52681
        </DataArray>
        <DataArray type="Float32" Name="OrientationY" NumberOfComponents="3" format="ascii">
                       0.17190                       0.76329                      -0.62276
                       0.17195                       0.76297                      -0.62315
                       0.17245                       0.76202                      -0.62417
                       0.17349                       0.76071                      -0.62547
                       0.17564                       0.75871                      -0.62730
                       0.14860                       0.76065                      -0.63193
                       0.13329                       0.76078                      -0.63518
                       0.12510                       0.76030                      -0.63741
                       0.12134                       0.75983                      -0.63870
                       0.12366                       0.75934                      -0.63884
                       0.13460                       0.75867                      -0.63742
                       0.15332                       0.75791                      -0.63408
                       0.18089                       0.75697                      -0.62791
                       0.21808                       0.75580                      -0.61742
                       0.25787                       0.75480                      -0.60314
                       0.29013                       0.75424                      -0.58902
                       0.31399                       0.75408                      -0.57686
                       0.33730                       0.75426                      -0.56331
                       0.34883                       0.75453                      -0.55588
        </DataArray>
        <DataArray type="Float32" Name="OrientationZ" NumberOfComponents="3" format="ascii">
                       0.02984                       0.62785                       0.77776
                       0.02995                       0.62823                       0.77745
                       0.03055                       0.62922                       0.77662
                       0.03154                       0.63049                       0.77556
                       0.03290                       0.63232                       0.77400
                       0.03371                       0.63475                       0.77198
                       0.03205                       0.63725                       0.76999
                       0.02611                       0.63971                       0.76817
                       0.01405                       0.64207                       0.76651
                      -0.00583                       0.64432                       0.76473
                      -0.03482                       0.64650                       0.76212
                      -0.07361                       0.64864                       0.75752
                      -0.12199                       0.65079                       0.74940
                      -0.17866                       0.65288                       0.73609
                      -0.24099                       0.65477                       0.71638
                      -0.29453                       0.65599                       0.69492
                      -0.33660                       0.65654                       0.67502
                      -0.37631                       0.65652                       0.65374
                      -0.39481                       0.65625                       0.64301
        </DataArray>
        <DataArray type="Float32" Name="Force" NumberOfComponents="3" format="ascii">
                      -0.81675                      10.70119                      -8.60721
                     453.65749                     157.53797                    -144.66369
                     588.83998                     422.34331                    -364.18332
                     544.53861                     602.39067                    -508.61725
                    5014.41984                   -1253.43391                     797.89319
                    5907.18741                   -1108.02808                     634.71965
                    6689.95895                   -1019.63708                     541.16912
                    8785.47973                   -1128.55134                     604.55616
                    9359.33685                    -960.96434                     590.27540
                    9806.90486                    -794.52722                     692.13628
                   11838.50973                    -688.02989                    1049.52147
                   10263.72612                    -336.48919                    1203.93141
                    3679.39979                      94.11208                     487.02162
                   -1366.96161                     194.76274                    -461.56723
                  -13502.64302                    -148.06408                   -4037.66043
                  -24822.12525                    -850.70707                   -8784.75027
                  -30721.17311                   -1569.19163                  -12303.58651
                  -25967.70963                   -1608.11446                  -11701.69155
                  -32062.18114                     799.15785                  -17477.07063
        </DataArray>
        <DataArray type="Float32" Name="Moment" NumberOfComponents="3" format="ascii">
                       0.00000                       0.00000                       0.00000
                       0.00000                       0.00000                       0.00000
                       0.00000                       0.00000                       0.00000
                       0.00000                       0.00000                       0.00000
                     -72.52317                   -1370.05799                   -1696.48716
                    -140.90701                   -2583.55980                   -3198.72354
                    -179.80614                   -3441.82305                   -4262.09594
                    -222.15439                   -5144.33398                   -6374.77930
                    -182.08221                   -7459.61820                   -9257.13387
                      58.18758                   -8588.98771                  -10684.05858
                     506.17471                   -9633.16391                  -12024.77450
                    1189.43087                  -10403.96343                  -13047.93095
                    1527.33894                   -7931.62861                  -10006.18514
                    2184.87046                   -7625.88411                   -9688.45235
                    2898.02608                   -7356.91709                   -9421.72259
                    3309.12195                   -6742.83951                   -8697.26013
                    3262.06818                   -5715.99387                   -7416.13606
                    1753.30432                   -2697.49777                   -3520.12461
                   -2899.55949                    4212.06192                    5511.92507
        </DataArray>
      </PointData>
      <Lines>
        <DataArray type="Int32" Name="connectivity" format="ascii">
      0      1
      1      2
      2      3
      3      4
      4      5
      5      6
      6      7
      7      8
      8      9
      9     10
     10     11
     11     12
     12     13
     13     14
     14     15
     15     16
     16     17
     17     18
        </DataArray>
        <DataArray type="Int32" Name="offsets" format="ascii">
      2
      4
      6
      8
     10
     12
     14
     16
     18
     20
     22
     24
     26
     28
     30
     32
     34
     36
        </DataArray>
      </Lines>
    </Piece>
  </PolyData>
</VTKFile>
