<?xml version="1.0"?>
<VTKFile type="PolyData" version="0.1" byte_order="LittleEndian">
  <PolyData>
    <Piece NumberOfPoints="     22" NumberOfVerts="  0" NumberOfLines="     21"
           NumberOfStrips="  0" NumberOfPolys="      0">
      <Points>
        <DataArray type="Float32" NumberOfComponents="3" format="ascii">
                       0.00012                      -0.00001                       2.19000
                       0.00119                      -0.00011                       6.57000
                       0.00356                      -0.00028                      10.95000
                       0.00733                      -0.00052                      15.33000
                       0.01251                      -0.00082                      19.70999
                       0.01908                      -0.00119                      24.08999
                       0.02697                      -0.00160                      28.46998
                       0.03612                      -0.00208                      32.84997
                       0.04652                      -0.00260                      37.22996
                       0.05814                      -0.00317                      41.60994
                       0.07101                      -0.00380                      45.98993
                       0.08518                      -0.00446                      50.36990
                       0.10072                      -0.00517                      54.74987
                       0.11768                      -0.00592                      59.12984
                       0.13609                      -0.00669                      63.50980
                       0.15589                      -0.00749                      67.88976
                       0.17694                      -0.00830                      72.26971
                       0.19893                      -0.00913                      76.64965
                       0.22134                      -0.00997                      81.02960
                       0.24339                      -0.01081                      85.40954
                       0.25394                      -0.01123                      87.59951
                       0.00000                       0.00000                       0.00000
        </DataArray>
      </Points>
      <PointData>
        <DataArray type="Float32" Name="TranslationalVelocity" NumberOfComponents="3" format="ascii">
                      -0.00005                      -0.00001                       0.00000
                      -0.00044                      -0.00005                       0.00000
                      -0.00120                      -0.00013                       0.00000
                      -0.00224                      -0.00023                       0.00000
                      -0.00349                      -0.00035                       0.00000
                      -0.00483                      -0.00048                       0.00000
                      -0.00611                      -0.00061                       0.00001
                      -0.00717                      -0.00074                       0.00001
                      -0.00785                      -0.00084                       0.00001
                      -0.00795                      -0.00091                       0.00001
                      -0.00731                      -0.00094                       0.00001
                      -0.00575                      -0.00092                       0.00000
                      -0.00312                      -0.00083                      -0.00001
                       0.00071                      -0.00066                      -0.00002
                       0.00583                      -0.00041                      -0.00004
                       0.01226                      -0.00007                      -0.00007
                       0.01998                       0.00036                      -0.00011
                       0.02887                       0.00088                      -0.00015
                       0.03871                       0.00149                      -0.00020
                       0.04918                       0.00216                      -0.00025
                       0.05452                       0.00251                      -0.00028
                       0.00000                      -0.00000                       0.00000
        </DataArray>
        <DataArray type="Float32" Name="RotationalVelocity" NumberOfComponents="3" format="ascii">
                       0.00001                      -0.00005                       0.00000
                       0.00001                      -0.00013                       0.00000
                       0.00002                      -0.00021                       0.00000
                       0.00003                      -0.00027                       0.00000
                       0.00003                      -0.00030                       0.00000
                       0.00003                      -0.00030                       0.00000
                       0.00003                      -0.00027                       0.00000
                       0.00003                      -0.00021                       0.00000
                       0.00002                      -0.00010                       0.00000
                       0.00001                       0.00005                       0.00000
                       0.00000                       0.00024                       0.00000
                      -0.00001                       0.00047                       0.00000
                      -0.00003                       0.00073                       0.00000
                      -0.00005                       0.00102                       0.00000
                      -0.00007                       0.00132                       0.00000
                      -0.00009                       0.00162                       0.00000
                      -0.00011                       0.00190                       0.00000
                      -0.00013                       0.00215                       0.00000
                      -0.00015                       0.00233                       0.00000
                      -0.00016                       0.00243                       0.00000
                      -0.00016                       0.00244                       0.00000
                       0.00000                      -0.00000                       0.00000
        </DataArray>
        <DataArray type="Float32" Name="TranslationalAcceleration" NumberOfComponents="3" format="ascii">
                       0.00189                       0.00010                      -0.00000
                       0.01740                       0.00083                      -0.00001
                       0.04857                       0.00209                      -0.00002
                       0.09421                       0.00365                      -0.00006
                       0.15199                       0.00531                      -0.00013
                       0.21864                       0.00681                      -0.00023
                       0.29022                       0.00788                      -0.00036
                       0.36228                       0.00822                      -0.00051
                       0.43013                       0.00749                      -0.00067
                       0.48902                       0.00535                      -0.00083
                       0.53434                       0.00141                      -0.00096
                       0.56184                      -0.00469                      -0.00105
                       0.56777                      -0.01330                      -0.00107
                       0.54912                      -0.02475                      -0.00100
                       0.50377                      -0.03929                      -0.00081
                       0.43063                      -0.05708                      -0.00049
                       0.32986                      -0.07813                      -0.00003
                       0.20299                      -0.10232                       0.00059
                       0.05309                      -0.12930                       0.00132
                      -0.11512                      -0.15846                       0.00213
                      -0.20410                      -0.17361                       0.00255
                       0.00000                      -0.00000                       0.00000
        </DataArray>
        <DataArray type="Float32" Name="RotationalAcceleration" NumberOfComponents="3" format="ascii">
                      -0.00009                       0.00174                       0.00000
                      -0.00023                       0.00535                       0.00000
                      -0.00033                       0.00884                       0.00000
                      -0.00038                       0.01191                       0.00000
                      -0.00037                       0.01434                       0.00000
                      -0.00030                       0.01594                       0.00000
                      -0.00017                       0.01657                       0.00000
                       0.00003                       0.01615                       0.00000
                       0.00031                       0.01465                       0.00000
                       0.00068                       0.01207                       0.00000
                       0.00113                       0.00847                       0.00000
                       0.00167                       0.00395                       0.00000
                       0.00228                      -0.00135                       0.00000
                       0.00296                      -0.00724                       0.00000
                       0.00369                      -0.01351                       0.00000
                       0.00444                      -0.01988                       0.00000
                       0.00517                      -0.02607                       0.00000
                       0.00586                      -0.03174                       0.00000
                       0.00644                      -0.03653                       0.00000
                       0.00684                      -0.04003                       0.00000
                       0.00696                      -0.04117                       0.00000
                       0.00000                      -0.00000                       0.00000
        </DataArray>
        <DataArray type="Float32" Name="OrientationX" NumberOfComponents="3" format="ascii">
                       1.00000                       0.00000                      -0.00011
                       1.00000                       0.00000                      -0.00039
                       1.00000                       0.00000                      -0.00070
                       1.00000                       0.00000                      -0.00102
                       1.00000                       0.00000                      -0.00134
                       1.00000                       0.00000                      -0.00165
                       1.00000                       0.00000                      -0.00195
                       1.00000                       0.00000                      -0.00223
                       1.00000                       0.00000                      -0.00251
                       1.00000                       0.00000                      -0.00279
                       1.00000                       0.00000                      -0.00309
                       0.99999                       0.00000                      -0.00339
                       0.99999                       0.00000                      -0.00371
                       0.99999                       0.00000                      -0.00404
                       0.99999                       0.00000                      -0.00436
                       0.99999                       0.00000                      -0.00467
                       0.99999                       0.00000                      -0.00493
                       0.99999                       0.00000                      -0.00509
                       0.99999                       0.00000                      -0.00511
                       0.99999                       0.00000                      -0.00491
                       0.99999                       0.00000                      -0.00471
                       1.00000                      -0.00000                       0.00000
        </DataArray>
        <DataArray type="Float32" Name="OrientationY" NumberOfComponents="3" format="ascii">
                       0.00000                       1.00000                       0.00001
                       0.00000                       1.00000                       0.00003
                       0.00000                       1.00000                       0.00005
                       0.00000                       1.00000                       0.00006
                       0.00000                       1.00000                       0.00008
                       0.00000                       1.00000                       0.00009
                       0.00000                       1.00000                       0.00010
                       0.00000                       1.00000                       0.00011
                       0.00000                       1.00000                       0.00013
                       0.00000                       1.00000                       0.00014
                       0.00000                       1.00000                       0.00015
                       0.00000                       1.00000                       0.00016
                       0.00000                       1.00000                       0.00017
                       0.00000                       1.00000                       0.00017
                       0.00000                       1.00000                       0.00018
                       0.00000                       1.00000                       0.00018
                       0.00000                       1.00000                       0.00019
                       0.00000                       1.00000                       0.00019
                       0.00000                       1.00000                       0.00019
                       0.00000                       1.00000                       0.00019
                       0.00000                       1.00000                       0.00019
                      -0.00000                       1.00000                      -0.00000
        </DataArray>
        <DataArray type="Float32" Name="OrientationZ" NumberOfComponents="3" format="ascii">
                       0.00011                      -0.00001                       1.00000
                       0.00039                      -0.00003                       1.00000
                       0.00070                      -0.00005                       1.00000
                       0.00102                      -0.00006                       1.00000
                       0.00134                      -0.00008                       1.00000
                       0.00165                      -0.00009                       1.00000
                       0.00195                      -0.00010                       1.00000
                       0.00223                      -0.00011                       1.00000
                       0.00251                      -0.00013                       1.00000
                       0.00279                      -0.00014                       1.00000
                       0.00309                      -0.00015                       1.00000
                       0.00339                      -0.00016                       0.99999
                       0.00371                      -0.00017                       0.99999
                       0.00404                      -0.00017                       0.99999
                       0.00436                      -0.00018                       0.99999
                       0.00467                      -0.00018                       0.99999
                       0.00493                      -0.00019                       0.99999
                       0.00509                      -0.00019                       0.99999
                       0.00511                      -0.00019                       0.99999
                       0.00491                      -0.00019                       0.99999
                       0.00471                      -0.00019                       0.99999
                       0.00000                      -0.00000                       1.00000
        </DataArray>
      </PointData>
      <Lines>
        <DataArray type="Int32" Name="connectivity" format="ascii">
      0      1
      1      2
      2      3
      3      4
      4      5
      5      6
      6      7
      7      8
      8      9
      9     10
     10     11
     11     12
     12     13
     13     14
     14     15
     15     16
     16     17
     17     18
     18     19
     19     20
     21      0
        </DataArray>
        <DataArray type="Int32" Name="offsets" format="ascii">
      2
      4
      6
      8
     10
     12
     14
     16
     18
     20
     22
     24
     26
     28
     30
     32
     34
     36
     38
     40
     42
        </DataArray>
      </Lines>
    </Piece>
  </PolyData>
</VTKFile>
