<?xml version="1.0"?>
<VTKFile type="PolyData" version="0.1" byte_order="LittleEndian">
  <PolyData>
    <Piece NumberOfPoints="     19" NumberOfVerts="  0" NumberOfLines="     18"
           NumberOfStrips="  0" NumberOfPolys="      0">
      <Points>
        <DataArray type="Float32" NumberOfComponents="3" format="ascii">
                      -4.85288                       1.46094                      89.81609
                      -4.92922                       2.81335                      89.63222
                      -5.09640                       5.53122                      89.35856
                      -5.26850                       8.25569                      89.12752
                      -5.48210                      11.66554                      88.86102
                      -5.68919                      15.73904                      88.38778
                      -5.87635                      19.79409                      87.77615
                      -6.06743                      23.84802                      87.15475
                      -6.27404                      27.90044                      86.52265
                      -6.51490                      31.95072                      85.88296
                      -6.81279                      35.99739                      85.24033
                      -7.19160                      40.03671                      84.59364
                      -7.67872                      44.06308                      83.94253
                      -8.30313                      48.06829                      83.28546
                      -9.09234                      52.04169                      82.61967
                      -9.90092                      55.31746                      82.05454
                     -10.65265                      57.90788                      81.58594
                     -11.49924                      60.45951                      81.05321
                     -11.97232                      61.72553                      80.82280
        </DataArray>
      </Points>
      <PointData>
        <DataArray type="Float32" Name="TranslationalVelocity" NumberOfComponents="3" format="ascii">
                       0.49411                       0.68973                       4.79672
                       0.89755                       1.30819                       9.17872
                       1.70480                       2.24454                      17.98587
                       2.51328                       3.04419                      26.81619
                       3.52835                       3.97116                      37.87169
                       4.74700                       5.56689                      51.08668
                       5.96121                       7.60681                      64.25267
                       7.16463                       9.68118                      77.42855
                       8.34162                      11.79603                      90.61517
                       9.47415                      13.94549                     103.81228
                      10.54372                      16.11859                     117.01633
                      11.53280                      18.32184                     130.21572
                      12.42699                      20.55860                     143.39197
                      13.21685                      22.83439                     156.51732
                      13.89991                      25.15627                     169.55473
                      14.39027                      27.13588                     180.31406
                      14.73910                      28.77787                     188.82715
                      15.05050                      30.62865                     197.21480
                      15.20268                      31.43791                     201.37769
        </DataArray>
        <DataArray type="Float32" Name="RotationalVelocity" NumberOfComponents="3" format="ascii">
                       3.24033                      -0.00195                      -0.29764
                       3.24065                      -0.00186                      -0.29738
                       3.24117                      -0.00162                      -0.29729
                       3.24176                      -0.00124                      -0.29764
                       3.24282                      -0.00045                      -0.29830
                       3.24482                       0.00123                      -0.29865
                       3.24764                       0.00412                      -0.29753
                       3.25109                       0.00863                      -0.29395
                       3.25481                       0.01512                      -0.28706
                       3.25837                       0.02381                      -0.27625
                       3.26130                       0.03473                      -0.26132
                       3.26319                       0.04764                      -0.24254
                       3.26372                       0.06194                      -0.22077
                       3.26279                       0.07666                      -0.19763
                       3.26052                       0.09033                      -0.17554
                       3.25794                       0.09960                      -0.16017
                       3.25572                       0.10450                      -0.15174
                       3.25374                       0.10618                      -0.14843
                       3.25297                       0.10551                      -0.14922
        </DataArray>
        <DataArray type="Float32" Name="TranslationalAcceleration" NumberOfComponents="3" format="ascii">
                       0.44035                     -15.47661                       1.86543
                       0.27065                     -18.94825                       2.45667
                       0.67464                     -54.38372                       6.10674
                       0.86690                     -87.08472                       9.01807
                       0.73557                    -125.39323                      12.17285
                       0.19123                    -168.86060                      17.35892
                      -0.70126                    -211.08985                      23.99625
                      -1.80182                    -253.24634                      30.89671
                      -2.74308                    -295.82433                      38.15533
                      -3.11639                    -338.95189                      45.78015
                      -2.52281                    -382.48068                      53.72157
                      -0.63047                    -426.07192                      61.95205
                       2.76560                    -469.30379                      70.40956
                       7.68546                    -511.76693                      79.02216
                      13.90559                    -553.17218                      87.71369
                      19.71571                    -586.78781                      94.97623
                      24.40198                    -613.17864                     100.85700
                      28.80832                    -639.20756                     107.29486
                      30.73831                    -652.23968                     110.08310
        </DataArray>
        <DataArray type="Float32" Name="OrientationX" NumberOfComponents="3" format="ascii">
                       0.98843                       0.07460                       0.13203
                       0.98844                       0.07445                       0.13208
                       0.98842                       0.07392                       0.13250
                       0.98838                       0.07309                       0.13331
                       0.98825                       0.07180                       0.13490
                       0.99210                       0.06619                       0.10657
                       0.99407                       0.06290                       0.08867
                       0.99515                       0.06250                       0.07596
                       0.99570                       0.06588                       0.06516
                       0.99557                       0.07453                       0.05739
                       0.99443                       0.08994                       0.05489
                       0.99199                       0.11284                       0.05683
                       0.98748                       0.14385                       0.06474
                       0.97981                       0.18302                       0.08046
                       0.96852                       0.22862                       0.09849
                       0.95612                       0.27001                       0.11372
                       0.94422                       0.30440                       0.12565
                       0.93031                       0.33914                       0.13965
                       0.92258                       0.35633                       0.14788
        </DataArray>
        <DataArray type="Float32" Name="OrientationY" NumberOfComponents="3" format="ascii">
                       0.14078                      -0.12769                      -0.98177
                       0.14083                      -0.12798                      -0.98173
                       0.14121                      -0.12878                      -0.98157
                       0.14196                      -0.12984                      -0.98132
                       0.14344                      -0.13139                      -0.98090
                       0.11475                      -0.13551                      -0.98411
                       0.09669                      -0.13865                      -0.98561
                       0.08415                      -0.14102                      -0.98642
                       0.07403                      -0.14272                      -0.98699
                       0.06767                      -0.14363                      -0.98732
                       0.06748                      -0.14357                      -0.98734
                       0.07276                      -0.14254                      -0.98711
                       0.08509                      -0.14019                      -0.98646
                       0.10625                      -0.13579                      -0.98502
                       0.13057                      -0.12967                      -0.98292
                       0.15151                      -0.12345                      -0.98072
                       0.16818                      -0.11771                      -0.97870
                       0.18679                      -0.11044                      -0.97617
                       0.19715                      -0.10597                      -0.97463
        </DataArray>
        <DataArray type="Float32" Name="OrientationZ" NumberOfComponents="3" format="ascii">
                      -0.05638                       0.98900                      -0.13672
                      -0.05619                       0.98898                      -0.13699
                      -0.05549                       0.98891                      -0.13773
                      -0.05441                       0.98884                      -0.13871
                      -0.05271                       0.98873                      -0.14015
                      -0.05069                       0.98856                      -0.14203
                      -0.04970                       0.98834                      -0.14391
                      -0.05094                       0.98803                      -0.14559
                      -0.05572                       0.98757                      -0.14698
                      -0.06534                       0.98682                      -0.14804
                      -0.08092                       0.98555                      -0.14884
                      -0.10328                       0.98334                      -0.14960
                      -0.13283                       0.97962                      -0.15068
                      -0.16936                       0.97369                      -0.15249
                      -0.21194                       0.96484                      -0.15544
                      -0.25076                       0.95491                      -0.15894
                      -0.28312                       0.94524                      -0.16234
                      -0.31563                       0.93423                      -0.16609
                      -0.33162                       0.92833                      -0.16801
        </DataArray>
        <DataArray type="Float32" Name="Force" NumberOfComponents="3" format="ascii">
                      -0.92024                      -1.43770                     -10.02084
                     437.23536                      -4.82177                    -214.46381
                     553.27687                     -44.95475                    -549.07442
                     501.73444                     -79.20612                    -770.94822
                    4742.16867                     411.32967                    1154.22821
                    5420.17308                     396.04171                     869.28589
                    5926.55142                     386.43473                     664.10841
                    7624.78107                     472.92912                     620.83192
                    8004.49887                     499.24271                     403.34613
                    8307.56512                     576.11777                     265.08246
                   10066.34812                     831.68100                     152.01492
                    9100.60181                     940.21153                      14.70980
                    4761.80805                     616.35303                    -131.91886
                    1959.43509                     317.97292                    -126.68814
                   -5867.53356                   -1302.61066                    -332.88048
                  -13829.44320                   -3589.45070                    -360.22238
                  -19930.58490                   -5856.40394                    -339.82233
                  -19568.62671                   -6468.67760                    -373.30337
                  -35607.18744                  -12237.12015                     995.35004
        </DataArray>
        <DataArray type="Float32" Name="Moment" NumberOfComponents="3" format="ascii">
                       0.00000                       0.00000                       0.00000
                       0.00000                       0.00000                       0.00000
                       0.00000                       0.00000                       0.00000
                       0.00000                       0.00000                       0.00000
                     114.25244                   -2155.57811                     298.77013
                     200.38455                   -3944.06600                     547.45593
                     258.93798                   -5216.53159                     724.64030
                     391.79154                   -7724.17939                    1072.21391
                     612.26604                  -11052.30529                    1529.45562
                     808.79301                  -12450.44364                    1711.99993
                    1100.70553                  -13662.31779                    1859.06133
                    1481.89555                  -14373.86591                    1926.14208
                    1423.15784                  -10694.57629                    1403.66604
                    1714.74759                  -10054.72749                    1285.08920
                    2010.74657                   -9353.01960                    1157.23249
                    2235.07274                   -8716.19150                    1045.26599
                    2195.75960                   -7523.56897                     877.76988
                    1172.73575                   -3571.03639                     404.64400
                    -255.24011                     736.00719                     -82.15617
        </DataArray>
      </PointData>
      <Lines>
        <DataArray type="Int32" Name="connectivity" format="ascii">
      0      1
      1      2
      2      3
      3      4
      4      5
      5      6
      6      7
      7      8
      8      9
      9     10
     10     11
     11     12
     12     13
     13     14
     14     15
     15     16
     16     17
     17     18
        </DataArray>
        <DataArray type="Int32" Name="offsets" format="ascii">
      2
      4
      6
      8
     10
     12
     14
     16
     18
     20
     22
     24
     26
     28
     30
     32
     34
     36
        </DataArray>
      </Lines>
    </Piece>
  </PolyData>
</VTKFile>
